%!PS-Adobe-3.0 EPSF-3.0
%%Creator: (MATLAB, The Mathworks, Inc. Version 9.0.0.341360 \(R2016a\). Operating System: Windows 8)
%%Title: C:/Users/fenix/Documents/MatlabScripts/GitSpherical3/Spherical/results/cristal/medidas.eps
%%CreationDate: 2017-02-17T10:53:35
%%Pages: (atend)
%%BoundingBox: 0 0 1440 722
%%LanguageLevel: 3
%%EndComments
%%BeginProlog
%%BeginResource: procset (Apache XML Graphics Std ProcSet) 1.2 0
%%Version: 1.2 0
%%Copyright: (Copyright 2001-2003,2010 The Apache Software Foundation. License terms: http://www.apache.org/licenses/LICENSE-2.0)
/bd{bind def}bind def
/ld{load def}bd
/GR/grestore ld
/M/moveto ld
/LJ/setlinejoin ld
/C/curveto ld
/f/fill ld
/LW/setlinewidth ld
/GC/setgray ld
/t/show ld
/N/newpath ld
/CT/concat ld
/cp/closepath ld
/S/stroke ld
/L/lineto ld
/CC/setcmykcolor ld
/A/ashow ld
/GS/gsave ld
/RC/setrgbcolor ld
/RM/rmoveto ld
/ML/setmiterlimit ld
/re {4 2 roll M
1 index 0 rlineto
0 exch rlineto
neg 0 rlineto
cp } bd
/_ctm matrix def
/_tm matrix def
/BT { _ctm currentmatrix pop matrix _tm copy pop 0 0 moveto } bd
/ET { _ctm setmatrix } bd
/iTm { _ctm setmatrix _tm concat } bd
/Tm { _tm astore pop iTm 0 0 moveto } bd
/ux 0.0 def
/uy 0.0 def
/F {
  /Tp exch def
  /Tf exch def
  Tf findfont Tp scalefont setfont
  /cf Tf def  /cs Tp def
} bd
/ULS {currentpoint /uy exch def /ux exch def} bd
/ULE {
  /Tcx currentpoint pop def
  gsave
  newpath
  cf findfont cs scalefont dup
  /FontMatrix get 0 get /Ts exch def /FontInfo get dup
  /UnderlinePosition get Ts mul /To exch def
  /UnderlineThickness get Ts mul /Tt exch def
  ux uy To add moveto  Tcx uy To add lineto
  Tt setlinewidth stroke
  grestore
} bd
/OLE {
  /Tcx currentpoint pop def
  gsave
  newpath
  cf findfont cs scalefont dup
  /FontMatrix get 0 get /Ts exch def /FontInfo get dup
  /UnderlinePosition get Ts mul /To exch def
  /UnderlineThickness get Ts mul /Tt exch def
  ux uy To add cs add moveto Tcx uy To add cs add lineto
  Tt setlinewidth stroke
  grestore
} bd
/SOE {
  /Tcx currentpoint pop def
  gsave
  newpath
  cf findfont cs scalefont dup
  /FontMatrix get 0 get /Ts exch def /FontInfo get dup
  /UnderlinePosition get Ts mul /To exch def
  /UnderlineThickness get Ts mul /Tt exch def
  ux uy To add cs 10 mul 26 idiv add moveto Tcx uy To add cs 10 mul 26 idiv add lineto
  Tt setlinewidth stroke
  grestore
} bd
/QT {
/Y22 exch store
/X22 exch store
/Y21 exch store
/X21 exch store
currentpoint
/Y21 load 2 mul add 3 div exch
/X21 load 2 mul add 3 div exch
/X21 load 2 mul /X22 load add 3 div
/Y21 load 2 mul /Y22 load add 3 div
/X22 load /Y22 load curveto
} bd
/SSPD {
dup length /d exch dict def
{
/v exch def
/k exch def
currentpagedevice k known {
/cpdv currentpagedevice k get def
v cpdv ne {
/upd false def
/nullv v type /nulltype eq def
/nullcpdv cpdv type /nulltype eq def
nullv nullcpdv or
{
/upd true def
} {
/sametype v type cpdv type eq def
sametype {
v type /arraytype eq {
/vlen v length def
/cpdvlen cpdv length def
vlen cpdvlen eq {
0 1 vlen 1 sub {
/i exch def
/obj v i get def
/cpdobj cpdv i get def
obj cpdobj ne {
/upd true def
exit
} if
} for
} {
/upd true def
} ifelse
} {
v type /dicttype eq {
v {
/dv exch def
/dk exch def
/cpddv cpdv dk get def
dv cpddv ne {
/upd true def
exit
} if
} forall
} {
/upd true def
} ifelse
} ifelse
} if
} ifelse
upd true eq {
d k v put
} if
} if
} if
} forall
d length 0 gt {
d setpagedevice
} if
} bd
%%EndResource
%%BeginResource: procset (Apache XML Graphics EPS ProcSet) 1.0 0
%%Version: 1.0 0
%%Copyright: (Copyright 2002-2003 The Apache Software Foundation. License terms: http://www.apache.org/licenses/LICENSE-2.0)
/BeginEPSF { %def
/b4_Inc_state save def         % Save state for cleanup
/dict_count countdictstack def % Count objects on dict stack
/op_count count 1 sub def      % Count objects on operand stack
userdict begin                 % Push userdict on dict stack
/showpage { } def              % Redefine showpage, { } = null proc
0 setgray 0 setlinecap         % Prepare graphics state
1 setlinewidth 0 setlinejoin
10 setmiterlimit [ ] 0 setdash newpath
/languagelevel where           % If level not equal to 1 then
{pop languagelevel             % set strokeadjust and
1 ne                           % overprint to their defaults.
{false setstrokeadjust false setoverprint
} if
} if
} bd
/EndEPSF { %def
count op_count sub {pop} repeat            % Clean up stacks
countdictstack dict_count sub {end} repeat
b4_Inc_state restore
} bd
%%EndResource
%FOPBeginFontDict
%%IncludeResource: font Courier-Bold
%%IncludeResource: font Helvetica
%%IncludeResource: font Courier-BoldOblique
%%IncludeResource: font Courier-Oblique
%%IncludeResource: font Times-Roman
%%IncludeResource: font Helvetica-BoldOblique
%%IncludeResource: font Helvetica-Bold
%%IncludeResource: font Helvetica-Oblique
%%IncludeResource: font Times-BoldItalic
%%IncludeResource: font Courier
%%IncludeResource: font Times-Italic
%%IncludeResource: font Times-Bold
%%IncludeResource: font Symbol
%%IncludeResource: font ZapfDingbats
%FOPEndFontDict
%%BeginResource: encoding WinAnsiEncoding
/WinAnsiEncoding [
/.notdef /.notdef /.notdef /.notdef /.notdef
/.notdef /.notdef /.notdef /.notdef /.notdef
/.notdef /.notdef /.notdef /.notdef /.notdef
/.notdef /.notdef /.notdef /.notdef /.notdef
/.notdef /.notdef /.notdef /.notdef /.notdef
/.notdef /.notdef /.notdef /.notdef /.notdef
/.notdef /.notdef /space /exclam /quotedbl
/numbersign /dollar /percent /ampersand /quotesingle
/parenleft /parenright /asterisk /plus /comma
/hyphen /period /slash /zero /one
/two /three /four /five /six
/seven /eight /nine /colon /semicolon
/less /equal /greater /question /at
/A /B /C /D /E
/F /G /H /I /J
/K /L /M /N /O
/P /Q /R /S /T
/U /V /W /X /Y
/Z /bracketleft /backslash /bracketright /asciicircum
/underscore /quoteleft /a /b /c
/d /e /f /g /h
/i /j /k /l /m
/n /o /p /q /r
/s /t /u /v /w
/x /y /z /braceleft /bar
/braceright /asciitilde /bullet /Euro /bullet
/quotesinglbase /florin /quotedblbase /ellipsis /dagger
/daggerdbl /circumflex /perthousand /Scaron /guilsinglleft
/OE /bullet /Zcaron /bullet /bullet
/quoteleft /quoteright /quotedblleft /quotedblright /bullet
/endash /emdash /asciitilde /trademark /scaron
/guilsinglright /oe /bullet /zcaron /Ydieresis
/space /exclamdown /cent /sterling /currency
/yen /brokenbar /section /dieresis /copyright
/ordfeminine /guillemotleft /logicalnot /sfthyphen /registered
/macron /degree /plusminus /twosuperior /threesuperior
/acute /mu /paragraph /middot /cedilla
/onesuperior /ordmasculine /guillemotright /onequarter /onehalf
/threequarters /questiondown /Agrave /Aacute /Acircumflex
/Atilde /Adieresis /Aring /AE /Ccedilla
/Egrave /Eacute /Ecircumflex /Edieresis /Igrave
/Iacute /Icircumflex /Idieresis /Eth /Ntilde
/Ograve /Oacute /Ocircumflex /Otilde /Odieresis
/multiply /Oslash /Ugrave /Uacute /Ucircumflex
/Udieresis /Yacute /Thorn /germandbls /agrave
/aacute /acircumflex /atilde /adieresis /aring
/ae /ccedilla /egrave /eacute /ecircumflex
/edieresis /igrave /iacute /icircumflex /idieresis
/eth /ntilde /ograve /oacute /ocircumflex
/otilde /odieresis /divide /oslash /ugrave
/uacute /ucircumflex /udieresis /yacute /thorn
/ydieresis
] def
%%EndResource
%FOPBeginFontReencode
/Courier-Bold findfont
dup length dict begin
  {1 index /FID ne {def} {pop pop} ifelse} forall
  /Encoding WinAnsiEncoding def
  currentdict
end
/Courier-Bold exch definefont pop
/Helvetica findfont
dup length dict begin
  {1 index /FID ne {def} {pop pop} ifelse} forall
  /Encoding WinAnsiEncoding def
  currentdict
end
/Helvetica exch definefont pop
/Courier-BoldOblique findfont
dup length dict begin
  {1 index /FID ne {def} {pop pop} ifelse} forall
  /Encoding WinAnsiEncoding def
  currentdict
end
/Courier-BoldOblique exch definefont pop
/Courier-Oblique findfont
dup length dict begin
  {1 index /FID ne {def} {pop pop} ifelse} forall
  /Encoding WinAnsiEncoding def
  currentdict
end
/Courier-Oblique exch definefont pop
/Times-Roman findfont
dup length dict begin
  {1 index /FID ne {def} {pop pop} ifelse} forall
  /Encoding WinAnsiEncoding def
  currentdict
end
/Times-Roman exch definefont pop
/Helvetica-BoldOblique findfont
dup length dict begin
  {1 index /FID ne {def} {pop pop} ifelse} forall
  /Encoding WinAnsiEncoding def
  currentdict
end
/Helvetica-BoldOblique exch definefont pop
/Helvetica-Bold findfont
dup length dict begin
  {1 index /FID ne {def} {pop pop} ifelse} forall
  /Encoding WinAnsiEncoding def
  currentdict
end
/Helvetica-Bold exch definefont pop
/Helvetica-Oblique findfont
dup length dict begin
  {1 index /FID ne {def} {pop pop} ifelse} forall
  /Encoding WinAnsiEncoding def
  currentdict
end
/Helvetica-Oblique exch definefont pop
/Times-BoldItalic findfont
dup length dict begin
  {1 index /FID ne {def} {pop pop} ifelse} forall
  /Encoding WinAnsiEncoding def
  currentdict
end
/Times-BoldItalic exch definefont pop
/Courier findfont
dup length dict begin
  {1 index /FID ne {def} {pop pop} ifelse} forall
  /Encoding WinAnsiEncoding def
  currentdict
end
/Courier exch definefont pop
/Times-Italic findfont
dup length dict begin
  {1 index /FID ne {def} {pop pop} ifelse} forall
  /Encoding WinAnsiEncoding def
  currentdict
end
/Times-Italic exch definefont pop
/Times-Bold findfont
dup length dict begin
  {1 index /FID ne {def} {pop pop} ifelse} forall
  /Encoding WinAnsiEncoding def
  currentdict
end
/Times-Bold exch definefont pop
%FOPEndFontReencode
%%EndProlog
%%Page: 1 1
%%PageBoundingBox: 0 0 1440 722
%%BeginPageSetup
[1 0 0 -1 0 722] CT
%%EndPageSetup
GS
[0.75 0 0 0.75 0 -0.25] CT
1 GC
N
0 0 1920 963 re
f
GR
GS
[0.75 0 0 0.75 0 -0.25] CT
1 GC
N
0 0 1920 963 re
f
GR
GS
[0.75 0 0 0.75 0 -0.25] CT
1 GC
N
601.5 857 M
1386.5 857 L
1386.5 72 L
601.5 72 L
cp
f
GR
GS
[0.75 0 0 0.75 0 -0.25] CT
0.775 GC
[1 3] 0 setdash
2 LJ
0.667 LW
N
617.2 857 M
617.2 72 L
S
GR
GS
[0.75 0 0 0.75 0 -0.25] CT
0.775 GC
[1 3] 0 setdash
2 LJ
0.667 LW
N
632.9 857 M
632.9 72 L
S
GR
GS
[0.75 0 0 0.75 0 -0.25] CT
0.775 GC
[1 3] 0 setdash
2 LJ
0.667 LW
N
648.6 857 M
648.6 72 L
S
GR
GS
[0.75 0 0 0.75 0 -0.25] CT
0.775 GC
[1 3] 0 setdash
2 LJ
0.667 LW
N
664.3 857 M
664.3 72 L
S
GR
GS
[0.75 0 0 0.75 0 -0.25] CT
0.775 GC
[1 3] 0 setdash
2 LJ
0.667 LW
N
695.7 857 M
695.7 72 L
S
GR
GS
[0.75 0 0 0.75 0 -0.25] CT
0.775 GC
[1 3] 0 setdash
2 LJ
0.667 LW
N
711.4 857 M
711.4 72 L
S
GR
GS
[0.75 0 0 0.75 0 -0.25] CT
0.775 GC
[1 3] 0 setdash
2 LJ
0.667 LW
N
727.1 857 M
727.1 72 L
S
GR
GS
[0.75 0 0 0.75 0 -0.25] CT
0.775 GC
[1 3] 0 setdash
2 LJ
0.667 LW
N
742.8 857 M
742.8 72 L
S
GR
GS
[0.75 0 0 0.75 0 -0.25] CT
0.775 GC
[1 3] 0 setdash
2 LJ
0.667 LW
N
774.2 857 M
774.2 72 L
S
GR
GS
[0.75 0 0 0.75 0 -0.25] CT
0.775 GC
[1 3] 0 setdash
2 LJ
0.667 LW
N
789.9 857 M
789.9 72 L
S
GR
GS
[0.75 0 0 0.75 0 -0.25] CT
0.775 GC
[1 3] 0 setdash
2 LJ
0.667 LW
N
805.6 857 M
805.6 72 L
S
GR
GS
[0.75 0 0 0.75 0 -0.25] CT
0.775 GC
[1 3] 0 setdash
2 LJ
0.667 LW
N
821.3 857 M
821.3 72 L
S
GR
GS
[0.75 0 0 0.75 0 -0.25] CT
0.775 GC
[1 3] 0 setdash
2 LJ
0.667 LW
N
852.7 857 M
852.7 72 L
S
GR
GS
[0.75 0 0 0.75 0 -0.25] CT
0.775 GC
[1 3] 0 setdash
2 LJ
0.667 LW
N
868.4 857 M
868.4 72 L
S
GR
GS
[0.75 0 0 0.75 0 -0.25] CT
0.775 GC
[1 3] 0 setdash
2 LJ
0.667 LW
N
884.1 857 M
884.1 72 L
S
GR
GS
[0.75 0 0 0.75 0 -0.25] CT
0.775 GC
[1 3] 0 setdash
2 LJ
0.667 LW
N
899.8 857 M
899.8 72 L
S
GR
GS
[0.75 0 0 0.75 0 -0.25] CT
0.775 GC
[1 3] 0 setdash
2 LJ
0.667 LW
N
931.2 857 M
931.2 72 L
S
GR
GS
[0.75 0 0 0.75 0 -0.25] CT
0.775 GC
[1 3] 0 setdash
2 LJ
0.667 LW
N
946.9 857 M
946.9 72 L
S
GR
GS
[0.75 0 0 0.75 0 -0.25] CT
0.775 GC
[1 3] 0 setdash
2 LJ
0.667 LW
N
962.6 857 M
962.6 72 L
S
GR
GS
[0.75 0 0 0.75 0 -0.25] CT
0.775 GC
[1 3] 0 setdash
2 LJ
0.667 LW
N
978.3 857 M
978.3 72 L
S
GR
GS
[0.75 0 0 0.75 0 -0.25] CT
0.775 GC
[1 3] 0 setdash
2 LJ
0.667 LW
N
1009.7 857 M
1009.7 72 L
S
GR
GS
[0.75 0 0 0.75 0 -0.25] CT
0.775 GC
[1 3] 0 setdash
2 LJ
0.667 LW
N
1025.4 857 M
1025.4 72 L
S
GR
GS
[0.75 0 0 0.75 0 -0.25] CT
0.775 GC
[1 3] 0 setdash
2 LJ
0.667 LW
N
1041.1 857 M
1041.1 72 L
S
GR
GS
[0.75 0 0 0.75 0 -0.25] CT
0.775 GC
[1 3] 0 setdash
2 LJ
0.667 LW
N
1056.8 857 M
1056.8 72 L
S
GR
GS
[0.75 0 0 0.75 0 -0.25] CT
0.775 GC
[1 3] 0 setdash
2 LJ
0.667 LW
N
1088.2 857 M
1088.2 72 L
S
GR
GS
[0.75 0 0 0.75 0 -0.25] CT
0.775 GC
[1 3] 0 setdash
2 LJ
0.667 LW
N
1103.9 857 M
1103.9 72 L
S
GR
GS
[0.75 0 0 0.75 0 -0.25] CT
0.775 GC
[1 3] 0 setdash
2 LJ
0.667 LW
N
1119.6 857 M
1119.6 72 L
S
GR
GS
[0.75 0 0 0.75 0 -0.25] CT
0.775 GC
[1 3] 0 setdash
2 LJ
0.667 LW
N
1135.3 857 M
1135.3 72 L
S
GR
GS
[0.75 0 0 0.75 0 -0.25] CT
0.775 GC
[1 3] 0 setdash
2 LJ
0.667 LW
N
1166.7 857 M
1166.7 72 L
S
GR
GS
[0.75 0 0 0.75 0 -0.25] CT
0.775 GC
[1 3] 0 setdash
2 LJ
0.667 LW
N
1182.4 857 M
1182.4 72 L
S
GR
GS
[0.75 0 0 0.75 0 -0.25] CT
0.775 GC
[1 3] 0 setdash
2 LJ
0.667 LW
N
1198.1 857 M
1198.1 72 L
S
GR
GS
[0.75 0 0 0.75 0 -0.25] CT
0.775 GC
[1 3] 0 setdash
2 LJ
0.667 LW
N
1213.8 857 M
1213.8 72 L
S
GR
GS
[0.75 0 0 0.75 0 -0.25] CT
0.775 GC
[1 3] 0 setdash
2 LJ
0.667 LW
N
1245.2 857 M
1245.2 72 L
S
GR
GS
[0.75 0 0 0.75 0 -0.25] CT
0.775 GC
[1 3] 0 setdash
2 LJ
0.667 LW
N
1260.9 857 M
1260.9 72 L
S
GR
GS
[0.75 0 0 0.75 0 -0.25] CT
0.775 GC
[1 3] 0 setdash
2 LJ
0.667 LW
N
1276.6 857 M
1276.6 72 L
S
GR
GS
[0.75 0 0 0.75 0 -0.25] CT
0.775 GC
[1 3] 0 setdash
2 LJ
0.667 LW
N
1292.3 857 M
1292.3 72 L
S
GR
GS
[0.75 0 0 0.75 0 -0.25] CT
0.775 GC
[1 3] 0 setdash
2 LJ
0.667 LW
N
1323.7 857 M
1323.7 72 L
S
GR
GS
[0.75 0 0 0.75 0 -0.25] CT
0.775 GC
[1 3] 0 setdash
2 LJ
0.667 LW
N
1339.4 857 M
1339.4 72 L
S
GR
GS
[0.75 0 0 0.75 0 -0.25] CT
0.775 GC
[1 3] 0 setdash
2 LJ
0.667 LW
N
1355.1 857 M
1355.1 72 L
S
GR
GS
[0.75 0 0 0.75 0 -0.25] CT
0.775 GC
[1 3] 0 setdash
2 LJ
0.667 LW
N
1370.8 857 M
1370.8 72 L
S
GR
GS
[0.75 0 0 0.75 0 -0.25] CT
0.873 GC
1 LJ
0.667 LW
N
601.5 857 M
601.5 72 L
S
GR
GS
[0.75 0 0 0.75 0 -0.25] CT
0.873 GC
1 LJ
0.667 LW
N
680 857 M
680 72 L
S
GR
GS
[0.75 0 0 0.75 0 -0.25] CT
0.873 GC
1 LJ
0.667 LW
N
758.5 857 M
758.5 72 L
S
GR
GS
[0.75 0 0 0.75 0 -0.25] CT
0.873 GC
1 LJ
0.667 LW
N
837 857 M
837 72 L
S
GR
GS
[0.75 0 0 0.75 0 -0.25] CT
0.873 GC
1 LJ
0.667 LW
N
915.5 857 M
915.5 72 L
S
GR
GS
[0.75 0 0 0.75 0 -0.25] CT
0.873 GC
1 LJ
0.667 LW
N
994 857 M
994 72 L
S
GR
GS
[0.75 0 0 0.75 0 -0.25] CT
0.873 GC
1 LJ
0.667 LW
N
1072.5 857 M
1072.5 72 L
S
GR
GS
[0.75 0 0 0.75 0 -0.25] CT
0.873 GC
1 LJ
0.667 LW
N
1151 857 M
1151 72 L
S
GR
GS
[0.75 0 0 0.75 0 -0.25] CT
0.873 GC
1 LJ
0.667 LW
N
1229.5 857 M
1229.5 72 L
S
GR
GS
[0.75 0 0 0.75 0 -0.25] CT
0.873 GC
1 LJ
0.667 LW
N
1308 857 M
1308 72 L
S
GR
GS
[0.75 0 0 0.75 0 -0.25] CT
0.873 GC
1 LJ
0.667 LW
N
1386.5 857 M
1386.5 72 L
S
GR
GS
[0.75 0 0 0.75 0 -0.25] CT
0.775 GC
[1 3] 0 setdash
2 LJ
0.667 LW
N
1386.5 841.3 M
601.5 841.3 L
S
GR
GS
[0.75 0 0 0.75 0 -0.25] CT
0.775 GC
[1 3] 0 setdash
2 LJ
0.667 LW
N
1386.5 825.6 M
601.5 825.6 L
S
GR
GS
[0.75 0 0 0.75 0 -0.25] CT
0.775 GC
[1 3] 0 setdash
2 LJ
0.667 LW
N
1386.5 809.9 M
601.5 809.9 L
S
GR
GS
[0.75 0 0 0.75 0 -0.25] CT
0.775 GC
[1 3] 0 setdash
2 LJ
0.667 LW
N
1386.5 794.2 M
601.5 794.2 L
S
GR
GS
[0.75 0 0 0.75 0 -0.25] CT
0.775 GC
[1 3] 0 setdash
2 LJ
0.667 LW
N
1386.5 762.8 M
601.5 762.8 L
S
GR
GS
[0.75 0 0 0.75 0 -0.25] CT
0.775 GC
[1 3] 0 setdash
2 LJ
0.667 LW
N
1386.5 747.1 M
601.5 747.1 L
S
GR
GS
[0.75 0 0 0.75 0 -0.25] CT
0.775 GC
[1 3] 0 setdash
2 LJ
0.667 LW
N
1386.5 731.4 M
601.5 731.4 L
S
GR
GS
[0.75 0 0 0.75 0 -0.25] CT
0.775 GC
[1 3] 0 setdash
2 LJ
0.667 LW
N
1386.5 715.7 M
601.5 715.7 L
S
GR
GS
[0.75 0 0 0.75 0 -0.25] CT
0.775 GC
[1 3] 0 setdash
2 LJ
0.667 LW
N
1386.5 684.3 M
601.5 684.3 L
S
GR
GS
[0.75 0 0 0.75 0 -0.25] CT
0.775 GC
[1 3] 0 setdash
2 LJ
0.667 LW
N
1386.5 668.6 M
601.5 668.6 L
S
GR
GS
[0.75 0 0 0.75 0 -0.25] CT
0.775 GC
[1 3] 0 setdash
2 LJ
0.667 LW
N
1386.5 652.9 M
601.5 652.9 L
S
GR
GS
[0.75 0 0 0.75 0 -0.25] CT
0.775 GC
[1 3] 0 setdash
2 LJ
0.667 LW
N
1386.5 637.2 M
601.5 637.2 L
S
GR
GS
[0.75 0 0 0.75 0 -0.25] CT
0.775 GC
[1 3] 0 setdash
2 LJ
0.667 LW
N
1386.5 605.8 M
601.5 605.8 L
S
GR
GS
[0.75 0 0 0.75 0 -0.25] CT
0.775 GC
[1 3] 0 setdash
2 LJ
0.667 LW
N
1386.5 590.1 M
601.5 590.1 L
S
GR
GS
[0.75 0 0 0.75 0 -0.25] CT
0.775 GC
[1 3] 0 setdash
2 LJ
0.667 LW
N
1386.5 574.4 M
601.5 574.4 L
S
GR
GS
[0.75 0 0 0.75 0 -0.25] CT
0.775 GC
[1 3] 0 setdash
2 LJ
0.667 LW
N
1386.5 558.7 M
601.5 558.7 L
S
GR
GS
[0.75 0 0 0.75 0 -0.25] CT
0.775 GC
[1 3] 0 setdash
2 LJ
0.667 LW
N
1386.5 527.3 M
601.5 527.3 L
S
GR
GS
[0.75 0 0 0.75 0 -0.25] CT
0.775 GC
[1 3] 0 setdash
2 LJ
0.667 LW
N
1386.5 511.6 M
601.5 511.6 L
S
GR
GS
[0.75 0 0 0.75 0 -0.25] CT
0.775 GC
[1 3] 0 setdash
2 LJ
0.667 LW
N
1386.5 495.9 M
601.5 495.9 L
S
GR
GS
[0.75 0 0 0.75 0 -0.25] CT
0.775 GC
[1 3] 0 setdash
2 LJ
0.667 LW
N
1386.5 480.2 M
601.5 480.2 L
S
GR
GS
[0.75 0 0 0.75 0 -0.25] CT
0.775 GC
[1 3] 0 setdash
2 LJ
0.667 LW
N
1386.5 448.8 M
601.5 448.8 L
S
GR
GS
[0.75 0 0 0.75 0 -0.25] CT
0.775 GC
[1 3] 0 setdash
2 LJ
0.667 LW
N
1386.5 433.1 M
601.5 433.1 L
S
GR
GS
[0.75 0 0 0.75 0 -0.25] CT
0.775 GC
[1 3] 0 setdash
2 LJ
0.667 LW
N
1386.5 417.4 M
601.5 417.4 L
S
GR
GS
[0.75 0 0 0.75 0 -0.25] CT
0.775 GC
[1 3] 0 setdash
2 LJ
0.667 LW
N
1386.5 401.7 M
601.5 401.7 L
S
GR
GS
[0.75 0 0 0.75 0 -0.25] CT
0.775 GC
[1 3] 0 setdash
2 LJ
0.667 LW
N
1386.5 370.3 M
601.5 370.3 L
S
GR
GS
[0.75 0 0 0.75 0 -0.25] CT
0.775 GC
[1 3] 0 setdash
2 LJ
0.667 LW
N
1386.5 354.6 M
601.5 354.6 L
S
GR
GS
[0.75 0 0 0.75 0 -0.25] CT
0.775 GC
[1 3] 0 setdash
2 LJ
0.667 LW
N
1386.5 338.9 M
601.5 338.9 L
S
GR
GS
[0.75 0 0 0.75 0 -0.25] CT
0.775 GC
[1 3] 0 setdash
2 LJ
0.667 LW
N
1386.5 323.2 M
601.5 323.2 L
S
GR
GS
[0.75 0 0 0.75 0 -0.25] CT
0.775 GC
[1 3] 0 setdash
2 LJ
0.667 LW
N
1386.5 291.8 M
601.5 291.8 L
S
GR
GS
[0.75 0 0 0.75 0 -0.25] CT
0.775 GC
[1 3] 0 setdash
2 LJ
0.667 LW
N
1386.5 276.1 M
601.5 276.1 L
S
GR
GS
[0.75 0 0 0.75 0 -0.25] CT
0.775 GC
[1 3] 0 setdash
2 LJ
0.667 LW
N
1386.5 260.4 M
601.5 260.4 L
S
GR
GS
[0.75 0 0 0.75 0 -0.25] CT
0.775 GC
[1 3] 0 setdash
2 LJ
0.667 LW
N
1386.5 244.7 M
601.5 244.7 L
S
GR
GS
[0.75 0 0 0.75 0 -0.25] CT
0.775 GC
[1 3] 0 setdash
2 LJ
0.667 LW
N
1386.5 213.3 M
601.5 213.3 L
S
GR
GS
[0.75 0 0 0.75 0 -0.25] CT
0.775 GC
[1 3] 0 setdash
2 LJ
0.667 LW
N
1386.5 197.6 M
601.5 197.6 L
S
GR
GS
[0.75 0 0 0.75 0 -0.25] CT
0.775 GC
[1 3] 0 setdash
2 LJ
0.667 LW
N
1386.5 181.9 M
601.5 181.9 L
S
GR
GS
[0.75 0 0 0.75 0 -0.25] CT
0.775 GC
[1 3] 0 setdash
2 LJ
0.667 LW
N
1386.5 166.2 M
601.5 166.2 L
S
GR
GS
[0.75 0 0 0.75 0 -0.25] CT
0.775 GC
[1 3] 0 setdash
2 LJ
0.667 LW
N
1386.5 134.8 M
601.5 134.8 L
S
GR
GS
[0.75 0 0 0.75 0 -0.25] CT
0.775 GC
[1 3] 0 setdash
2 LJ
0.667 LW
N
1386.5 119.1 M
601.5 119.1 L
S
GR
GS
[0.75 0 0 0.75 0 -0.25] CT
0.775 GC
[1 3] 0 setdash
2 LJ
0.667 LW
N
1386.5 103.4 M
601.5 103.4 L
S
GR
GS
[0.75 0 0 0.75 0 -0.25] CT
0.775 GC
[1 3] 0 setdash
2 LJ
0.667 LW
N
1386.5 87.7 M
601.5 87.7 L
S
GR
GS
[0.75 0 0 0.75 0 -0.25] CT
0.873 GC
1 LJ
0.667 LW
N
1386.5 857 M
601.5 857 L
S
GR
GS
[0.75 0 0 0.75 0 -0.25] CT
0.873 GC
1 LJ
0.667 LW
N
1386.5 778.5 M
601.5 778.5 L
S
GR
GS
[0.75 0 0 0.75 0 -0.25] CT
0.873 GC
1 LJ
0.667 LW
N
1386.5 700 M
601.5 700 L
S
GR
GS
[0.75 0 0 0.75 0 -0.25] CT
0.873 GC
1 LJ
0.667 LW
N
1386.5 621.5 M
601.5 621.5 L
S
GR
GS
[0.75 0 0 0.75 0 -0.25] CT
0.873 GC
1 LJ
0.667 LW
N
1386.5 543 M
601.5 543 L
S
GR
GS
[0.75 0 0 0.75 0 -0.25] CT
0.873 GC
1 LJ
0.667 LW
N
1386.5 464.5 M
601.5 464.5 L
S
GR
GS
[0.75 0 0 0.75 0 -0.25] CT
0.873 GC
1 LJ
0.667 LW
N
1386.5 386 M
601.5 386 L
S
GR
GS
[0.75 0 0 0.75 0 -0.25] CT
0.873 GC
1 LJ
0.667 LW
N
1386.5 307.5 M
601.5 307.5 L
S
GR
GS
[0.75 0 0 0.75 0 -0.25] CT
0.873 GC
1 LJ
0.667 LW
N
1386.5 229 M
601.5 229 L
S
GR
GS
[0.75 0 0 0.75 0 -0.25] CT
0.873 GC
1 LJ
0.667 LW
N
1386.5 150.5 M
601.5 150.5 L
S
GR
GS
[0.75 0 0 0.75 0 -0.25] CT
0.873 GC
1 LJ
0.667 LW
N
1386.5 72 M
601.5 72 L
S
GR
GS
[0.75 0 0 0.75 0 -0.25] CT
0.149 GC
2 setlinecap
1 LJ
0.667 LW
N
601.5 857 M
1386.5 857 L
S
GR
GS
[0.75 0 0 0.75 0 -0.25] CT
0.149 GC
2 setlinecap
1 LJ
0.667 LW
N
601.5 72 M
1386.5 72 L
S
GR
GS
[0.75 0 0 0.75 0 -0.25] CT
0.149 GC
2 setlinecap
1 LJ
0.667 LW
N
601.5 857 M
601.5 849.15 L
S
GR
GS
[0.75 0 0 0.75 0 -0.25] CT
0.149 GC
2 setlinecap
1 LJ
0.667 LW
N
680 857 M
680 849.15 L
S
GR
GS
[0.75 0 0 0.75 0 -0.25] CT
0.149 GC
2 setlinecap
1 LJ
0.667 LW
N
758.5 857 M
758.5 849.15 L
S
GR
GS
[0.75 0 0 0.75 0 -0.25] CT
0.149 GC
2 setlinecap
1 LJ
0.667 LW
N
837 857 M
837 849.15 L
S
GR
GS
[0.75 0 0 0.75 0 -0.25] CT
0.149 GC
2 setlinecap
1 LJ
0.667 LW
N
915.5 857 M
915.5 849.15 L
S
GR
GS
[0.75 0 0 0.75 0 -0.25] CT
0.149 GC
2 setlinecap
1 LJ
0.667 LW
N
994 857 M
994 849.15 L
S
GR
GS
[0.75 0 0 0.75 0 -0.25] CT
0.149 GC
2 setlinecap
1 LJ
0.667 LW
N
1072.5 857 M
1072.5 849.15 L
S
GR
GS
[0.75 0 0 0.75 0 -0.25] CT
0.149 GC
2 setlinecap
1 LJ
0.667 LW
N
1151 857 M
1151 849.15 L
S
GR
GS
[0.75 0 0 0.75 0 -0.25] CT
0.149 GC
2 setlinecap
1 LJ
0.667 LW
N
1229.5 857 M
1229.5 849.15 L
S
GR
GS
[0.75 0 0 0.75 0 -0.25] CT
0.149 GC
2 setlinecap
1 LJ
0.667 LW
N
1308 857 M
1308 849.15 L
S
GR
GS
[0.75 0 0 0.75 0 -0.25] CT
0.149 GC
2 setlinecap
1 LJ
0.667 LW
N
1386.5 857 M
1386.5 849.15 L
S
GR
GS
[0.75 0 0 0.75 0 -0.25] CT
0.149 GC
2 setlinecap
1 LJ
0.667 LW
N
601.5 72 M
601.5 79.85 L
S
GR
GS
[0.75 0 0 0.75 0 -0.25] CT
0.149 GC
2 setlinecap
1 LJ
0.667 LW
N
680 72 M
680 79.85 L
S
GR
GS
[0.75 0 0 0.75 0 -0.25] CT
0.149 GC
2 setlinecap
1 LJ
0.667 LW
N
758.5 72 M
758.5 79.85 L
S
GR
GS
[0.75 0 0 0.75 0 -0.25] CT
0.149 GC
2 setlinecap
1 LJ
0.667 LW
N
837 72 M
837 79.85 L
S
GR
GS
[0.75 0 0 0.75 0 -0.25] CT
0.149 GC
2 setlinecap
1 LJ
0.667 LW
N
915.5 72 M
915.5 79.85 L
S
GR
GS
[0.75 0 0 0.75 0 -0.25] CT
0.149 GC
2 setlinecap
1 LJ
0.667 LW
N
994 72 M
994 79.85 L
S
GR
GS
[0.75 0 0 0.75 0 -0.25] CT
0.149 GC
2 setlinecap
1 LJ
0.667 LW
N
1072.5 72 M
1072.5 79.85 L
S
GR
GS
[0.75 0 0 0.75 0 -0.25] CT
0.149 GC
2 setlinecap
1 LJ
0.667 LW
N
1151 72 M
1151 79.85 L
S
GR
GS
[0.75 0 0 0.75 0 -0.25] CT
0.149 GC
2 setlinecap
1 LJ
0.667 LW
N
1229.5 72 M
1229.5 79.85 L
S
GR
GS
[0.75 0 0 0.75 0 -0.25] CT
0.149 GC
2 setlinecap
1 LJ
0.667 LW
N
1308 72 M
1308 79.85 L
S
GR
GS
[0.75 0 0 0.75 0 -0.25] CT
0.149 GC
2 setlinecap
1 LJ
0.667 LW
N
1386.5 72 M
1386.5 79.85 L
S
GR
GS
[0.75 0 0 0.75 451.125 646.49998] CT
0.149 GC
/Helvetica 13.333 F
GS
[1 0 0 1 0 0] CT
-9.5 14 moveto 
1 -1 scale
(-50) t 
GR
GR
GS
[0.75 0 0 0.75 510 646.49998] CT
0.149 GC
/Helvetica 13.333 F
GS
[1 0 0 1 0 0] CT
-9.5 14 moveto 
1 -1 scale
(-40) t 
GR
GR
GS
[0.75 0 0 0.75 568.875 646.49998] CT
0.149 GC
/Helvetica 13.333 F
GS
[1 0 0 1 0 0] CT
-9.5 14 moveto 
1 -1 scale
(-30) t 
GR
GR
GS
[0.75 0 0 0.75 627.75 646.49998] CT
0.149 GC
/Helvetica 13.333 F
GS
[1 0 0 1 0 0] CT
-9.5 14 moveto 
1 -1 scale
(-20) t 
GR
GR
GS
[0.75 0 0 0.75 686.625 646.49998] CT
0.149 GC
/Helvetica 13.333 F
GS
[1 0 0 1 0 0] CT
-9.5 14 moveto 
1 -1 scale
(-10) t 
GR
GR
GS
[0.75 0 0 0.75 745.5 646.49998] CT
0.149 GC
/Helvetica 13.333 F
GS
[1 0 0 1 0 0] CT
-4 14 moveto 
1 -1 scale
(0) t 
GR
GR
GS
[0.75 0 0 0.75 804.375 646.49998] CT
0.149 GC
/Helvetica 13.333 F
GS
[1 0 0 1 0 0] CT
-7.5 14 moveto 
1 -1 scale
(10) t 
GR
GR
GS
[0.75 0 0 0.75 863.25 646.49998] CT
0.149 GC
/Helvetica 13.333 F
GS
[1 0 0 1 0 0] CT
-7.5 14 moveto 
1 -1 scale
(20) t 
GR
GR
GS
[0.75 0 0 0.75 922.125 646.49998] CT
0.149 GC
/Helvetica 13.333 F
GS
[1 0 0 1 0 0] CT
-7.5 14 moveto 
1 -1 scale
(30) t 
GR
GR
GS
[0.75 0 0 0.75 981 646.49998] CT
0.149 GC
/Helvetica 13.333 F
GS
[1 0 0 1 0 0] CT
-7.5 14 moveto 
1 -1 scale
(40) t 
GR
GR
GS
[0.75 0 0 0.75 1039.875 646.49998] CT
0.149 GC
/Helvetica 13.333 F
GS
[1 0 0 1 0 0] CT
-7.5 14 moveto 
1 -1 scale
(50) t 
GR
GR
GS
[0.75 0 0 0.75 0 -0.25] CT
0.149 GC
2 setlinecap
1 LJ
0.667 LW
N
601.5 857 M
601.5 72 L
S
GR
GS
[0.75 0 0 0.75 0 -0.25] CT
0.149 GC
2 setlinecap
1 LJ
0.667 LW
N
1386.5 857 M
1386.5 72 L
S
GR
GS
[0.75 0 0 0.75 0 -0.25] CT
0.149 GC
2 setlinecap
1 LJ
0.667 LW
N
601.5 857 M
609.35 857 L
S
GR
GS
[0.75 0 0 0.75 0 -0.25] CT
0.149 GC
2 setlinecap
1 LJ
0.667 LW
N
601.5 778.5 M
609.35 778.5 L
S
GR
GS
[0.75 0 0 0.75 0 -0.25] CT
0.149 GC
2 setlinecap
1 LJ
0.667 LW
N
601.5 700 M
609.35 700 L
S
GR
GS
[0.75 0 0 0.75 0 -0.25] CT
0.149 GC
2 setlinecap
1 LJ
0.667 LW
N
601.5 621.5 M
609.35 621.5 L
S
GR
GS
[0.75 0 0 0.75 0 -0.25] CT
0.149 GC
2 setlinecap
1 LJ
0.667 LW
N
601.5 543 M
609.35 543 L
S
GR
GS
[0.75 0 0 0.75 0 -0.25] CT
0.149 GC
2 setlinecap
1 LJ
0.667 LW
N
601.5 464.5 M
609.35 464.5 L
S
GR
GS
[0.75 0 0 0.75 0 -0.25] CT
0.149 GC
2 setlinecap
1 LJ
0.667 LW
N
601.5 386 M
609.35 386 L
S
GR
GS
[0.75 0 0 0.75 0 -0.25] CT
0.149 GC
2 setlinecap
1 LJ
0.667 LW
N
601.5 307.5 M
609.35 307.5 L
S
GR
GS
[0.75 0 0 0.75 0 -0.25] CT
0.149 GC
2 setlinecap
1 LJ
0.667 LW
N
601.5 229 M
609.35 229 L
S
GR
GS
[0.75 0 0 0.75 0 -0.25] CT
0.149 GC
2 setlinecap
1 LJ
0.667 LW
N
601.5 150.5 M
609.35 150.5 L
S
GR
GS
[0.75 0 0 0.75 0 -0.25] CT
0.149 GC
2 setlinecap
1 LJ
0.667 LW
N
601.5 72 M
609.35 72 L
S
GR
GS
[0.75 0 0 0.75 0 -0.25] CT
0.149 GC
2 setlinecap
1 LJ
0.667 LW
N
1386.5 857 M
1378.65 857 L
S
GR
GS
[0.75 0 0 0.75 0 -0.25] CT
0.149 GC
2 setlinecap
1 LJ
0.667 LW
N
1386.5 778.5 M
1378.65 778.5 L
S
GR
GS
[0.75 0 0 0.75 0 -0.25] CT
0.149 GC
2 setlinecap
1 LJ
0.667 LW
N
1386.5 700 M
1378.65 700 L
S
GR
GS
[0.75 0 0 0.75 0 -0.25] CT
0.149 GC
2 setlinecap
1 LJ
0.667 LW
N
1386.5 621.5 M
1378.65 621.5 L
S
GR
GS
[0.75 0 0 0.75 0 -0.25] CT
0.149 GC
2 setlinecap
1 LJ
0.667 LW
N
1386.5 543 M
1378.65 543 L
S
GR
GS
[0.75 0 0 0.75 0 -0.25] CT
0.149 GC
2 setlinecap
1 LJ
0.667 LW
N
1386.5 464.5 M
1378.65 464.5 L
S
GR
GS
[0.75 0 0 0.75 0 -0.25] CT
0.149 GC
2 setlinecap
1 LJ
0.667 LW
N
1386.5 386 M
1378.65 386 L
S
GR
GS
[0.75 0 0 0.75 0 -0.25] CT
0.149 GC
2 setlinecap
1 LJ
0.667 LW
N
1386.5 307.5 M
1378.65 307.5 L
S
GR
GS
[0.75 0 0 0.75 0 -0.25] CT
0.149 GC
2 setlinecap
1 LJ
0.667 LW
N
1386.5 229 M
1378.65 229 L
S
GR
GS
[0.75 0 0 0.75 0 -0.25] CT
0.149 GC
2 setlinecap
1 LJ
0.667 LW
N
1386.5 150.5 M
1378.65 150.5 L
S
GR
GS
[0.75 0 0 0.75 0 -0.25] CT
0.149 GC
2 setlinecap
1 LJ
0.667 LW
N
1386.5 72 M
1378.65 72 L
S
GR
GS
[0.75 0 0 0.75 447.12502 642.5] CT
0.149 GC
/Helvetica 13.333 F
GS
[1 0 0 1 0 0] CT
-19 5.5 moveto 
1 -1 scale
(-50) t 
GR
GR
GS
[0.75 0 0 0.75 447.12502 583.625] CT
0.149 GC
/Helvetica 13.333 F
GS
[1 0 0 1 0 0] CT
-19 5.5 moveto 
1 -1 scale
(-40) t 
GR
GR
GS
[0.75 0 0 0.75 447.12502 524.75] CT
0.149 GC
/Helvetica 13.333 F
GS
[1 0 0 1 0 0] CT
-19 5.5 moveto 
1 -1 scale
(-30) t 
GR
GR
GS
[0.75 0 0 0.75 447.12502 465.875] CT
0.149 GC
/Helvetica 13.333 F
GS
[1 0 0 1 0 0] CT
-19 5.5 moveto 
1 -1 scale
(-20) t 
GR
GR
GS
[0.75 0 0 0.75 447.12502 407] CT
0.149 GC
/Helvetica 13.333 F
GS
[1 0 0 1 0 0] CT
-19 5.5 moveto 
1 -1 scale
(-10) t 
GR
GR
GS
[0.75 0 0 0.75 447.12502 348.125] CT
0.149 GC
/Helvetica 13.333 F
GS
[1 0 0 1 0 0] CT
-8 5.5 moveto 
1 -1 scale
(0) t 
GR
GR
GS
[0.75 0 0 0.75 447.12502 289.25] CT
0.149 GC
/Helvetica 13.333 F
GS
[1 0 0 1 0 0] CT
-15 5.5 moveto 
1 -1 scale
(10) t 
GR
GR
GS
[0.75 0 0 0.75 447.12502 230.375] CT
0.149 GC
/Helvetica 13.333 F
GS
[1 0 0 1 0 0] CT
-15 5.5 moveto 
1 -1 scale
(20) t 
GR
GR
GS
[0.75 0 0 0.75 447.12502 171.5] CT
0.149 GC
/Helvetica 13.333 F
GS
[1 0 0 1 0 0] CT
-15 5.5 moveto 
1 -1 scale
(30) t 
GR
GR
GS
[0.75 0 0 0.75 447.12502 112.625] CT
0.149 GC
/Helvetica 13.333 F
GS
[1 0 0 1 0 0] CT
-15 5.5 moveto 
1 -1 scale
(40) t 
GR
GR
GS
[0.75 0 0 0.75 447.12502 53.75] CT
0.149 GC
/Helvetica 13.333 F
GS
[1 0 0 1 0 0] CT
-15 5.5 moveto 
1 -1 scale
(50) t 
GR
GR
GS
[0.75 0 0 0.75 0 -0.25] CT
0 0 1 RC
1 LJ
N
707 778.5 M
716 778.5 L
S
GR
GS
[0.75 0 0 0.75 0 -0.25] CT
0 0 1 RC
1 LJ
N
711.5 783 M
711.5 774 L
S
GR
GS
[0.75 0 0 0.75 0 -0.25] CT
0 0 1 RC
1 LJ
N
708 782 M
715 775 L
S
GR
GS
[0.75 0 0 0.75 0 -0.25] CT
0 0 1 RC
1 LJ
N
708 775 M
715 782 L
S
GR
GS
[0.75 0 0 0.75 0 -0.25] CT
0 0 1 RC
1 LJ
N
801 778.5 M
810 778.5 L
S
GR
GS
[0.75 0 0 0.75 0 -0.25] CT
0 0 1 RC
1 LJ
N
805.5 783 M
805.5 774 L
S
GR
GS
[0.75 0 0 0.75 0 -0.25] CT
0 0 1 RC
1 LJ
N
802 782 M
809 775 L
S
GR
GS
[0.75 0 0 0.75 0 -0.25] CT
0 0 1 RC
1 LJ
N
802 775 M
809 782 L
S
GR
GS
[0.75 0 0 0.75 0 -0.25] CT
0 0 1 RC
1 LJ
N
895 778.5 M
904 778.5 L
S
GR
GS
[0.75 0 0 0.75 0 -0.25] CT
0 0 1 RC
1 LJ
N
899.5 783 M
899.5 774 L
S
GR
GS
[0.75 0 0 0.75 0 -0.25] CT
0 0 1 RC
1 LJ
N
896 782 M
903 775 L
S
GR
GS
[0.75 0 0 0.75 0 -0.25] CT
0 0 1 RC
1 LJ
N
896 775 M
903 782 L
S
GR
GS
[0.75 0 0 0.75 0 -0.25] CT
0 0 1 RC
1 LJ
N
990 778.5 M
999 778.5 L
S
GR
GS
[0.75 0 0 0.75 0 -0.25] CT
0 0 1 RC
1 LJ
N
994.5 783 M
994.5 774 L
S
GR
GS
[0.75 0 0 0.75 0 -0.25] CT
0 0 1 RC
1 LJ
N
991 782 M
998 775 L
S
GR
GS
[0.75 0 0 0.75 0 -0.25] CT
0 0 1 RC
1 LJ
N
991 775 M
998 782 L
S
GR
GS
[0.75 0 0 0.75 0 -0.25] CT
0 0 1 RC
1 LJ
N
1084 778.5 M
1093 778.5 L
S
GR
GS
[0.75 0 0 0.75 0 -0.25] CT
0 0 1 RC
1 LJ
N
1088.5 783 M
1088.5 774 L
S
GR
GS
[0.75 0 0 0.75 0 -0.25] CT
0 0 1 RC
1 LJ
N
1085 782 M
1092 775 L
S
GR
GS
[0.75 0 0 0.75 0 -0.25] CT
0 0 1 RC
1 LJ
N
1085 775 M
1092 782 L
S
GR
GS
[0.75 0 0 0.75 0 -0.25] CT
0 0 1 RC
1 LJ
N
1178 778.5 M
1187 778.5 L
S
GR
GS
[0.75 0 0 0.75 0 -0.25] CT
0 0 1 RC
1 LJ
N
1182.5 783 M
1182.5 774 L
S
GR
GS
[0.75 0 0 0.75 0 -0.25] CT
0 0 1 RC
1 LJ
N
1179 782 M
1186 775 L
S
GR
GS
[0.75 0 0 0.75 0 -0.25] CT
0 0 1 RC
1 LJ
N
1179 775 M
1186 782 L
S
GR
GS
[0.75 0 0 0.75 0 -0.25] CT
0 0 1 RC
1 LJ
N
1272 778.5 M
1281 778.5 L
S
GR
GS
[0.75 0 0 0.75 0 -0.25] CT
0 0 1 RC
1 LJ
N
1276.5 783 M
1276.5 774 L
S
GR
GS
[0.75 0 0 0.75 0 -0.25] CT
0 0 1 RC
1 LJ
N
1273 782 M
1280 775 L
S
GR
GS
[0.75 0 0 0.75 0 -0.25] CT
0 0 1 RC
1 LJ
N
1273 775 M
1280 782 L
S
GR
GS
[0.75 0 0 0.75 0 -0.25] CT
0 0 1 RC
1 LJ
N
613 621.5 M
622 621.5 L
S
GR
GS
[0.75 0 0 0.75 0 -0.25] CT
0 0 1 RC
1 LJ
N
617.5 626 M
617.5 617 L
S
GR
GS
[0.75 0 0 0.75 0 -0.25] CT
0 0 1 RC
1 LJ
N
614 625 M
621 618 L
S
GR
GS
[0.75 0 0 0.75 0 -0.25] CT
0 0 1 RC
1 LJ
N
614 618 M
621 625 L
S
GR
GS
[0.75 0 0 0.75 0 -0.25] CT
0 0 1 RC
1 LJ
N
707 621.5 M
716 621.5 L
S
GR
GS
[0.75 0 0 0.75 0 -0.25] CT
0 0 1 RC
1 LJ
N
711.5 626 M
711.5 617 L
S
GR
GS
[0.75 0 0 0.75 0 -0.25] CT
0 0 1 RC
1 LJ
N
708 625 M
715 618 L
S
GR
GS
[0.75 0 0 0.75 0 -0.25] CT
0 0 1 RC
1 LJ
N
708 618 M
715 625 L
S
GR
GS
[0.75 0 0 0.75 0 -0.25] CT
0 0 1 RC
1 LJ
N
801 621.5 M
810 621.5 L
S
GR
GS
[0.75 0 0 0.75 0 -0.25] CT
0 0 1 RC
1 LJ
N
805.5 626 M
805.5 617 L
S
GR
GS
[0.75 0 0 0.75 0 -0.25] CT
0 0 1 RC
1 LJ
N
802 625 M
809 618 L
S
GR
GS
[0.75 0 0 0.75 0 -0.25] CT
0 0 1 RC
1 LJ
N
802 618 M
809 625 L
S
GR
GS
[0.75 0 0 0.75 0 -0.25] CT
0 0 1 RC
1 LJ
N
895 621.5 M
904 621.5 L
S
GR
GS
[0.75 0 0 0.75 0 -0.25] CT
0 0 1 RC
1 LJ
N
899.5 626 M
899.5 617 L
S
GR
GS
[0.75 0 0 0.75 0 -0.25] CT
0 0 1 RC
1 LJ
N
896 625 M
903 618 L
S
GR
GS
[0.75 0 0 0.75 0 -0.25] CT
0 0 1 RC
1 LJ
N
896 618 M
903 625 L
S
GR
GS
[0.75 0 0 0.75 0 -0.25] CT
0 0 1 RC
1 LJ
N
990 621.5 M
999 621.5 L
S
GR
GS
[0.75 0 0 0.75 0 -0.25] CT
0 0 1 RC
1 LJ
N
994.5 626 M
994.5 617 L
S
GR
GS
[0.75 0 0 0.75 0 -0.25] CT
0 0 1 RC
1 LJ
N
991 625 M
998 618 L
S
GR
GS
[0.75 0 0 0.75 0 -0.25] CT
0 0 1 RC
1 LJ
N
991 618 M
998 625 L
S
GR
GS
[0.75 0 0 0.75 0 -0.25] CT
0 0 1 RC
1 LJ
N
1084 621.5 M
1093 621.5 L
S
GR
GS
[0.75 0 0 0.75 0 -0.25] CT
0 0 1 RC
1 LJ
N
1088.5 626 M
1088.5 617 L
S
GR
GS
[0.75 0 0 0.75 0 -0.25] CT
0 0 1 RC
1 LJ
N
1085 625 M
1092 618 L
S
GR
GS
[0.75 0 0 0.75 0 -0.25] CT
0 0 1 RC
1 LJ
N
1085 618 M
1092 625 L
S
GR
GS
[0.75 0 0 0.75 0 -0.25] CT
0 0 1 RC
1 LJ
N
1178 621.5 M
1187 621.5 L
S
GR
GS
[0.75 0 0 0.75 0 -0.25] CT
0 0 1 RC
1 LJ
N
1182.5 626 M
1182.5 617 L
S
GR
GS
[0.75 0 0 0.75 0 -0.25] CT
0 0 1 RC
1 LJ
N
1179 625 M
1186 618 L
S
GR
GS
[0.75 0 0 0.75 0 -0.25] CT
0 0 1 RC
1 LJ
N
1179 618 M
1186 625 L
S
GR
GS
[0.75 0 0 0.75 0 -0.25] CT
0 0 1 RC
1 LJ
N
1272 621.5 M
1281 621.5 L
S
GR
GS
[0.75 0 0 0.75 0 -0.25] CT
0 0 1 RC
1 LJ
N
1276.5 626 M
1276.5 617 L
S
GR
GS
[0.75 0 0 0.75 0 -0.25] CT
0 0 1 RC
1 LJ
N
1273 625 M
1280 618 L
S
GR
GS
[0.75 0 0 0.75 0 -0.25] CT
0 0 1 RC
1 LJ
N
1273 618 M
1280 625 L
S
GR
GS
[0.75 0 0 0.75 0 -0.25] CT
0 0 1 RC
1 LJ
N
1366 621.5 M
1375 621.5 L
S
GR
GS
[0.75 0 0 0.75 0 -0.25] CT
0 0 1 RC
1 LJ
N
1370.5 626 M
1370.5 617 L
S
GR
GS
[0.75 0 0 0.75 0 -0.25] CT
0 0 1 RC
1 LJ
N
1367 625 M
1374 618 L
S
GR
GS
[0.75 0 0 0.75 0 -0.25] CT
0 0 1 RC
1 LJ
N
1367 618 M
1374 625 L
S
GR
GS
[0.75 0 0 0.75 0 -0.25] CT
0 0 1 RC
1 LJ
N
613 464.5 M
622 464.5 L
S
GR
GS
[0.75 0 0 0.75 0 -0.25] CT
0 0 1 RC
1 LJ
N
617.5 469 M
617.5 460 L
S
GR
GS
[0.75 0 0 0.75 0 -0.25] CT
0 0 1 RC
1 LJ
N
614 468 M
621 461 L
S
GR
GS
[0.75 0 0 0.75 0 -0.25] CT
0 0 1 RC
1 LJ
N
614 461 M
621 468 L
S
GR
GS
[0.75 0 0 0.75 0 -0.25] CT
0 0 1 RC
1 LJ
N
707 464.5 M
716 464.5 L
S
GR
GS
[0.75 0 0 0.75 0 -0.25] CT
0 0 1 RC
1 LJ
N
711.5 469 M
711.5 460 L
S
GR
GS
[0.75 0 0 0.75 0 -0.25] CT
0 0 1 RC
1 LJ
N
708 468 M
715 461 L
S
GR
GS
[0.75 0 0 0.75 0 -0.25] CT
0 0 1 RC
1 LJ
N
708 461 M
715 468 L
S
GR
GS
[0.75 0 0 0.75 0 -0.25] CT
0 0 1 RC
1 LJ
N
801 464.5 M
810 464.5 L
S
GR
GS
[0.75 0 0 0.75 0 -0.25] CT
0 0 1 RC
1 LJ
N
805.5 469 M
805.5 460 L
S
GR
GS
[0.75 0 0 0.75 0 -0.25] CT
0 0 1 RC
1 LJ
N
802 468 M
809 461 L
S
GR
GS
[0.75 0 0 0.75 0 -0.25] CT
0 0 1 RC
1 LJ
N
802 461 M
809 468 L
S
GR
GS
[0.75 0 0 0.75 0 -0.25] CT
0 0 1 RC
1 LJ
N
895 464.5 M
904 464.5 L
S
GR
GS
[0.75 0 0 0.75 0 -0.25] CT
0 0 1 RC
1 LJ
N
899.5 469 M
899.5 460 L
S
GR
GS
[0.75 0 0 0.75 0 -0.25] CT
0 0 1 RC
1 LJ
N
896 468 M
903 461 L
S
GR
GS
[0.75 0 0 0.75 0 -0.25] CT
0 0 1 RC
1 LJ
N
896 461 M
903 468 L
S
GR
GS
[0.75 0 0 0.75 0 -0.25] CT
0 0 1 RC
1 LJ
N
990 464.5 M
999 464.5 L
S
GR
GS
[0.75 0 0 0.75 0 -0.25] CT
0 0 1 RC
1 LJ
N
994.5 469 M
994.5 460 L
S
GR
GS
[0.75 0 0 0.75 0 -0.25] CT
0 0 1 RC
1 LJ
N
991 468 M
998 461 L
S
GR
GS
[0.75 0 0 0.75 0 -0.25] CT
0 0 1 RC
1 LJ
N
991 461 M
998 468 L
S
GR
GS
[0.75 0 0 0.75 0 -0.25] CT
0 0 1 RC
1 LJ
N
1084 464.5 M
1093 464.5 L
S
GR
GS
[0.75 0 0 0.75 0 -0.25] CT
0 0 1 RC
1 LJ
N
1088.5 469 M
1088.5 460 L
S
GR
GS
[0.75 0 0 0.75 0 -0.25] CT
0 0 1 RC
1 LJ
N
1085 468 M
1092 461 L
S
GR
GS
[0.75 0 0 0.75 0 -0.25] CT
0 0 1 RC
1 LJ
N
1085 461 M
1092 468 L
S
GR
GS
[0.75 0 0 0.75 0 -0.25] CT
0 0 1 RC
1 LJ
N
1178 464.5 M
1187 464.5 L
S
GR
GS
[0.75 0 0 0.75 0 -0.25] CT
0 0 1 RC
1 LJ
N
1182.5 469 M
1182.5 460 L
S
GR
GS
[0.75 0 0 0.75 0 -0.25] CT
0 0 1 RC
1 LJ
N
1179 468 M
1186 461 L
S
GR
GS
[0.75 0 0 0.75 0 -0.25] CT
0 0 1 RC
1 LJ
N
1179 461 M
1186 468 L
S
GR
GS
[0.75 0 0 0.75 0 -0.25] CT
0 0 1 RC
1 LJ
N
1272 464.5 M
1281 464.5 L
S
GR
GS
[0.75 0 0 0.75 0 -0.25] CT
0 0 1 RC
1 LJ
N
1276.5 469 M
1276.5 460 L
S
GR
GS
[0.75 0 0 0.75 0 -0.25] CT
0 0 1 RC
1 LJ
N
1273 468 M
1280 461 L
S
GR
GS
[0.75 0 0 0.75 0 -0.25] CT
0 0 1 RC
1 LJ
N
1273 461 M
1280 468 L
S
GR
GS
[0.75 0 0 0.75 0 -0.25] CT
0 0 1 RC
1 LJ
N
1366 464.5 M
1375 464.5 L
S
GR
GS
[0.75 0 0 0.75 0 -0.25] CT
0 0 1 RC
1 LJ
N
1370.5 469 M
1370.5 460 L
S
GR
GS
[0.75 0 0 0.75 0 -0.25] CT
0 0 1 RC
1 LJ
N
1367 468 M
1374 461 L
S
GR
GS
[0.75 0 0 0.75 0 -0.25] CT
0 0 1 RC
1 LJ
N
1367 461 M
1374 468 L
S
GR
GS
[0.75 0 0 0.75 0 -0.25] CT
0 0 1 RC
1 LJ
N
613 307.5 M
622 307.5 L
S
GR
GS
[0.75 0 0 0.75 0 -0.25] CT
0 0 1 RC
1 LJ
N
617.5 312 M
617.5 303 L
S
GR
GS
[0.75 0 0 0.75 0 -0.25] CT
0 0 1 RC
1 LJ
N
614 311 M
621 304 L
S
GR
GS
[0.75 0 0 0.75 0 -0.25] CT
0 0 1 RC
1 LJ
N
614 304 M
621 311 L
S
GR
GS
[0.75 0 0 0.75 0 -0.25] CT
0 0 1 RC
1 LJ
N
707 307.5 M
716 307.5 L
S
GR
GS
[0.75 0 0 0.75 0 -0.25] CT
0 0 1 RC
1 LJ
N
711.5 312 M
711.5 303 L
S
GR
GS
[0.75 0 0 0.75 0 -0.25] CT
0 0 1 RC
1 LJ
N
708 311 M
715 304 L
S
GR
GS
[0.75 0 0 0.75 0 -0.25] CT
0 0 1 RC
1 LJ
N
708 304 M
715 311 L
S
GR
GS
[0.75 0 0 0.75 0 -0.25] CT
0 0 1 RC
1 LJ
N
801 307.5 M
810 307.5 L
S
GR
GS
[0.75 0 0 0.75 0 -0.25] CT
0 0 1 RC
1 LJ
N
805.5 312 M
805.5 303 L
S
GR
GS
[0.75 0 0 0.75 0 -0.25] CT
0 0 1 RC
1 LJ
N
802 311 M
809 304 L
S
GR
GS
[0.75 0 0 0.75 0 -0.25] CT
0 0 1 RC
1 LJ
N
802 304 M
809 311 L
S
GR
GS
[0.75 0 0 0.75 0 -0.25] CT
0 0 1 RC
1 LJ
N
895 307.5 M
904 307.5 L
S
GR
GS
[0.75 0 0 0.75 0 -0.25] CT
0 0 1 RC
1 LJ
N
899.5 312 M
899.5 303 L
S
GR
GS
[0.75 0 0 0.75 0 -0.25] CT
0 0 1 RC
1 LJ
N
896 311 M
903 304 L
S
GR
GS
[0.75 0 0 0.75 0 -0.25] CT
0 0 1 RC
1 LJ
N
896 304 M
903 311 L
S
GR
GS
[0.75 0 0 0.75 0 -0.25] CT
0 0 1 RC
1 LJ
N
990 307.5 M
999 307.5 L
S
GR
GS
[0.75 0 0 0.75 0 -0.25] CT
0 0 1 RC
1 LJ
N
994.5 312 M
994.5 303 L
S
GR
GS
[0.75 0 0 0.75 0 -0.25] CT
0 0 1 RC
1 LJ
N
991 311 M
998 304 L
S
GR
GS
[0.75 0 0 0.75 0 -0.25] CT
0 0 1 RC
1 LJ
N
991 304 M
998 311 L
S
GR
GS
[0.75 0 0 0.75 0 -0.25] CT
0 0 1 RC
1 LJ
N
1084 307.5 M
1093 307.5 L
S
GR
GS
[0.75 0 0 0.75 0 -0.25] CT
0 0 1 RC
1 LJ
N
1088.5 312 M
1088.5 303 L
S
GR
GS
[0.75 0 0 0.75 0 -0.25] CT
0 0 1 RC
1 LJ
N
1085 311 M
1092 304 L
S
GR
GS
[0.75 0 0 0.75 0 -0.25] CT
0 0 1 RC
1 LJ
N
1085 304 M
1092 311 L
S
GR
GS
[0.75 0 0 0.75 0 -0.25] CT
0 0 1 RC
1 LJ
N
1178 307.5 M
1187 307.5 L
S
GR
GS
[0.75 0 0 0.75 0 -0.25] CT
0 0 1 RC
1 LJ
N
1182.5 312 M
1182.5 303 L
S
GR
GS
[0.75 0 0 0.75 0 -0.25] CT
0 0 1 RC
1 LJ
N
1179 311 M
1186 304 L
S
GR
GS
[0.75 0 0 0.75 0 -0.25] CT
0 0 1 RC
1 LJ
N
1179 304 M
1186 311 L
S
GR
GS
[0.75 0 0 0.75 0 -0.25] CT
0 0 1 RC
1 LJ
N
1272 307.5 M
1281 307.5 L
S
GR
GS
[0.75 0 0 0.75 0 -0.25] CT
0 0 1 RC
1 LJ
N
1276.5 312 M
1276.5 303 L
S
GR
GS
[0.75 0 0 0.75 0 -0.25] CT
0 0 1 RC
1 LJ
N
1273 311 M
1280 304 L
S
GR
GS
[0.75 0 0 0.75 0 -0.25] CT
0 0 1 RC
1 LJ
N
1273 304 M
1280 311 L
S
GR
GS
[0.75 0 0 0.75 0 -0.25] CT
0 0 1 RC
1 LJ
N
1366 307.5 M
1375 307.5 L
S
GR
GS
[0.75 0 0 0.75 0 -0.25] CT
0 0 1 RC
1 LJ
N
1370.5 312 M
1370.5 303 L
S
GR
GS
[0.75 0 0 0.75 0 -0.25] CT
0 0 1 RC
1 LJ
N
1367 311 M
1374 304 L
S
GR
GS
[0.75 0 0 0.75 0 -0.25] CT
0 0 1 RC
1 LJ
N
1367 304 M
1374 311 L
S
GR
GS
[0.75 0 0 0.75 0 -0.25] CT
0 0 1 RC
1 LJ
N
707 150.5 M
716 150.5 L
S
GR
GS
[0.75 0 0 0.75 0 -0.25] CT
0 0 1 RC
1 LJ
N
711.5 155 M
711.5 146 L
S
GR
GS
[0.75 0 0 0.75 0 -0.25] CT
0 0 1 RC
1 LJ
N
708 154 M
715 147 L
S
GR
GS
[0.75 0 0 0.75 0 -0.25] CT
0 0 1 RC
1 LJ
N
708 147 M
715 154 L
S
GR
GS
[0.75 0 0 0.75 0 -0.25] CT
0 0 1 RC
1 LJ
N
801 150.5 M
810 150.5 L
S
GR
GS
[0.75 0 0 0.75 0 -0.25] CT
0 0 1 RC
1 LJ
N
805.5 155 M
805.5 146 L
S
GR
GS
[0.75 0 0 0.75 0 -0.25] CT
0 0 1 RC
1 LJ
N
802 154 M
809 147 L
S
GR
GS
[0.75 0 0 0.75 0 -0.25] CT
0 0 1 RC
1 LJ
N
802 147 M
809 154 L
S
GR
GS
[0.75 0 0 0.75 0 -0.25] CT
0 0 1 RC
1 LJ
N
895 150.5 M
904 150.5 L
S
GR
GS
[0.75 0 0 0.75 0 -0.25] CT
0 0 1 RC
1 LJ
N
899.5 155 M
899.5 146 L
S
GR
GS
[0.75 0 0 0.75 0 -0.25] CT
0 0 1 RC
1 LJ
N
896 154 M
903 147 L
S
GR
GS
[0.75 0 0 0.75 0 -0.25] CT
0 0 1 RC
1 LJ
N
896 147 M
903 154 L
S
GR
GS
[0.75 0 0 0.75 0 -0.25] CT
0 0 1 RC
1 LJ
N
990 150.5 M
999 150.5 L
S
GR
GS
[0.75 0 0 0.75 0 -0.25] CT
0 0 1 RC
1 LJ
N
994.5 155 M
994.5 146 L
S
GR
GS
[0.75 0 0 0.75 0 -0.25] CT
0 0 1 RC
1 LJ
N
991 154 M
998 147 L
S
GR
GS
[0.75 0 0 0.75 0 -0.25] CT
0 0 1 RC
1 LJ
N
991 147 M
998 154 L
S
GR
GS
[0.75 0 0 0.75 0 -0.25] CT
0 0 1 RC
1 LJ
N
1084 150.5 M
1093 150.5 L
S
GR
GS
[0.75 0 0 0.75 0 -0.25] CT
0 0 1 RC
1 LJ
N
1088.5 155 M
1088.5 146 L
S
GR
GS
[0.75 0 0 0.75 0 -0.25] CT
0 0 1 RC
1 LJ
N
1085 154 M
1092 147 L
S
GR
GS
[0.75 0 0 0.75 0 -0.25] CT
0 0 1 RC
1 LJ
N
1085 147 M
1092 154 L
S
GR
GS
[0.75 0 0 0.75 0 -0.25] CT
0 0 1 RC
1 LJ
N
1178 150.5 M
1187 150.5 L
S
GR
GS
[0.75 0 0 0.75 0 -0.25] CT
0 0 1 RC
1 LJ
N
1182.5 155 M
1182.5 146 L
S
GR
GS
[0.75 0 0 0.75 0 -0.25] CT
0 0 1 RC
1 LJ
N
1179 154 M
1186 147 L
S
GR
GS
[0.75 0 0 0.75 0 -0.25] CT
0 0 1 RC
1 LJ
N
1179 147 M
1186 154 L
S
GR
GS
[0.75 0 0 0.75 0 -0.25] CT
0 0 1 RC
1 LJ
N
1272 150.5 M
1281 150.5 L
S
GR
GS
[0.75 0 0 0.75 0 -0.25] CT
0 0 1 RC
1 LJ
N
1276.5 155 M
1276.5 146 L
S
GR
GS
[0.75 0 0 0.75 0 -0.25] CT
0 0 1 RC
1 LJ
N
1273 154 M
1280 147 L
S
GR
GS
[0.75 0 0 0.75 0 -0.25] CT
0 0 1 RC
1 LJ
N
1273 147 M
1280 154 L
S
GR
GS
[0.75 0 0 0.75 0 -0.25] CT
1 0 0 RC
1 LJ
N
718.5 777.5 M
717.736 775.149 L
715.736 773.696 L
713.264 773.696 L
711.264 775.149 L
710.5 777.5 L
711.264 779.851 L
713.264 781.304 L
715.736 781.304 L
717.736 779.851 L
cp
S
GR
GS
[0.75 0 0 0.75 0 -0.25] CT
1 0 0 RC
1 LJ
N
811.5 776.5 M
810.736 774.149 L
808.736 772.696 L
806.264 772.696 L
804.264 774.149 L
803.5 776.5 L
804.264 778.851 L
806.264 780.304 L
808.736 780.304 L
810.736 778.851 L
cp
S
GR
GS
[0.75 0 0 0.75 0 -0.25] CT
1 0 0 RC
1 LJ
N
904.5 776.5 M
903.736 774.149 L
901.736 772.696 L
899.264 772.696 L
897.264 774.149 L
896.5 776.5 L
897.264 778.851 L
899.264 780.304 L
901.736 780.304 L
903.736 778.851 L
cp
S
GR
GS
[0.75 0 0 0.75 0 -0.25] CT
1 0 0 RC
1 LJ
N
998.5 776.5 M
997.736 774.149 L
995.736 772.696 L
993.264 772.696 L
991.264 774.149 L
990.5 776.5 L
991.264 778.851 L
993.264 780.304 L
995.736 780.304 L
997.736 778.851 L
cp
S
GR
GS
[0.75 0 0 0.75 0 -0.25] CT
1 0 0 RC
1 LJ
N
1092.5 776.5 M
1091.736 774.149 L
1089.736 772.696 L
1087.264 772.696 L
1085.264 774.149 L
1084.5 776.5 L
1085.264 778.851 L
1087.264 780.304 L
1089.736 780.304 L
1091.736 778.851 L
cp
S
GR
GS
[0.75 0 0 0.75 0 -0.25] CT
1 0 0 RC
1 LJ
N
1185.5 776.5 M
1184.736 774.149 L
1182.736 772.696 L
1180.264 772.696 L
1178.264 774.149 L
1177.5 776.5 L
1178.264 778.851 L
1180.264 780.304 L
1182.736 780.304 L
1184.736 778.851 L
cp
S
GR
GS
[0.75 0 0 0.75 0 -0.25] CT
1 0 0 RC
1 LJ
N
1278.5 777.5 M
1277.736 775.149 L
1275.736 773.696 L
1273.264 773.696 L
1271.264 775.149 L
1270.5 777.5 L
1271.264 779.851 L
1273.264 781.304 L
1275.736 781.304 L
1277.736 779.851 L
cp
S
GR
GS
[0.75 0 0 0.75 0 -0.25] CT
1 0 0 RC
1 LJ
N
623.5 620.5 M
622.736 618.149 L
620.736 616.696 L
618.264 616.696 L
616.264 618.149 L
615.5 620.5 L
616.264 622.851 L
618.264 624.304 L
620.736 624.304 L
622.736 622.851 L
cp
S
GR
GS
[0.75 0 0 0.75 0 -0.25] CT
1 0 0 RC
1 LJ
N
716.5 621.5 M
715.736 619.149 L
713.736 617.696 L
711.264 617.696 L
709.264 619.149 L
708.5 621.5 L
709.264 623.851 L
711.264 625.304 L
713.736 625.304 L
715.736 623.851 L
cp
S
GR
GS
[0.75 0 0 0.75 0 -0.25] CT
1 0 0 RC
1 LJ
N
810.5 621.5 M
809.736 619.149 L
807.736 617.696 L
805.264 617.696 L
803.264 619.149 L
802.5 621.5 L
803.264 623.851 L
805.264 625.304 L
807.736 625.304 L
809.736 623.851 L
cp
S
GR
GS
[0.75 0 0 0.75 0 -0.25] CT
1 0 0 RC
1 LJ
N
904.5 621.5 M
903.736 619.149 L
901.736 617.696 L
899.264 617.696 L
897.264 619.149 L
896.5 621.5 L
897.264 623.851 L
899.264 625.304 L
901.736 625.304 L
903.736 623.851 L
cp
S
GR
GS
[0.75 0 0 0.75 0 -0.25] CT
1 0 0 RC
1 LJ
N
997.5 621.5 M
996.736 619.149 L
994.736 617.696 L
992.264 617.696 L
990.264 619.149 L
989.5 621.5 L
990.264 623.851 L
992.264 625.304 L
994.736 625.304 L
996.736 623.851 L
cp
S
GR
GS
[0.75 0 0 0.75 0 -0.25] CT
1 0 0 RC
1 LJ
N
1091.5 621.5 M
1090.736 619.149 L
1088.736 617.696 L
1086.264 617.696 L
1084.264 619.149 L
1083.5 621.5 L
1084.264 623.851 L
1086.264 625.304 L
1088.736 625.304 L
1090.736 623.851 L
cp
S
GR
GS
[0.75 0 0 0.75 0 -0.25] CT
1 0 0 RC
1 LJ
N
1185.5 621.5 M
1184.736 619.149 L
1182.736 617.696 L
1180.264 617.696 L
1178.264 619.149 L
1177.5 621.5 L
1178.264 623.851 L
1180.264 625.304 L
1182.736 625.304 L
1184.736 623.851 L
cp
S
GR
GS
[0.75 0 0 0.75 0 -0.25] CT
1 0 0 RC
1 LJ
N
1279.5 621.5 M
1278.736 619.149 L
1276.736 617.696 L
1274.264 617.696 L
1272.264 619.149 L
1271.5 621.5 L
1272.264 623.851 L
1274.264 625.304 L
1276.736 625.304 L
1278.736 623.851 L
cp
S
GR
GS
[0.75 0 0 0.75 0 -0.25] CT
1 0 0 RC
1 LJ
N
1371.5 620.5 M
1370.736 618.149 L
1368.736 616.696 L
1366.264 616.696 L
1364.264 618.149 L
1363.5 620.5 L
1364.264 622.851 L
1366.264 624.304 L
1368.736 624.304 L
1370.736 622.851 L
cp
S
GR
GS
[0.75 0 0 0.75 0 -0.25] CT
1 0 0 RC
1 LJ
N
623.5 465.5 M
622.736 463.149 L
620.736 461.696 L
618.264 461.696 L
616.264 463.149 L
615.5 465.5 L
616.264 467.851 L
618.264 469.304 L
620.736 469.304 L
622.736 467.851 L
cp
S
GR
GS
[0.75 0 0 0.75 0 -0.25] CT
1 0 0 RC
1 LJ
N
716.5 465.5 M
715.736 463.149 L
713.736 461.696 L
711.264 461.696 L
709.264 463.149 L
708.5 465.5 L
709.264 467.851 L
711.264 469.304 L
713.736 469.304 L
715.736 467.851 L
cp
S
GR
GS
[0.75 0 0 0.75 0 -0.25] CT
1 0 0 RC
1 LJ
N
809.5 465.5 M
808.736 463.149 L
806.736 461.696 L
804.264 461.696 L
802.264 463.149 L
801.5 465.5 L
802.264 467.851 L
804.264 469.304 L
806.736 469.304 L
808.736 467.851 L
cp
S
GR
GS
[0.75 0 0 0.75 0 -0.25] CT
1 0 0 RC
1 LJ
N
903.5 465.5 M
902.736 463.149 L
900.736 461.696 L
898.264 461.696 L
896.264 463.149 L
895.5 465.5 L
896.264 467.851 L
898.264 469.304 L
900.736 469.304 L
902.736 467.851 L
cp
S
GR
GS
[0.75 0 0 0.75 0 -0.25] CT
1 0 0 RC
1 LJ
N
997.5 465.5 M
996.736 463.149 L
994.736 461.696 L
992.264 461.696 L
990.264 463.149 L
989.5 465.5 L
990.264 467.851 L
992.264 469.304 L
994.736 469.304 L
996.736 467.851 L
cp
S
GR
GS
[0.75 0 0 0.75 0 -0.25] CT
1 0 0 RC
1 LJ
N
1090.5 465.5 M
1089.736 463.149 L
1087.736 461.696 L
1085.264 461.696 L
1083.264 463.149 L
1082.5 465.5 L
1083.264 467.851 L
1085.264 469.304 L
1087.736 469.304 L
1089.736 467.851 L
cp
S
GR
GS
[0.75 0 0 0.75 0 -0.25] CT
1 0 0 RC
1 LJ
N
1184.5 465.5 M
1183.736 463.149 L
1181.736 461.696 L
1179.264 461.696 L
1177.264 463.149 L
1176.5 465.5 L
1177.264 467.851 L
1179.264 469.304 L
1181.736 469.304 L
1183.736 467.851 L
cp
S
GR
GS
[0.75 0 0 0.75 0 -0.25] CT
1 0 0 RC
1 LJ
N
1278.5 465.5 M
1277.736 463.149 L
1275.736 461.696 L
1273.264 461.696 L
1271.264 463.149 L
1270.5 465.5 L
1271.264 467.851 L
1273.264 469.304 L
1275.736 469.304 L
1277.736 467.851 L
cp
S
GR
GS
[0.75 0 0 0.75 0 -0.25] CT
1 0 0 RC
1 LJ
N
1370.5 464.5 M
1369.736 462.149 L
1367.736 460.696 L
1365.264 460.696 L
1363.264 462.149 L
1362.5 464.5 L
1363.264 466.851 L
1365.264 468.304 L
1367.736 468.304 L
1369.736 466.851 L
cp
S
GR
GS
[0.75 0 0 0.75 0 -0.25] CT
1 0 0 RC
1 LJ
N
622.5 309.5 M
621.736 307.149 L
619.736 305.696 L
617.264 305.696 L
615.264 307.149 L
614.5 309.5 L
615.264 311.851 L
617.264 313.304 L
619.736 313.304 L
621.736 311.851 L
cp
S
GR
GS
[0.75 0 0 0.75 0 -0.25] CT
1 0 0 RC
1 LJ
N
715.5 308.5 M
714.736 306.149 L
712.736 304.696 L
710.264 304.696 L
708.264 306.149 L
707.5 308.5 L
708.264 310.851 L
710.264 312.304 L
712.736 312.304 L
714.736 310.851 L
cp
S
GR
GS
[0.75 0 0 0.75 0 -0.25] CT
1 0 0 RC
1 LJ
N
809.5 308.5 M
808.736 306.149 L
806.736 304.696 L
804.264 304.696 L
802.264 306.149 L
801.5 308.5 L
802.264 310.851 L
804.264 312.304 L
806.736 312.304 L
808.736 310.851 L
cp
S
GR
GS
[0.75 0 0 0.75 0 -0.25] CT
1 0 0 RC
1 LJ
N
902.5 308.5 M
901.736 306.149 L
899.736 304.696 L
897.264 304.696 L
895.264 306.149 L
894.5 308.5 L
895.264 310.851 L
897.264 312.304 L
899.736 312.304 L
901.736 310.851 L
cp
S
GR
GS
[0.75 0 0 0.75 0 -0.25] CT
1 0 0 RC
1 LJ
N
996.5 308.5 M
995.736 306.149 L
993.736 304.696 L
991.264 304.696 L
989.264 306.149 L
988.5 308.5 L
989.264 310.851 L
991.264 312.304 L
993.736 312.304 L
995.736 310.851 L
cp
S
GR
GS
[0.75 0 0 0.75 0 -0.25] CT
1 0 0 RC
1 LJ
N
1090.5 308.5 M
1089.736 306.149 L
1087.736 304.696 L
1085.264 304.696 L
1083.264 306.149 L
1082.5 308.5 L
1083.264 310.851 L
1085.264 312.304 L
1087.736 312.304 L
1089.736 310.851 L
cp
S
GR
GS
[0.75 0 0 0.75 0 -0.25] CT
1 0 0 RC
1 LJ
N
1184.5 308.5 M
1183.736 306.149 L
1181.736 304.696 L
1179.264 304.696 L
1177.264 306.149 L
1176.5 308.5 L
1177.264 310.851 L
1179.264 312.304 L
1181.736 312.304 L
1183.736 310.851 L
cp
S
GR
GS
[0.75 0 0 0.75 0 -0.25] CT
1 0 0 RC
1 LJ
N
1277.5 308.5 M
1276.736 306.149 L
1274.736 304.696 L
1272.264 304.696 L
1270.264 306.149 L
1269.5 308.5 L
1270.264 310.851 L
1272.264 312.304 L
1274.736 312.304 L
1276.736 310.851 L
cp
S
GR
GS
[0.75 0 0 0.75 0 -0.25] CT
1 0 0 RC
1 LJ
N
1370.5 309.5 M
1369.736 307.149 L
1367.736 305.696 L
1365.264 305.696 L
1363.264 307.149 L
1362.5 309.5 L
1363.264 311.851 L
1365.264 313.304 L
1367.736 313.304 L
1369.736 311.851 L
cp
S
GR
GS
[0.75 0 0 0.75 0 -0.25] CT
1 0 0 RC
1 LJ
N
715.5 152.5 M
714.736 150.149 L
712.736 148.696 L
710.264 148.696 L
708.264 150.149 L
707.5 152.5 L
708.264 154.851 L
710.264 156.304 L
712.736 156.304 L
714.736 154.851 L
cp
S
GR
GS
[0.75 0 0 0.75 0 -0.25] CT
1 0 0 RC
1 LJ
N
808.5 153.5 M
807.736 151.149 L
805.736 149.696 L
803.264 149.696 L
801.264 151.149 L
800.5 153.5 L
801.264 155.851 L
803.264 157.304 L
805.736 157.304 L
807.736 155.851 L
cp
S
GR
GS
[0.75 0 0 0.75 0 -0.25] CT
1 0 0 RC
1 LJ
N
902.5 153.5 M
901.736 151.149 L
899.736 149.696 L
897.264 149.696 L
895.264 151.149 L
894.5 153.5 L
895.264 155.851 L
897.264 157.304 L
899.736 157.304 L
901.736 155.851 L
cp
S
GR
GS
[0.75 0 0 0.75 0 -0.25] CT
1 0 0 RC
1 LJ
N
995.5 153.5 M
994.736 151.149 L
992.736 149.696 L
990.264 149.696 L
988.264 151.149 L
987.5 153.5 L
988.264 155.851 L
990.264 157.304 L
992.736 157.304 L
994.736 155.851 L
cp
S
GR
GS
[0.75 0 0 0.75 0 -0.25] CT
1 0 0 RC
1 LJ
N
1089.5 153.5 M
1088.736 151.149 L
1086.736 149.696 L
1084.264 149.696 L
1082.264 151.149 L
1081.5 153.5 L
1082.264 155.851 L
1084.264 157.304 L
1086.736 157.304 L
1088.736 155.851 L
cp
S
GR
GS
[0.75 0 0 0.75 0 -0.25] CT
1 0 0 RC
1 LJ
N
1183.5 153.5 M
1182.736 151.149 L
1180.736 149.696 L
1178.264 149.696 L
1176.264 151.149 L
1175.5 153.5 L
1176.264 155.851 L
1178.264 157.304 L
1180.736 157.304 L
1182.736 155.851 L
cp
S
GR
GS
[0.75 0 0 0.75 0 -0.25] CT
1 0 0 RC
1 LJ
N
1276.5 152.5 M
1275.736 150.149 L
1273.736 148.696 L
1271.264 148.696 L
1269.264 150.149 L
1268.5 152.5 L
1269.264 154.851 L
1271.264 156.304 L
1273.736 156.304 L
1275.736 154.851 L
cp
S
GR
GS
[0.75 0 0 0.75 0 -0.25] CT
10.0 ML
N
707.38 783.62 M
707.38 777.38 L
713.62 777.38 L
713.62 783.62 L
cp
S
GR
GS
[0.75 0 0 0.75 0 -0.25] CT
10.0 ML
N
801.38 781.62 M
801.38 775.38 L
807.62 775.38 L
807.62 781.62 L
cp
S
GR
GS
[0.75 0 0 0.75 0 -0.25] CT
10.0 ML
N
896.38 781.62 M
896.38 775.38 L
902.62 775.38 L
902.62 781.62 L
cp
S
GR
GS
[0.75 0 0 0.75 0 -0.25] CT
10.0 ML
N
990.38 780.62 M
990.38 774.38 L
996.62 774.38 L
996.62 780.62 L
cp
S
GR
GS
[0.75 0 0 0.75 0 -0.25] CT
10.0 ML
N
1084.38 781.62 M
1084.38 775.38 L
1090.62 775.38 L
1090.62 781.62 L
cp
S
GR
GS
[0.75 0 0 0.75 0 -0.25] CT
10.0 ML
N
1178.38 781.62 M
1178.38 775.38 L
1184.62 775.38 L
1184.62 781.62 L
cp
S
GR
GS
[0.75 0 0 0.75 0 -0.25] CT
10.0 ML
N
1272.38 783.62 M
1272.38 777.38 L
1278.62 777.38 L
1278.62 783.62 L
cp
S
GR
GS
[0.75 0 0 0.75 0 -0.25] CT
10.0 ML
N
613.38 625.62 M
613.38 619.38 L
619.62 619.38 L
619.62 625.62 L
cp
S
GR
GS
[0.75 0 0 0.75 0 -0.25] CT
10.0 ML
N
707.38 625.62 M
707.38 619.38 L
713.62 619.38 L
713.62 625.62 L
cp
S
GR
GS
[0.75 0 0 0.75 0 -0.25] CT
10.0 ML
N
802.38 625.62 M
802.38 619.38 L
808.62 619.38 L
808.62 625.62 L
cp
S
GR
GS
[0.75 0 0 0.75 0 -0.25] CT
10.0 ML
N
896.38 625.62 M
896.38 619.38 L
902.62 619.38 L
902.62 625.62 L
cp
S
GR
GS
[0.75 0 0 0.75 0 -0.25] CT
10.0 ML
N
990.38 625.62 M
990.38 619.38 L
996.62 619.38 L
996.62 625.62 L
cp
S
GR
GS
[0.75 0 0 0.75 0 -0.25] CT
10.0 ML
N
1084.38 625.62 M
1084.38 619.38 L
1090.62 619.38 L
1090.62 625.62 L
cp
S
GR
GS
[0.75 0 0 0.75 0 -0.25] CT
10.0 ML
N
1178.38 625.62 M
1178.38 619.38 L
1184.62 619.38 L
1184.62 625.62 L
cp
S
GR
GS
[0.75 0 0 0.75 0 -0.25] CT
10.0 ML
N
1273.38 625.62 M
1273.38 619.38 L
1279.62 619.38 L
1279.62 625.62 L
cp
S
GR
GS
[0.75 0 0 0.75 0 -0.25] CT
10.0 ML
N
1367.38 625.62 M
1367.38 619.38 L
1373.62 619.38 L
1373.62 625.62 L
cp
S
GR
GS
[0.75 0 0 0.75 0 -0.25] CT
10.0 ML
N
614.38 468.62 M
614.38 462.38 L
620.62 462.38 L
620.62 468.62 L
cp
S
GR
GS
[0.75 0 0 0.75 0 -0.25] CT
10.0 ML
N
707.38 468.62 M
707.38 462.38 L
713.62 462.38 L
713.62 468.62 L
cp
S
GR
GS
[0.75 0 0 0.75 0 -0.25] CT
10.0 ML
N
802.38 468.62 M
802.38 462.38 L
808.62 462.38 L
808.62 468.62 L
cp
S
GR
GS
[0.75 0 0 0.75 0 -0.25] CT
10.0 ML
N
896.38 468.62 M
896.38 462.38 L
902.62 462.38 L
902.62 468.62 L
cp
S
GR
GS
[0.75 0 0 0.75 0 -0.25] CT
10.0 ML
N
990.38 468.62 M
990.38 462.38 L
996.62 462.38 L
996.62 468.62 L
cp
S
GR
GS
[0.75 0 0 0.75 0 -0.25] CT
10.0 ML
N
1084.38 468.62 M
1084.38 462.38 L
1090.62 462.38 L
1090.62 468.62 L
cp
S
GR
GS
[0.75 0 0 0.75 0 -0.25] CT
10.0 ML
N
1178.38 468.62 M
1178.38 462.38 L
1184.62 462.38 L
1184.62 468.62 L
cp
S
GR
GS
[0.75 0 0 0.75 0 -0.25] CT
10.0 ML
N
1272.38 468.62 M
1272.38 462.38 L
1278.62 462.38 L
1278.62 468.62 L
cp
S
GR
GS
[0.75 0 0 0.75 0 -0.25] CT
10.0 ML
N
1366.38 468.62 M
1366.38 462.38 L
1372.62 462.38 L
1372.62 468.62 L
cp
S
GR
GS
[0.75 0 0 0.75 0 -0.25] CT
10.0 ML
N
613.38 311.62 M
613.38 305.38 L
619.62 305.38 L
619.62 311.62 L
cp
S
GR
GS
[0.75 0 0 0.75 0 -0.25] CT
10.0 ML
N
707.38 310.62 M
707.38 304.38 L
713.62 304.38 L
713.62 310.62 L
cp
S
GR
GS
[0.75 0 0 0.75 0 -0.25] CT
10.0 ML
N
802.38 310.62 M
802.38 304.38 L
808.62 304.38 L
808.62 310.62 L
cp
S
GR
GS
[0.75 0 0 0.75 0 -0.25] CT
10.0 ML
N
896.38 310.62 M
896.38 304.38 L
902.62 304.38 L
902.62 310.62 L
cp
S
GR
GS
[0.75 0 0 0.75 0 -0.25] CT
10.0 ML
N
990.38 310.62 M
990.38 304.38 L
996.62 304.38 L
996.62 310.62 L
cp
S
GR
GS
[0.75 0 0 0.75 0 -0.25] CT
10.0 ML
N
1084.38 310.62 M
1084.38 304.38 L
1090.62 304.38 L
1090.62 310.62 L
cp
S
GR
GS
[0.75 0 0 0.75 0 -0.25] CT
10.0 ML
N
1178.38 310.62 M
1178.38 304.38 L
1184.62 304.38 L
1184.62 310.62 L
cp
S
GR
GS
[0.75 0 0 0.75 0 -0.25] CT
10.0 ML
N
1273.38 310.62 M
1273.38 304.38 L
1279.62 304.38 L
1279.62 310.62 L
cp
S
GR
GS
[0.75 0 0 0.75 0 -0.25] CT
10.0 ML
N
1367.38 311.62 M
1367.38 305.38 L
1373.62 305.38 L
1373.62 311.62 L
cp
S
GR
GS
[0.75 0 0 0.75 0 -0.25] CT
10.0 ML
N
707.38 152.62 M
707.38 146.38 L
713.62 146.38 L
713.62 152.62 L
cp
S
GR
GS
[0.75 0 0 0.75 0 -0.25] CT
10.0 ML
N
801.38 154.62 M
801.38 148.38 L
807.62 148.38 L
807.62 154.62 L
cp
S
GR
GS
[0.75 0 0 0.75 0 -0.25] CT
10.0 ML
N
896.38 154.62 M
896.38 148.38 L
902.62 148.38 L
902.62 154.62 L
cp
S
GR
GS
[0.75 0 0 0.75 0 -0.25] CT
10.0 ML
N
990.38 154.62 M
990.38 148.38 L
996.62 148.38 L
996.62 154.62 L
cp
S
GR
GS
[0.75 0 0 0.75 0 -0.25] CT
10.0 ML
N
1084.38 154.62 M
1084.38 148.38 L
1090.62 148.38 L
1090.62 154.62 L
cp
S
GR
GS
[0.75 0 0 0.75 0 -0.25] CT
10.0 ML
N
1178.38 154.62 M
1178.38 148.38 L
1184.62 148.38 L
1184.62 154.62 L
cp
S
GR
GS
[0.75 0 0 0.75 0 -0.25] CT
10.0 ML
N
1272.38 153.62 M
1272.38 147.38 L
1278.62 147.38 L
1278.62 153.62 L
cp
S
GR
GS
[0.75 0 0 0.75 0 -0.25] CT
0 1 0 RC
10.0 ML
N
708.38 782.62 M
708.38 776.38 L
714.62 776.38 L
714.62 782.62 L
cp
S
GR
GS
[0.75 0 0 0.75 0 -0.25] CT
0 1 0 RC
10.0 ML
N
802.38 780.62 M
802.38 774.38 L
808.62 774.38 L
808.62 780.62 L
cp
S
GR
GS
[0.75 0 0 0.75 0 -0.25] CT
0 1 0 RC
10.0 ML
N
896.38 780.62 M
896.38 774.38 L
902.62 774.38 L
902.62 780.62 L
cp
S
GR
GS
[0.75 0 0 0.75 0 -0.25] CT
0 1 0 RC
10.0 ML
N
991.38 780.62 M
991.38 774.38 L
997.62 774.38 L
997.62 780.62 L
cp
S
GR
GS
[0.75 0 0 0.75 0 -0.25] CT
0 1 0 RC
10.0 ML
N
1085.38 780.62 M
1085.38 774.38 L
1091.62 774.38 L
1091.62 780.62 L
cp
S
GR
GS
[0.75 0 0 0.75 0 -0.25] CT
0 1 0 RC
10.0 ML
N
1179.38 781.62 M
1179.38 775.38 L
1185.62 775.38 L
1185.62 781.62 L
cp
S
GR
GS
[0.75 0 0 0.75 0 -0.25] CT
0 1 0 RC
10.0 ML
N
1273.38 783.62 M
1273.38 777.38 L
1279.62 777.38 L
1279.62 783.62 L
cp
S
GR
GS
[0.75 0 0 0.75 0 -0.25] CT
0 1 0 RC
10.0 ML
N
613.38 624.62 M
613.38 618.38 L
619.62 618.38 L
619.62 624.62 L
cp
S
GR
GS
[0.75 0 0 0.75 0 -0.25] CT
0 1 0 RC
10.0 ML
N
708.38 625.62 M
708.38 619.38 L
714.62 619.38 L
714.62 625.62 L
cp
S
GR
GS
[0.75 0 0 0.75 0 -0.25] CT
0 1 0 RC
10.0 ML
N
802.38 625.62 M
802.38 619.38 L
808.62 619.38 L
808.62 625.62 L
cp
S
GR
GS
[0.75 0 0 0.75 0 -0.25] CT
0 1 0 RC
10.0 ML
N
897.38 625.62 M
897.38 619.38 L
903.62 619.38 L
903.62 625.62 L
cp
S
GR
GS
[0.75 0 0 0.75 0 -0.25] CT
0 1 0 RC
10.0 ML
N
991.38 625.62 M
991.38 619.38 L
997.62 619.38 L
997.62 625.62 L
cp
S
GR
GS
[0.75 0 0 0.75 0 -0.25] CT
0 1 0 RC
10.0 ML
N
1085.38 625.62 M
1085.38 619.38 L
1091.62 619.38 L
1091.62 625.62 L
cp
S
GR
GS
[0.75 0 0 0.75 0 -0.25] CT
0 1 0 RC
10.0 ML
N
1179.38 626.62 M
1179.38 620.38 L
1185.62 620.38 L
1185.62 626.62 L
cp
S
GR
GS
[0.75 0 0 0.75 0 -0.25] CT
0 1 0 RC
10.0 ML
N
1274.38 626.62 M
1274.38 620.38 L
1280.62 620.38 L
1280.62 626.62 L
cp
S
GR
GS
[0.75 0 0 0.75 0 -0.25] CT
0 1 0 RC
10.0 ML
N
1368.38 626.62 M
1368.38 620.38 L
1374.62 620.38 L
1374.62 626.62 L
cp
S
GR
GS
[0.75 0 0 0.75 0 -0.25] CT
0 1 0 RC
10.0 ML
N
614.38 467.62 M
614.38 461.38 L
620.62 461.38 L
620.62 467.62 L
cp
S
GR
GS
[0.75 0 0 0.75 0 -0.25] CT
0 1 0 RC
10.0 ML
N
708.38 467.62 M
708.38 461.38 L
714.62 461.38 L
714.62 467.62 L
cp
S
GR
GS
[0.75 0 0 0.75 0 -0.25] CT
0 1 0 RC
10.0 ML
N
802.38 467.62 M
802.38 461.38 L
808.62 461.38 L
808.62 467.62 L
cp
S
GR
GS
[0.75 0 0 0.75 0 -0.25] CT
0 1 0 RC
10.0 ML
N
897.38 468.62 M
897.38 462.38 L
903.62 462.38 L
903.62 468.62 L
cp
S
GR
GS
[0.75 0 0 0.75 0 -0.25] CT
0 1 0 RC
10.0 ML
N
991.38 468.62 M
991.38 462.38 L
997.62 462.38 L
997.62 468.62 L
cp
S
GR
GS
[0.75 0 0 0.75 0 -0.25] CT
0 1 0 RC
10.0 ML
N
1085.38 468.62 M
1085.38 462.38 L
1091.62 462.38 L
1091.62 468.62 L
cp
S
GR
GS
[0.75 0 0 0.75 0 -0.25] CT
0 1 0 RC
10.0 ML
N
1179.38 469.62 M
1179.38 463.38 L
1185.62 463.38 L
1185.62 469.62 L
cp
S
GR
GS
[0.75 0 0 0.75 0 -0.25] CT
0 1 0 RC
10.0 ML
N
1274.38 469.62 M
1274.38 463.38 L
1280.62 463.38 L
1280.62 469.62 L
cp
S
GR
GS
[0.75 0 0 0.75 0 -0.25] CT
0 1 0 RC
10.0 ML
N
1367.38 470.62 M
1367.38 464.38 L
1373.62 464.38 L
1373.62 470.62 L
cp
S
GR
GS
[0.75 0 0 0.75 0 -0.25] CT
0 1 0 RC
10.0 ML
N
613.38 309.62 M
613.38 303.38 L
619.62 303.38 L
619.62 309.62 L
cp
S
GR
GS
[0.75 0 0 0.75 0 -0.25] CT
0 1 0 RC
10.0 ML
N
707.38 309.62 M
707.38 303.38 L
713.62 303.38 L
713.62 309.62 L
cp
S
GR
GS
[0.75 0 0 0.75 0 -0.25] CT
0 1 0 RC
10.0 ML
N
802.38 309.62 M
802.38 303.38 L
808.62 303.38 L
808.62 309.62 L
cp
S
GR
GS
[0.75 0 0 0.75 0 -0.25] CT
0 1 0 RC
10.0 ML
N
897.38 310.62 M
897.38 304.38 L
903.62 304.38 L
903.62 310.62 L
cp
S
GR
GS
[0.75 0 0 0.75 0 -0.25] CT
0 1 0 RC
10.0 ML
N
991.38 310.62 M
991.38 304.38 L
997.62 304.38 L
997.62 310.62 L
cp
S
GR
GS
[0.75 0 0 0.75 0 -0.25] CT
0 1 0 RC
10.0 ML
N
1085.38 311.62 M
1085.38 305.38 L
1091.62 305.38 L
1091.62 311.62 L
cp
S
GR
GS
[0.75 0 0 0.75 0 -0.25] CT
0 1 0 RC
10.0 ML
N
1179.38 311.62 M
1179.38 305.38 L
1185.62 305.38 L
1185.62 311.62 L
cp
S
GR
GS
[0.75 0 0 0.75 0 -0.25] CT
0 1 0 RC
10.0 ML
N
1273.38 312.62 M
1273.38 306.38 L
1279.62 306.38 L
1279.62 312.62 L
cp
S
GR
GS
[0.75 0 0 0.75 0 -0.25] CT
0 1 0 RC
10.0 ML
N
1368.38 314.62 M
1368.38 308.38 L
1374.62 308.38 L
1374.62 314.62 L
cp
S
GR
GS
[0.75 0 0 0.75 0 -0.25] CT
0 1 0 RC
10.0 ML
N
708.38 150.62 M
708.38 144.38 L
714.62 144.38 L
714.62 150.62 L
cp
S
GR
GS
[0.75 0 0 0.75 0 -0.25] CT
0 1 0 RC
10.0 ML
N
801.38 151.62 M
801.38 145.38 L
807.62 145.38 L
807.62 151.62 L
cp
S
GR
GS
[0.75 0 0 0.75 0 -0.25] CT
0 1 0 RC
10.0 ML
N
896.38 152.62 M
896.38 146.38 L
902.62 146.38 L
902.62 152.62 L
cp
S
GR
GS
[0.75 0 0 0.75 0 -0.25] CT
0 1 0 RC
10.0 ML
N
990.38 153.62 M
990.38 147.38 L
996.62 147.38 L
996.62 153.62 L
cp
S
GR
GS
[0.75 0 0 0.75 0 -0.25] CT
0 1 0 RC
10.0 ML
N
1085.38 154.62 M
1085.38 148.38 L
1091.62 148.38 L
1091.62 154.62 L
cp
S
GR
GS
[0.75 0 0 0.75 0 -0.25] CT
0 1 0 RC
10.0 ML
N
1179.38 154.62 M
1179.38 148.38 L
1185.62 148.38 L
1185.62 154.62 L
cp
S
GR
GS
[0.75 0 0 0.75 0 -0.25] CT
0 1 0 RC
10.0 ML
N
1273.38 154.62 M
1273.38 148.38 L
1279.62 148.38 L
1279.62 154.62 L
cp
S
GR
GS
[0.75 0 0 0.75 551.21251 583.625] CT
0 0 1 RC
/Helvetica 13.333 F
GS
[1 0 0 1 0 0] CT
0 5.5 moveto 
1 -1 scale
(1) t 
GR
GR
GS
[0.75 0 0 0.75 553.41412 582.69698] CT
1 0 0 RC
/Helvetica 13.333 F
GS
[1 0 0 1 0 0] CT
0 5.5 moveto 
1 -1 scale
(1) t 
GR
GR
GS
[0.75 0 0 0.75 550.76056 584.7999] CT
/Helvetica 13.333 F
GS
[1 0 0 1 0 0] CT
0 5.5 moveto 
1 -1 scale
(1) t 
GR
GR
GS
[0.75 0 0 0.75 551.28566 584.3663] CT
0 1 0 RC
/Helvetica 13.333 F
GS
[1 0 0 1 0 0] CT
0 5.5 moveto 
1 -1 scale
(1) t 
GR
GR
GS
[0.75 0 0 0.75 0 -0.25] CT
1 0 0 RC
1 LJ
0.667 LW
N
711.4 778.5 M
714.336 777.263 L
S
GR
GS
[0.75 0 0 0.75 0 -0.25] CT
1 LJ
0.667 LW
N
711.4 778.5 M
710.797 780.067 L
S
GR
GS
[0.75 0 0 0.75 0 -0.25] CT
0 1 0 RC
1 LJ
0.667 LW
N
711.4 778.5 M
711.498 779.488 L
S
GR
GS
[0.75 0 0 0.75 621.86252 583.625] CT
0 0 1 RC
/Helvetica 13.333 F
GS
[1 0 0 1 0 0] CT
0 5.5 moveto 
1 -1 scale
(2) t 
GR
GR
GS
[0.75 0 0 0.75 622.94577 582.28664] CT
1 0 0 RC
/Helvetica 13.333 F
GS
[1 0 0 1 0 0] CT
0 5.5 moveto 
1 -1 scale
(2) t 
GR
GR
GS
[0.75 0 0 0.75 621.11966 583.60527] CT
/Helvetica 13.333 F
GS
[1 0 0 1 0 0] CT
0 5.5 moveto 
1 -1 scale
(2) t 
GR
GR
GS
[0.75 0 0 0.75 621.68555 583.18788] CT
0 1 0 RC
/Helvetica 13.333 F
GS
[1 0 0 1 0 0] CT
0 5.5 moveto 
1 -1 scale
(2) t 
GR
GR
GS
[0.75 0 0 0.75 0 -0.25] CT
1 0 0 RC
1 LJ
0.667 LW
N
805.6 778.5 M
807.044 776.716 L
S
GR
GS
[0.75 0 0 0.75 0 -0.25] CT
1 LJ
0.667 LW
N
805.6 778.5 M
804.61 778.474 L
S
GR
GS
[0.75 0 0 0.75 0 -0.25] CT
0 1 0 RC
1 LJ
0.667 LW
N
805.6 778.5 M
805.364 777.917 L
S
GR
GS
[0.75 0 0 0.75 692.51248 583.625] CT
0 0 1 RC
/Helvetica 13.333 F
GS
[1 0 0 1 0 0] CT
0 5.5 moveto 
1 -1 scale
(3) t 
GR
GR
GS
[0.75 0 0 0.75 693.26418 582.28893] CT
1 0 0 RC
/Helvetica 13.333 F
GS
[1 0 0 1 0 0] CT
0 5.5 moveto 
1 -1 scale
(3) t 
GR
GR
GS
[0.75 0 0 0.75 691.92142 583.3952] CT
/Helvetica 13.333 F
GS
[1 0 0 1 0 0] CT
0 5.5 moveto 
1 -1 scale
(3) t 
GR
GR
GS
[0.75 0 0 0.75 692.53427 583.00194] CT
0 1 0 RC
/Helvetica 13.333 F
GS
[1 0 0 1 0 0] CT
0 5.5 moveto 
1 -1 scale
(3) t 
GR
GR
GS
[0.75 0 0 0.75 0 -0.25] CT
1 0 0 RC
1 LJ
0.667 LW
N
899.8 778.5 M
900.802 776.719 L
S
GR
GS
[0.75 0 0 0.75 0 -0.25] CT
1 LJ
0.667 LW
N
899.8 778.5 M
899.012 778.194 L
S
GR
GS
[0.75 0 0 0.75 0 -0.25] CT
0 1 0 RC
1 LJ
0.667 LW
N
899.8 778.5 M
899.829 777.669 L
S
GR
GS
[0.75 0 0 0.75 763.16249 583.625] CT
0 0 1 RC
/Helvetica 13.333 F
GS
[1 0 0 1 0 0] CT
0 5.5 moveto 
1 -1 scale
(4) t 
GR
GR
GS
[0.75 0 0 0.75 763.54994 582.28664] CT
1 0 0 RC
/Helvetica 13.333 F
GS
[1 0 0 1 0 0] CT
0 5.5 moveto 
1 -1 scale
(4) t 
GR
GR
GS
[0.75 0 0 0.75 762.64412 583.22881] CT
/Helvetica 13.333 F
GS
[1 0 0 1 0 0] CT
0 5.5 moveto 
1 -1 scale
(4) t 
GR
GR
GS
[0.75 0 0 0.75 763.31007 582.86745] CT
0 1 0 RC
/Helvetica 13.333 F
GS
[1 0 0 1 0 0] CT
0 5.5 moveto 
1 -1 scale
(4) t 
GR
GR
GS
[0.75 0 0 0.75 0 -0.25] CT
1 0 0 RC
1 LJ
0.667 LW
N
994 778.5 M
994.517 776.716 L
S
GR
GS
[0.75 0 0 0.75 0 -0.25] CT
1 LJ
0.667 LW
N
994 778.5 M
993.309 777.972 L
S
GR
GS
[0.75 0 0 0.75 0 -0.25] CT
0 1 0 RC
1 LJ
0.667 LW
N
994 778.5 M
994.197 777.49 L
S
GR
GS
[0.75 0 0 0.75 833.8125 583.625] CT
0 0 1 RC
/Helvetica 13.333 F
GS
[1 0 0 1 0 0] CT
0 5.5 moveto 
1 -1 scale
(5) t 
GR
GR
GS
[0.75 0 0 0.75 833.845 582.29826] CT
1 0 0 RC
/Helvetica 13.333 F
GS
[1 0 0 1 0 0] CT
0 5.5 moveto 
1 -1 scale
(5) t 
GR
GR
GS
[0.75 0 0 0.75 833.30365 583.289] CT
/Helvetica 13.333 F
GS
[1 0 0 1 0 0] CT
0 5.5 moveto 
1 -1 scale
(5) t 
GR
GR
GS
[0.75 0 0 0.75 834.02893 582.96742] CT
0 1 0 RC
/Helvetica 13.333 F
GS
[1 0 0 1 0 0] CT
0 5.5 moveto 
1 -1 scale
(5) t 
GR
GR
GS
[0.75 0 0 0.75 0 -0.25] CT
1 0 0 RC
1 LJ
0.667 LW
N
1088.2 778.5 M
1088.243 776.731 L
S
GR
GS
[0.75 0 0 0.75 0 -0.25] CT
1 LJ
0.667 LW
N
1088.2 778.5 M
1087.521 778.052 L
S
GR
GS
[0.75 0 0 0.75 0 -0.25] CT
0 1 0 RC
1 LJ
0.667 LW
N
1088.2 778.5 M
1088.489 777.623 L
S
GR
GS
[0.75 0 0 0.75 904.46246 583.625] CT
0 0 1 RC
/Helvetica 13.333 F
GS
[1 0 0 1 0 0] CT
0 5.5 moveto 
1 -1 scale
(6) t 
GR
GR
GS
[0.75 0 0 0.75 904.1424 582.29593] CT
1 0 0 RC
/Helvetica 13.333 F
GS
[1 0 0 1 0 0] CT
0 5.5 moveto 
1 -1 scale
(6) t 
GR
GR
GS
[0.75 0 0 0.75 904.02054 583.53647] CT
/Helvetica 13.333 F
GS
[1 0 0 1 0 0] CT
0 5.5 moveto 
1 -1 scale
(6) t 
GR
GR
GS
[0.75 0 0 0.75 904.81128 583.26259] CT
0 1 0 RC
/Helvetica 13.333 F
GS
[1 0 0 1 0 0] CT
0 5.5 moveto 
1 -1 scale
(6) t 
GR
GR
GS
[0.75 0 0 0.75 0 -0.25] CT
1 0 0 RC
1 LJ
0.667 LW
N
1182.4 778.5 M
1181.973 776.728 L
S
GR
GS
[0.75 0 0 0.75 0 -0.25] CT
1 LJ
0.667 LW
N
1182.4 778.5 M
1181.811 778.382 L
S
GR
GS
[0.75 0 0 0.75 0 -0.25] CT
0 1 0 RC
1 LJ
0.667 LW
N
1182.4 778.5 M
1182.865 778.017 L
S
GR
GS
[0.75 0 0 0.75 975.11252 583.625] CT
0 0 1 RC
/Helvetica 13.333 F
GS
[1 0 0 1 0 0] CT
0 5.5 moveto 
1 -1 scale
(7) t 
GR
GR
GS
[0.75 0 0 0.75 973.70435 582.69698] CT
1 0 0 RC
/Helvetica 13.333 F
GS
[1 0 0 1 0 0] CT
0 5.5 moveto 
1 -1 scale
(7) t 
GR
GR
GS
[0.75 0 0 0.75 974.44272 585.00049] CT
/Helvetica 13.333 F
GS
[1 0 0 1 0 0] CT
0 5.5 moveto 
1 -1 scale
(7) t 
GR
GR
GS
[0.75 0 0 0.75 975.30524 584.78209] CT
0 1 0 RC
/Helvetica 13.333 F
GS
[1 0 0 1 0 0] CT
0 5.5 moveto 
1 -1 scale
(7) t 
GR
GR
GS
[0.75 0 0 0.75 0 -0.25] CT
1 0 0 RC
1 LJ
0.667 LW
N
1276.6 778.5 M
1274.723 777.263 L
S
GR
GS
[0.75 0 0 0.75 0 -0.25] CT
1 LJ
0.667 LW
N
1276.6 778.5 M
1275.707 780.334 L
S
GR
GS
[0.75 0 0 0.75 0 -0.25] CT
0 1 0 RC
1 LJ
0.667 LW
N
1276.6 778.5 M
1276.857 780.043 L
S
GR
GS
[0.75 0 0 0.75 480.5625 465.875] CT
0 0 1 RC
/Helvetica 13.333 F
GS
[1 0 0 1 0 0] CT
0 5.5 moveto 
1 -1 scale
(8) t 
GR
GR
GS
[0.75 0 0 0.75 482.57039 465.44598] CT
1 0 0 RC
/Helvetica 13.333 F
GS
[1 0 0 1 0 0] CT
0 5.5 moveto 
1 -1 scale
(8) t 
GR
GR
GS
[0.75 0 0 0.75 479.84047 466.54535] CT
/Helvetica 13.333 F
GS
[1 0 0 1 0 0] CT
0 5.5 moveto 
1 -1 scale
(8) t 
GR
GR
GS
[0.75 0 0 0.75 480.31613 466.159] CT
0 1 0 RC
/Helvetica 13.333 F
GS
[1 0 0 1 0 0] CT
0 5.5 moveto 
1 -1 scale
(8) t 
GR
GR
GS
[0.75 0 0 0.75 0 -0.25] CT
1 0 0 RC
1 LJ
0.667 LW
N
617.2 621.5 M
619.877 620.928 L
S
GR
GS
[0.75 0 0 0.75 0 -0.25] CT
1 LJ
0.667 LW
N
617.2 621.5 M
616.237 622.394 L
S
GR
GS
[0.75 0 0 0.75 0 -0.25] CT
0 1 0 RC
1 LJ
0.667 LW
N
617.2 621.5 M
616.872 621.879 L
S
GR
GS
[0.75 0 0 0.75 551.21251 465.875] CT
0 0 1 RC
/Helvetica 13.333 F
GS
[1 0 0 1 0 0] CT
0 5.5 moveto 
1 -1 scale
(9) t 
GR
GR
GS
[0.75 0 0 0.75 552.1604 466.15945] CT
1 0 0 RC
/Helvetica 13.333 F
GS
[1 0 0 1 0 0] CT
0 5.5 moveto 
1 -1 scale
(9) t 
GR
GR
GS
[0.75 0 0 0.75 550.5997 466.84322] CT
/Helvetica 13.333 F
GS
[1 0 0 1 0 0] CT
0 5.5 moveto 
1 -1 scale
(9) t 
GR
GR
GS
[0.75 0 0 0.75 551.1059 466.50955] CT
0 1 0 RC
/Helvetica 13.333 F
GS
[1 0 0 1 0 0] CT
0 5.5 moveto 
1 -1 scale
(9) t 
GR
GR
GS
[0.75 0 0 0.75 0 -0.25] CT
1 0 0 RC
1 LJ
0.667 LW
N
711.4 621.5 M
712.664 621.879 L
S
GR
GS
[0.75 0 0 0.75 0 -0.25] CT
1 LJ
0.667 LW
N
711.4 621.5 M
710.583 622.791 L
S
GR
GS
[0.75 0 0 0.75 0 -0.25] CT
0 1 0 RC
1 LJ
0.667 LW
N
711.4 621.5 M
711.258 622.346 L
S
GR
GS
[0.75 0 0 0.75 621.86252 465.875] CT
0 0 1 RC
/Helvetica 13.333 F
GS
[1 0 0 1 0 0] CT
0 5.5 moveto 
1 -1 scale
(10) t 
GR
GR
GS
[0.75 0 0 0.75 622.49281 466.15479] CT
1 0 0 RC
/Helvetica 13.333 F
GS
[1 0 0 1 0 0] CT
0 5.5 moveto 
1 -1 scale
(10) t 
GR
GR
GS
[0.75 0 0 0.75 621.57806 466.68277] CT
/Helvetica 13.333 F
GS
[1 0 0 1 0 0] CT
0 5.5 moveto 
1 -1 scale
(10) t 
GR
GR
GS
[0.75 0 0 0.75 622.12422 466.43402] CT
0 1 0 RC
/Helvetica 13.333 F
GS
[1 0 0 1 0 0] CT
0 5.5 moveto 
1 -1 scale
(10) t 
GR
GR
GS
[0.75 0 0 0.75 0 -0.25] CT
1 0 0 RC
1 LJ
0.667 LW
N
805.6 621.5 M
806.44 621.873 L
S
GR
GS
[0.75 0 0 0.75 0 -0.25] CT
1 LJ
0.667 LW
N
805.6 621.5 M
805.221 622.577 L
S
GR
GS
[0.75 0 0 0.75 0 -0.25] CT
0 1 0 RC
1 LJ
0.667 LW
N
805.6 621.5 M
805.949 622.245 L
S
GR
GS
[0.75 0 0 0.75 692.51248 465.875] CT
0 0 1 RC
/Helvetica 13.333 F
GS
[1 0 0 1 0 0] CT
0 5.5 moveto 
1 -1 scale
(11) t 
GR
GR
GS
[0.75 0 0 0.75 692.80888 466.14316] CT
1 0 0 RC
/Helvetica 13.333 F
GS
[1 0 0 1 0 0] CT
0 5.5 moveto 
1 -1 scale
(11) t 
GR
GR
GS
[0.75 0 0 0.75 692.07852 466.76544] CT
/Helvetica 13.333 F
GS
[1 0 0 1 0 0] CT
0 5.5 moveto 
1 -1 scale
(11) t 
GR
GR
GS
[0.75 0 0 0.75 692.67265 466.63081] CT
0 1 0 RC
/Helvetica 13.333 F
GS
[1 0 0 1 0 0] CT
0 5.5 moveto 
1 -1 scale
(11) t 
GR
GR
GS
[0.75 0 0 0.75 0 -0.25] CT
1 0 0 RC
1 LJ
0.667 LW
N
899.8 621.5 M
900.195 621.858 L
S
GR
GS
[0.75 0 0 0.75 0 -0.25] CT
1 LJ
0.667 LW
N
899.8 621.5 M
899.221 622.687 L
S
GR
GS
[0.75 0 0 0.75 0 -0.25] CT
0 1 0 RC
1 LJ
0.667 LW
N
899.8 621.5 M
900.014 622.508 L
S
GR
GS
[0.75 0 0 0.75 763.16249 465.875] CT
0 0 1 RC
/Helvetica 13.333 F
GS
[1 0 0 1 0 0] CT
0 5.5 moveto 
1 -1 scale
(12) t 
GR
GR
GS
[0.75 0 0 0.75 763.09698 466.14082] CT
1 0 0 RC
/Helvetica 13.333 F
GS
[1 0 0 1 0 0] CT
0 5.5 moveto 
1 -1 scale
(12) t 
GR
GR
GS
[0.75 0 0 0.75 762.59871 466.74699] CT
/Helvetica 13.333 F
GS
[1 0 0 1 0 0] CT
0 5.5 moveto 
1 -1 scale
(12) t 
GR
GR
GS
[0.75 0 0 0.75 763.24988 466.75812] CT
0 1 0 RC
/Helvetica 13.333 F
GS
[1 0 0 1 0 0] CT
0 5.5 moveto 
1 -1 scale
(12) t 
GR
GR
GS
[0.75 0 0 0.75 0 -0.25] CT
1 0 0 RC
1 LJ
0.667 LW
N
994 621.5 M
993.913 621.854 L
S
GR
GS
[0.75 0 0 0.75 0 -0.25] CT
1 LJ
0.667 LW
N
994 621.5 M
993.248 622.663 L
S
GR
GS
[0.75 0 0 0.75 0 -0.25] CT
0 1 0 RC
1 LJ
0.667 LW
N
994 621.5 M
994.117 622.677 L
S
GR
GS
[0.75 0 0 0.75 833.8125 465.875] CT
0 0 1 RC
/Helvetica 13.333 F
GS
[1 0 0 1 0 0] CT
0 5.5 moveto 
1 -1 scale
(13) t 
GR
GR
GS
[0.75 0 0 0.75 833.38504 466.14082] CT
1 0 0 RC
/Helvetica 13.333 F
GS
[1 0 0 1 0 0] CT
0 5.5 moveto 
1 -1 scale
(13) t 
GR
GR
GS
[0.75 0 0 0.75 833.27664 466.65105] CT
/Helvetica 13.333 F
GS
[1 0 0 1 0 0] CT
0 5.5 moveto 
1 -1 scale
(13) t 
GR
GR
GS
[0.75 0 0 0.75 833.99359 466.83873] CT
0 1 0 RC
/Helvetica 13.333 F
GS
[1 0 0 1 0 0] CT
0 5.5 moveto 
1 -1 scale
(13) t 
GR
GR
GS
[0.75 0 0 0.75 0 -0.25] CT
1 0 0 RC
1 LJ
0.667 LW
N
1088.2 621.5 M
1087.63 621.854 L
S
GR
GS
[0.75 0 0 0.75 0 -0.25] CT
1 LJ
0.667 LW
N
1088.2 621.5 M
1087.486 622.535 L
S
GR
GS
[0.75 0 0 0.75 0 -0.25] CT
0 1 0 RC
1 LJ
0.667 LW
N
1088.2 621.5 M
1088.441 622.785 L
S
GR
GS
[0.75 0 0 0.75 904.46246 465.875] CT
0 0 1 RC
/Helvetica 13.333 F
GS
[1 0 0 1 0 0] CT
0 5.5 moveto 
1 -1 scale
(14) t 
GR
GR
GS
[0.75 0 0 0.75 903.67776 466.13849] CT
1 0 0 RC
/Helvetica 13.333 F
GS
[1 0 0 1 0 0] CT
0 5.5 moveto 
1 -1 scale
(14) t 
GR
GR
GS
[0.75 0 0 0.75 903.78214 466.94292] CT
/Helvetica 13.333 F
GS
[1 0 0 1 0 0] CT
0 5.5 moveto 
1 -1 scale
(14) t 
GR
GR
GS
[0.75 0 0 0.75 904.57343 467.33806] CT
0 1 0 RC
/Helvetica 13.333 F
GS
[1 0 0 1 0 0] CT
0 5.5 moveto 
1 -1 scale
(14) t 
GR
GR
GS
[0.75 0 0 0.75 0 -0.25] CT
1 0 0 RC
1 LJ
0.667 LW
N
1182.4 621.5 M
1181.354 621.851 L
S
GR
GS
[0.75 0 0 0.75 0 -0.25] CT
1 LJ
0.667 LW
N
1182.4 621.5 M
1181.493 622.924 L
S
GR
GS
[0.75 0 0 0.75 0 -0.25] CT
0 1 0 RC
1 LJ
0.667 LW
N
1182.4 621.5 M
1182.548 623.451 L
S
GR
GS
[0.75 0 0 0.75 975.11252 465.875] CT
0 0 1 RC
/Helvetica 13.333 F
GS
[1 0 0 1 0 0] CT
0 5.5 moveto 
1 -1 scale
(15) t 
GR
GR
GS
[0.75 0 0 0.75 973.97754 466.13849] CT
1 0 0 RC
/Helvetica 13.333 F
GS
[1 0 0 1 0 0] CT
0 5.5 moveto 
1 -1 scale
(15) t 
GR
GR
GS
[0.75 0 0 0.75 974.88794 466.98306] CT
/Helvetica 13.333 F
GS
[1 0 0 1 0 0] CT
0 5.5 moveto 
1 -1 scale
(15) t 
GR
GR
GS
[0.75 0 0 0.75 975.76318 467.61862] CT
0 1 0 RC
/Helvetica 13.333 F
GS
[1 0 0 1 0 0] CT
0 5.5 moveto 
1 -1 scale
(15) t 
GR
GR
GS
[0.75 0 0 0.75 0 -0.25] CT
1 0 0 RC
1 LJ
0.667 LW
N
1276.6 621.5 M
1275.087 621.851 L
S
GR
GS
[0.75 0 0 0.75 0 -0.25] CT
1 LJ
0.667 LW
N
1276.6 621.5 M
1276.301 622.977 L
S
GR
GS
[0.75 0 0 0.75 0 -0.25] CT
0 1 0 RC
1 LJ
0.667 LW
N
1276.6 621.5 M
1277.468 623.825 L
S
GR
GS
[0.75 0 0 0.75 1045.76248 465.875] CT
0 0 1 RC
/Helvetica 13.333 F
GS
[1 0 0 1 0 0] CT
0 5.5 moveto 
1 -1 scale
(16) t 
GR
GR
GS
[0.75 0 0 0.75 1043.5372 465.41563] CT
1 0 0 RC
/Helvetica 13.333 F
GS
[1 0 0 1 0 0] CT
0 5.5 moveto 
1 -1 scale
(16) t 
GR
GR
GS
[0.75 0 0 0.75 1045.49561 466.58939] CT
/Helvetica 13.333 F
GS
[1 0 0 1 0 0] CT
0 5.5 moveto 
1 -1 scale
(16) t 
GR
GR
GS
[0.75 0 0 0.75 1046.46268 467.49434] CT
0 1 0 RC
/Helvetica 13.333 F
GS
[1 0 0 1 0 0] CT
0 5.5 moveto 
1 -1 scale
(16) t 
GR
GR
GS
[0.75 0 0 0.75 0 -0.25] CT
1 0 0 RC
1 LJ
0.667 LW
N
1370.8 621.5 M
1367.833 620.888 L
S
GR
GS
[0.75 0 0 0.75 0 -0.25] CT
1 LJ
0.667 LW
N
1370.8 621.5 M
1370.444 622.453 L
S
GR
GS
[0.75 0 0 0.75 0 -0.25] CT
0 1 0 RC
1 LJ
0.667 LW
N
1370.8 621.5 M
1371.734 623.659 L
S
GR
GS
[0.75 0 0 0.75 480.5625 348.125] CT
0 0 1 RC
/Helvetica 13.333 F
GS
[1 0 0 1 0 0] CT
0 5.5 moveto 
1 -1 scale
(17) t 
GR
GR
GS
[0.75 0 0 0.75 482.48868 348.53072] CT
1 0 0 RC
/Helvetica 13.333 F
GS
[1 0 0 1 0 0] CT
0 5.5 moveto 
1 -1 scale
(17) t 
GR
GR
GS
[0.75 0 0 0.75 480.58154 348.57693] CT
/Helvetica 13.333 F
GS
[1 0 0 1 0 0] CT
0 5.5 moveto 
1 -1 scale
(17) t 
GR
GR
GS
[0.75 0 0 0.75 481.03825 348.02502] CT
0 1 0 RC
/Helvetica 13.333 F
GS
[1 0 0 1 0 0] CT
0 5.5 moveto 
1 -1 scale
(17) t 
GR
GR
GS
[0.75 0 0 0.75 0 -0.25] CT
1 0 0 RC
1 LJ
0.667 LW
N
617.2 464.5 M
619.768 465.041 L
S
GR
GS
[0.75 0 0 0.75 0 -0.25] CT
1 LJ
0.667 LW
N
617.2 464.5 M
617.225 465.103 L
S
GR
GS
[0.75 0 0 0.75 0 -0.25] CT
0 1 0 RC
1 LJ
0.667 LW
N
617.2 464.5 M
617.834 464.367 L
S
GR
GS
[0.75 0 0 0.75 551.21251 348.125] CT
0 0 1 RC
/Helvetica 13.333 F
GS
[1 0 0 1 0 0] CT
0 5.5 moveto 
1 -1 scale
(18) t 
GR
GR
GS
[0.75 0 0 0.75 551.67709 348.52371] CT
1 0 0 RC
/Helvetica 13.333 F
GS
[1 0 0 1 0 0] CT
0 5.5 moveto 
1 -1 scale
(18) t 
GR
GR
GS
[0.75 0 0 0.75 550.66672 348.59604] CT
/Helvetica 13.333 F
GS
[1 0 0 1 0 0] CT
0 5.5 moveto 
1 -1 scale
(18) t 
GR
GR
GS
[0.75 0 0 0.75 551.14146 348.13864] CT
0 1 0 RC
/Helvetica 13.333 F
GS
[1 0 0 1 0 0] CT
0 5.5 moveto 
1 -1 scale
(18) t 
GR
GR
GS
[0.75 0 0 0.75 0 -0.25] CT
1 0 0 RC
1 LJ
0.667 LW
N
711.4 464.5 M
712.019 465.032 L
S
GR
GS
[0.75 0 0 0.75 0 -0.25] CT
1 LJ
0.667 LW
N
711.4 464.5 M
710.672 465.128 L
S
GR
GS
[0.75 0 0 0.75 0 -0.25] CT
0 1 0 RC
1 LJ
0.667 LW
N
711.4 464.5 M
711.305 464.518 L
S
GR
GS
[0.75 0 0 0.75 621.86252 348.125] CT
0 0 1 RC
/Helvetica 13.333 F
GS
[1 0 0 1 0 0] CT
0 5.5 moveto 
1 -1 scale
(19) t 
GR
GR
GS
[0.75 0 0 0.75 622.01418 348.51673] CT
1 0 0 RC
/Helvetica 13.333 F
GS
[1 0 0 1 0 0] CT
0 5.5 moveto 
1 -1 scale
(19) t 
GR
GR
GS
[0.75 0 0 0.75 621.56909 348.61522] CT
/Helvetica 13.333 F
GS
[1 0 0 1 0 0] CT
0 5.5 moveto 
1 -1 scale
(19) t 
GR
GR
GS
[0.75 0 0 0.75 622.07364 348.30916] CT
0 1 0 RC
/Helvetica 13.333 F
GS
[1 0 0 1 0 0] CT
0 5.5 moveto 
1 -1 scale
(19) t 
GR
GR
GS
[0.75 0 0 0.75 0 -0.25] CT
1 0 0 RC
1 LJ
0.667 LW
N
805.6 464.5 M
805.802 465.022 L
S
GR
GS
[0.75 0 0 0.75 0 -0.25] CT
1 LJ
0.667 LW
N
805.6 464.5 M
805.209 465.154 L
S
GR
GS
[0.75 0 0 0.75 0 -0.25] CT
0 1 0 RC
1 LJ
0.667 LW
N
805.6 464.5 M
805.882 464.746 L
S
GR
GS
[0.75 0 0 0.75 692.51248 348.125] CT
0 0 1 RC
/Helvetica 13.333 F
GS
[1 0 0 1 0 0] CT
0 5.5 moveto 
1 -1 scale
(20) t 
GR
GR
GS
[0.75 0 0 0.75 692.31628 348.51206] CT
1 0 0 RC
/Helvetica 13.333 F
GS
[1 0 0 1 0 0] CT
0 5.5 moveto 
1 -1 scale
(20) t 
GR
GR
GS
[0.75 0 0 0.75 692.14961 348.64154] CT
/Helvetica 13.333 F
GS
[1 0 0 1 0 0] CT
0 5.5 moveto 
1 -1 scale
(20) t 
GR
GR
GS
[0.75 0 0 0.75 692.69467 348.53806] CT
0 1 0 RC
/Helvetica 13.333 F
GS
[1 0 0 1 0 0] CT
0 5.5 moveto 
1 -1 scale
(20) t 
GR
GR
GS
[0.75 0 0 0.75 0 -0.25] CT
1 0 0 RC
1 LJ
0.667 LW
N
899.8 464.5 M
899.538 465.016 L
S
GR
GS
[0.75 0 0 0.75 0 -0.25] CT
1 LJ
0.667 LW
N
899.8 464.5 M
899.316 465.189 L
S
GR
GS
[0.75 0 0 0.75 0 -0.25] CT
0 1 0 RC
1 LJ
0.667 LW
N
899.8 464.5 M
900.043 465.051 L
S
GR
GS
[0.75 0 0 0.75 763.16249 348.125] CT
0 0 1 RC
/Helvetica 13.333 F
GS
[1 0 0 1 0 0] CT
0 5.5 moveto 
1 -1 scale
(21) t 
GR
GR
GS
[0.75 0 0 0.75 762.61835 348.50973] CT
1 0 0 RC
/Helvetica 13.333 F
GS
[1 0 0 1 0 0] CT
0 5.5 moveto 
1 -1 scale
(21) t 
GR
GR
GS
[0.75 0 0 0.75 762.75865 348.51062] CT
/Helvetica 13.333 F
GS
[1 0 0 1 0 0] CT
0 5.5 moveto 
1 -1 scale
(21) t 
GR
GR
GS
[0.75 0 0 0.75 763.35576 348.66539] CT
0 1 0 RC
/Helvetica 13.333 F
GS
[1 0 0 1 0 0] CT
0 5.5 moveto 
1 -1 scale
(21) t 
GR
GR
GS
[0.75 0 0 0.75 0 -0.25] CT
1 0 0 RC
1 LJ
0.667 LW
N
994 464.5 M
993.274 465.013 L
S
GR
GS
[0.75 0 0 0.75 0 -0.25] CT
1 LJ
0.667 LW
N
994 464.5 M
993.462 465.014 L
S
GR
GS
[0.75 0 0 0.75 0 -0.25] CT
0 1 0 RC
1 LJ
0.667 LW
N
994 464.5 M
994.258 465.221 L
S
GR
GS
[0.75 0 0 0.75 833.8125 348.125] CT
0 0 1 RC
/Helvetica 13.333 F
GS
[1 0 0 1 0 0] CT
0 5.5 moveto 
1 -1 scale
(22) t 
GR
GR
GS
[0.75 0 0 0.75 832.90411 348.51206] CT
1 0 0 RC
/Helvetica 13.333 F
GS
[1 0 0 1 0 0] CT
0 5.5 moveto 
1 -1 scale
(22) t 
GR
GR
GS
[0.75 0 0 0.75 833.20441 348.53683] CT
/Helvetica 13.333 F
GS
[1 0 0 1 0 0] CT
0 5.5 moveto 
1 -1 scale
(22) t 
GR
GR
GS
[0.75 0 0 0.75 833.86487 349.00407] CT
0 1 0 RC
/Helvetica 13.333 F
GS
[1 0 0 1 0 0] CT
0 5.5 moveto 
1 -1 scale
(22) t 
GR
GR
GS
[0.75 0 0 0.75 0 -0.25] CT
1 0 0 RC
1 LJ
0.667 LW
N
1088.2 464.5 M
1086.989 465.016 L
S
GR
GS
[0.75 0 0 0.75 0 -0.25] CT
1 LJ
0.667 LW
N
1088.2 464.5 M
1087.389 465.049 L
S
GR
GS
[0.75 0 0 0.75 0 -0.25] CT
0 1 0 RC
1 LJ
0.667 LW
N
1088.2 464.5 M
1088.27 465.672 L
S
GR
GS
[0.75 0 0 0.75 904.46246 348.125] CT
0 0 1 RC
/Helvetica 13.333 F
GS
[1 0 0 1 0 0] CT
0 5.5 moveto 
1 -1 scale
(23) t 
GR
GR
GS
[0.75 0 0 0.75 903.17578 348.51206] CT
1 0 0 RC
/Helvetica 13.333 F
GS
[1 0 0 1 0 0] CT
0 5.5 moveto 
1 -1 scale
(23) t 
GR
GR
GS
[0.75 0 0 0.75 903.63345 348.69686] CT
/Helvetica 13.333 F
GS
[1 0 0 1 0 0] CT
0 5.5 moveto 
1 -1 scale
(23) t 
GR
GR
GS
[0.75 0 0 0.75 904.36844 349.53077] CT
0 1 0 RC
/Helvetica 13.333 F
GS
[1 0 0 1 0 0] CT
0 5.5 moveto 
1 -1 scale
(23) t 
GR
GR
GS
[0.75 0 0 0.75 0 -0.25] CT
1 0 0 RC
1 LJ
0.667 LW
N
1182.4 464.5 M
1180.684 465.016 L
S
GR
GS
[0.75 0 0 0.75 0 -0.25] CT
1 LJ
0.667 LW
N
1182.4 464.5 M
1181.295 465.262 L
S
GR
GS
[0.75 0 0 0.75 0 -0.25] CT
0 1 0 RC
1 LJ
0.667 LW
N
1182.4 464.5 M
1182.275 466.374 L
S
GR
GS
[0.75 0 0 0.75 975.11252 348.125] CT
0 0 1 RC
/Helvetica 13.333 F
GS
[1 0 0 1 0 0] CT
0 5.5 moveto 
1 -1 scale
(24) t 
GR
GR
GS
[0.75 0 0 0.75 973.47089 348.50041] CT
1 0 0 RC
/Helvetica 13.333 F
GS
[1 0 0 1 0 0] CT
0 5.5 moveto 
1 -1 scale
(24) t 
GR
GR
GS
[0.75 0 0 0.75 974.65173 348.56541] CT
/Helvetica 13.333 F
GS
[1 0 0 1 0 0] CT
0 5.5 moveto 
1 -1 scale
(24) t 
GR
GR
GS
[0.75 0 0 0.75 975.4725 349.82019] CT
0 1 0 RC
/Helvetica 13.333 F
GS
[1 0 0 1 0 0] CT
0 5.5 moveto 
1 -1 scale
(24) t 
GR
GR
GS
[0.75 0 0 0.75 0 -0.25] CT
1 0 0 RC
1 LJ
0.667 LW
N
1276.6 464.5 M
1274.411 465.001 L
S
GR
GS
[0.75 0 0 0.75 0 -0.25] CT
1 LJ
0.667 LW
N
1276.6 464.5 M
1275.986 465.087 L
S
GR
GS
[0.75 0 0 0.75 0 -0.25] CT
0 1 0 RC
1 LJ
0.667 LW
N
1276.6 464.5 M
1277.08 466.76 L
S
GR
GS
[0.75 0 0 0.75 1045.76248 348.125] CT
0 0 1 RC
/Helvetica 13.333 F
GS
[1 0 0 1 0 0] CT
0 5.5 moveto 
1 -1 scale
(25) t 
GR
GR
GS
[0.75 0 0 0.75 1042.63129 348.49574] CT
1 0 0 RC
/Helvetica 13.333 F
GS
[1 0 0 1 0 0] CT
0 5.5 moveto 
1 -1 scale
(25) t 
GR
GR
GS
[0.75 0 0 0.75 1044.59756 348.72787] CT
/Helvetica 13.333 F
GS
[1 0 0 1 0 0] CT
0 5.5 moveto 
1 -1 scale
(25) t 
GR
GR
GS
[0.75 0 0 0.75 1045.51456 350.45351] CT
0 1 0 RC
/Helvetica 13.333 F
GS
[1 0 0 1 0 0] CT
0 5.5 moveto 
1 -1 scale
(25) t 
GR
GR
GS
[0.75 0 0 0.75 0 -0.25] CT
1 0 0 RC
1 LJ
0.667 LW
N
1370.8 464.5 M
1366.625 464.994 L
S
GR
GS
[0.75 0 0 0.75 0 -0.25] CT
1 LJ
0.667 LW
N
1370.8 464.5 M
1369.247 465.304 L
S
GR
GS
[0.75 0 0 0.75 0 -0.25] CT
0 1 0 RC
1 LJ
0.667 LW
N
1370.8 464.5 M
1370.469 467.605 L
S
GR
GS
[0.75 0 0 0.75 480.5625 230.375] CT
0 0 1 RC
/Helvetica 13.333 F
GS
[1 0 0 1 0 0] CT
0 5.5 moveto 
1 -1 scale
(26) t 
GR
GR
GS
[0.75 0 0 0.75 481.64351 231.91858] CT
1 0 0 RC
/Helvetica 13.333 F
GS
[1 0 0 1 0 0] CT
0 5.5 moveto 
1 -1 scale
(26) t 
GR
GR
GS
[0.75 0 0 0.75 479.97839 231.04553] CT
/Helvetica 13.333 F
GS
[1 0 0 1 0 0] CT
0 5.5 moveto 
1 -1 scale
(26) t 
GR
GR
GS
[0.75 0 0 0.75 480.4124 229.95175] CT
0 1 0 RC
/Helvetica 13.333 F
GS
[1 0 0 1 0 0] CT
0 5.5 moveto 
1 -1 scale
(26) t 
GR
GR
GS
[0.75 0 0 0.75 0 -0.25] CT
1 0 0 RC
1 LJ
0.667 LW
N
617.2 307.5 M
618.641 309.558 L
S
GR
GS
[0.75 0 0 0.75 0 -0.25] CT
1 LJ
0.667 LW
N
617.2 307.5 M
616.421 308.394 L
S
GR
GS
[0.75 0 0 0.75 0 -0.25] CT
0 1 0 RC
1 LJ
0.667 LW
N
617.2 307.5 M
617 306.936 L
S
GR
GS
[0.75 0 0 0.75 551.21251 230.375] CT
0 0 1 RC
/Helvetica 13.333 F
GS
[1 0 0 1 0 0] CT
0 5.5 moveto 
1 -1 scale
(27) t 
GR
GR
GS
[0.75 0 0 0.75 551.19612 231.14912] CT
1 0 0 RC
/Helvetica 13.333 F
GS
[1 0 0 1 0 0] CT
0 5.5 moveto 
1 -1 scale
(27) t 
GR
GR
GS
[0.75 0 0 0.75 550.46187 230.45483] CT
/Helvetica 13.333 F
GS
[1 0 0 1 0 0] CT
0 5.5 moveto 
1 -1 scale
(27) t 
GR
GR
GS
[0.75 0 0 0.75 550.89249 229.4912] CT
0 1 0 RC
/Helvetica 13.333 F
GS
[1 0 0 1 0 0] CT
0 5.5 moveto 
1 -1 scale
(27) t 
GR
GR
GS
[0.75 0 0 0.75 0 -0.25] CT
1 0 0 RC
1 LJ
0.667 LW
N
711.4 307.5 M
711.378 308.532 L
S
GR
GS
[0.75 0 0 0.75 0 -0.25] CT
1 LJ
0.667 LW
N
711.4 307.5 M
710.399 307.606 L
S
GR
GS
[0.75 0 0 0.75 0 -0.25] CT
0 1 0 RC
1 LJ
0.667 LW
N
711.4 307.5 M
710.973 306.322 L
S
GR
GS
[0.75 0 0 0.75 621.86252 230.375] CT
0 0 1 RC
/Helvetica 13.333 F
GS
[1 0 0 1 0 0] CT
0 5.5 moveto 
1 -1 scale
(28) t 
GR
GR
GS
[0.75 0 0 0.75 621.51453 231.15377] CT
1 0 0 RC
/Helvetica 13.333 F
GS
[1 0 0 1 0 0] CT
0 5.5 moveto 
1 -1 scale
(28) t 
GR
GR
GS
[0.75 0 0 0.75 621.56982 230.5275] CT
/Helvetica 13.333 F
GS
[1 0 0 1 0 0] CT
0 5.5 moveto 
1 -1 scale
(28) t 
GR
GR
GS
[0.75 0 0 0.75 622.01093 229.7784] CT
0 1 0 RC
/Helvetica 13.333 F
GS
[1 0 0 1 0 0] CT
0 5.5 moveto 
1 -1 scale
(28) t 
GR
GR
GS
[0.75 0 0 0.75 0 -0.25] CT
1 0 0 RC
1 LJ
0.667 LW
N
805.6 307.5 M
805.136 308.538 L
S
GR
GS
[0.75 0 0 0.75 0 -0.25] CT
1 LJ
0.667 LW
N
805.6 307.5 M
805.21 307.703 L
S
GR
GS
[0.75 0 0 0.75 0 -0.25] CT
0 1 0 RC
1 LJ
0.667 LW
N
805.6 307.5 M
805.798 306.705 L
S
GR
GS
[0.75 0 0 0.75 692.51248 230.375] CT
0 0 1 RC
/Helvetica 13.333 F
GS
[1 0 0 1 0 0] CT
0 5.5 moveto 
1 -1 scale
(29) t 
GR
GR
GS
[0.75 0 0 0.75 691.82597 231.15377] CT
1 0 0 RC
/Helvetica 13.333 F
GS
[1 0 0 1 0 0] CT
0 5.5 moveto 
1 -1 scale
(29) t 
GR
GR
GS
[0.75 0 0 0.75 692.23911 230.66497] CT
/Helvetica 13.333 F
GS
[1 0 0 1 0 0] CT
0 5.5 moveto 
1 -1 scale
(29) t 
GR
GR
GS
[0.75 0 0 0.75 692.70497 230.20892] CT
0 1 0 RC
/Helvetica 13.333 F
GS
[1 0 0 1 0 0] CT
0 5.5 moveto 
1 -1 scale
(29) t 
GR
GR
GS
[0.75 0 0 0.75 0 -0.25] CT
1 0 0 RC
1 LJ
0.667 LW
N
899.8 307.5 M
898.885 308.538 L
S
GR
GS
[0.75 0 0 0.75 0 -0.25] CT
1 LJ
0.667 LW
N
899.8 307.5 M
899.435 307.887 L
S
GR
GS
[0.75 0 0 0.75 0 -0.25] CT
0 1 0 RC
1 LJ
0.667 LW
N
899.8 307.5 M
900.057 307.279 L
S
GR
GS
[0.75 0 0 0.75 763.16249 230.375] CT
0 0 1 RC
/Helvetica 13.333 F
GS
[1 0 0 1 0 0] CT
0 5.5 moveto 
1 -1 scale
(30) t 
GR
GR
GS
[0.75 0 0 0.75 762.10936 231.15611] CT
1 0 0 RC
/Helvetica 13.333 F
GS
[1 0 0 1 0 0] CT
0 5.5 moveto 
1 -1 scale
(30) t 
GR
GR
GS
[0.75 0 0 0.75 762.7435 230.72629] CT
/Helvetica 13.333 F
GS
[1 0 0 1 0 0] CT
0 5.5 moveto 
1 -1 scale
(30) t 
GR
GR
GS
[0.75 0 0 0.75 763.24718 230.63464] CT
0 1 0 RC
/Helvetica 13.333 F
GS
[1 0 0 1 0 0] CT
0 5.5 moveto 
1 -1 scale
(30) t 
GR
GR
GS
[0.75 0 0 0.75 0 -0.25] CT
1 0 0 RC
1 LJ
0.667 LW
N
994 307.5 M
992.596 308.541 L
S
GR
GS
[0.75 0 0 0.75 0 -0.25] CT
1 LJ
0.667 LW
N
994 307.5 M
993.441 307.968 L
S
GR
GS
[0.75 0 0 0.75 0 -0.25] CT
0 1 0 RC
1 LJ
0.667 LW
N
994 307.5 M
994.113 307.846 L
S
GR
GS
[0.75 0 0 0.75 833.8125 230.375] CT
0 0 1 RC
/Helvetica 13.333 F
GS
[1 0 0 1 0 0] CT
0 5.5 moveto 
1 -1 scale
(31) t 
GR
GR
GS
[0.75 0 0 0.75 832.39975 231.15844] CT
1 0 0 RC
/Helvetica 13.333 F
GS
[1 0 0 1 0 0] CT
0 5.5 moveto 
1 -1 scale
(31) t 
GR
GR
GS
[0.75 0 0 0.75 833.25586 230.71471] CT
/Helvetica 13.333 F
GS
[1 0 0 1 0 0] CT
0 5.5 moveto 
1 -1 scale
(31) t 
GR
GR
GS
[0.75 0 0 0.75 833.81149 231.06764] CT
0 1 0 RC
/Helvetica 13.333 F
GS
[1 0 0 1 0 0] CT
0 5.5 moveto 
1 -1 scale
(31) t 
GR
GR
GS
[0.75 0 0 0.75 0 -0.25] CT
1 0 0 RC
1 LJ
0.667 LW
N
1088.2 307.5 M
1086.316 308.545 L
S
GR
GS
[0.75 0 0 0.75 0 -0.25] CT
1 LJ
0.667 LW
N
1088.2 307.5 M
1087.458 307.953 L
S
GR
GS
[0.75 0 0 0.75 0 -0.25] CT
0 1 0 RC
1 LJ
0.667 LW
N
1088.2 307.5 M
1088.199 308.424 L
S
GR
GS
[0.75 0 0 0.75 904.46246 230.375] CT
0 0 1 RC
/Helvetica 13.333 F
GS
[1 0 0 1 0 0] CT
0 5.5 moveto 
1 -1 scale
(32) t 
GR
GR
GS
[0.75 0 0 0.75 902.67151 231.16077] CT
1 0 0 RC
/Helvetica 13.333 F
GS
[1 0 0 1 0 0] CT
0 5.5 moveto 
1 -1 scale
(32) t 
GR
GR
GS
[0.75 0 0 0.75 903.89145 230.62313] CT
/Helvetica 13.333 F
GS
[1 0 0 1 0 0] CT
0 5.5 moveto 
1 -1 scale
(32) t 
GR
GR
GS
[0.75 0 0 0.75 904.51273 231.49812] CT
0 1 0 RC
/Helvetica 13.333 F
GS
[1 0 0 1 0 0] CT
0 5.5 moveto 
1 -1 scale
(32) t 
GR
GR
GS
[0.75 0 0 0.75 0 -0.25] CT
1 0 0 RC
1 LJ
0.667 LW
N
1182.4 307.5 M
1180.012 308.548 L
S
GR
GS
[0.75 0 0 0.75 0 -0.25] CT
1 LJ
0.667 LW
N
1182.4 307.5 M
1181.639 307.831 L
S
GR
GS
[0.75 0 0 0.75 0 -0.25] CT
0 1 0 RC
1 LJ
0.667 LW
N
1182.4 307.5 M
1182.467 308.997 L
S
GR
GS
[0.75 0 0 0.75 975.11252 230.375] CT
0 0 1 RC
/Helvetica 13.333 F
GS
[1 0 0 1 0 0] CT
0 5.5 moveto 
1 -1 scale
(33) t 
GR
GR
GS
[0.75 0 0 0.75 972.95956 231.13981] CT
1 0 0 RC
/Helvetica 13.333 F
GS
[1 0 0 1 0 0] CT
0 5.5 moveto 
1 -1 scale
(33) t 
GR
GR
GS
[0.75 0 0 0.75 974.70181 230.5769] CT
/Helvetica 13.333 F
GS
[1 0 0 1 0 0] CT
0 5.5 moveto 
1 -1 scale
(33) t 
GR
GR
GS
[0.75 0 0 0.75 975.4021 232.05128] CT
0 1 0 RC
/Helvetica 13.333 F
GS
[1 0 0 1 0 0] CT
0 5.5 moveto 
1 -1 scale
(33) t 
GR
GR
GS
[0.75 0 0 0.75 0 -0.25] CT
1 0 0 RC
1 LJ
0.667 LW
N
1276.6 307.5 M
1273.729 308.52 L
S
GR
GS
[0.75 0 0 0.75 0 -0.25] CT
1 LJ
0.667 LW
N
1276.6 307.5 M
1276.052 307.769 L
S
GR
GS
[0.75 0 0 0.75 0 -0.25] CT
0 1 0 RC
1 LJ
0.667 LW
N
1276.6 307.5 M
1276.986 309.735 L
S
GR
GS
[0.75 0 0 0.75 1045.76248 230.375] CT
0 0 1 RC
/Helvetica 13.333 F
GS
[1 0 0 1 0 0] CT
0 5.5 moveto 
1 -1 scale
(34) t 
GR
GR
GS
[0.75 0 0 0.75 1042.51218 231.92323] CT
1 0 0 RC
/Helvetica 13.333 F
GS
[1 0 0 1 0 0] CT
0 5.5 moveto 
1 -1 scale
(34) t 
GR
GR
GS
[0.75 0 0 0.75 1045.36972 231.04375] CT
/Helvetica 13.333 F
GS
[1 0 0 1 0 0] CT
0 5.5 moveto 
1 -1 scale
(34) t 
GR
GR
GS
[0.75 0 0 0.75 1046.16394 233.19524] CT
0 1 0 RC
/Helvetica 13.333 F
GS
[1 0 0 1 0 0] CT
0 5.5 moveto 
1 -1 scale
(34) t 
GR
GR
GS
[0.75 0 0 0.75 0 -0.25] CT
1 0 0 RC
1 LJ
0.667 LW
N
1370.8 307.5 M
1366.466 309.564 L
S
GR
GS
[0.75 0 0 0.75 0 -0.25] CT
1 LJ
0.667 LW
N
1370.8 307.5 M
1370.276 308.392 L
S
GR
GS
[0.75 0 0 0.75 0 -0.25] CT
0 1 0 RC
1 LJ
0.667 LW
N
1370.8 307.5 M
1371.335 311.26 L
S
GR
GS
[0.75 0 0 0.75 551.21251 112.625] CT
0 0 1 RC
/Helvetica 13.333 F
GS
[1 0 0 1 0 0] CT
0 5.5 moveto 
1 -1 scale
(35) t 
GR
GR
GS
[0.75 0 0 0.75 551.45293 114.33644] CT
1 0 0 RC
/Helvetica 13.333 F
GS
[1 0 0 1 0 0] CT
0 5.5 moveto 
1 -1 scale
(35) t 
GR
GR
GS
[0.75 0 0 0.75 550.89061 112.21658] CT
/Helvetica 13.333 F
GS
[1 0 0 1 0 0] CT
0 5.5 moveto 
1 -1 scale
(35) t 
GR
GR
GS
[0.75 0 0 0.75 551.26414 110.21335] CT
0 1 0 RC
/Helvetica 13.333 F
GS
[1 0 0 1 0 0] CT
0 5.5 moveto 
1 -1 scale
(35) t 
GR
GR
GS
[0.75 0 0 0.75 0 -0.25] CT
1 0 0 RC
1 LJ
0.667 LW
N
711.4 150.5 M
711.721 152.782 L
S
GR
GS
[0.75 0 0 0.75 0 -0.25] CT
1 LJ
0.667 LW
N
711.4 150.5 M
710.971 149.955 L
S
GR
GS
[0.75 0 0 0.75 0 -0.25] CT
0 1 0 RC
1 LJ
0.667 LW
N
711.4 150.5 M
711.469 147.284 L
S
GR
GS
[0.75 0 0 0.75 621.86252 112.625] CT
0 0 1 RC
/Helvetica 13.333 F
GS
[1 0 0 1 0 0] CT
0 5.5 moveto 
1 -1 scale
(36) t 
GR
GR
GS
[0.75 0 0 0.75 621.01959 114.71185] CT
1 0 0 RC
/Helvetica 13.333 F
GS
[1 0 0 1 0 0] CT
0 5.5 moveto 
1 -1 scale
(36) t 
GR
GR
GS
[0.75 0 0 0.75 621.02486 113.06718] CT
/Helvetica 13.333 F
GS
[1 0 0 1 0 0] CT
0 5.5 moveto 
1 -1 scale
(36) t 
GR
GR
GS
[0.75 0 0 0.75 621.38118 111.34074] CT
0 1 0 RC
/Helvetica 13.333 F
GS
[1 0 0 1 0 0] CT
0 5.5 moveto 
1 -1 scale
(36) t 
GR
GR
GS
[0.75 0 0 0.75 0 -0.25] CT
1 0 0 RC
1 LJ
0.667 LW
N
805.6 150.5 M
804.476 153.282 L
S
GR
GS
[0.75 0 0 0.75 0 -0.25] CT
1 LJ
0.667 LW
N
805.6 150.5 M
804.483 151.09 L
S
GR
GS
[0.75 0 0 0.75 0 -0.25] CT
0 1 0 RC
1 LJ
0.667 LW
N
805.6 150.5 M
804.958 148.788 L
S
GR
GS
[0.75 0 0 0.75 692.51248 112.625] CT
0 0 1 RC
/Helvetica 13.333 F
GS
[1 0 0 1 0 0] CT
0 5.5 moveto 
1 -1 scale
(37) t 
GR
GR
GS
[0.75 0 0 0.75 691.33566 114.71185] CT
1 0 0 RC
/Helvetica 13.333 F
GS
[1 0 0 1 0 0] CT
0 5.5 moveto 
1 -1 scale
(37) t 
GR
GR
GS
[0.75 0 0 0.75 692.04941 113.2178] CT
/Helvetica 13.333 F
GS
[1 0 0 1 0 0] CT
0 5.5 moveto 
1 -1 scale
(37) t 
GR
GR
GS
[0.75 0 0 0.75 692.40459 111.8635] CT
0 1 0 RC
/Helvetica 13.333 F
GS
[1 0 0 1 0 0] CT
0 5.5 moveto 
1 -1 scale
(37) t 
GR
GR
GS
[0.75 0 0 0.75 0 -0.25] CT
1 0 0 RC
1 LJ
0.667 LW
N
899.8 150.5 M
898.231 153.282 L
S
GR
GS
[0.75 0 0 0.75 0 -0.25] CT
1 LJ
0.667 LW
N
899.8 150.5 M
899.183 151.29 L
S
GR
GS
[0.75 0 0 0.75 0 -0.25] CT
0 1 0 RC
1 LJ
0.667 LW
N
899.8 150.5 M
899.656 149.485 L
S
GR
GS
[0.75 0 0 0.75 763.16249 112.625] CT
0 0 1 RC
/Helvetica 13.333 F
GS
[1 0 0 1 0 0] CT
0 5.5 moveto 
1 -1 scale
(38) t 
GR
GR
GS
[0.75 0 0 0.75 761.6261 114.72119] CT
1 0 0 RC
/Helvetica 13.333 F
GS
[1 0 0 1 0 0] CT
0 5.5 moveto 
1 -1 scale
(38) t 
GR
GR
GS
[0.75 0 0 0.75 762.74817 113.33051] CT
/Helvetica 13.333 F
GS
[1 0 0 1 0 0] CT
0 5.5 moveto 
1 -1 scale
(38) t 
GR
GR
GS
[0.75 0 0 0.75 763.11859 112.44901] CT
0 1 0 RC
/Helvetica 13.333 F
GS
[1 0 0 1 0 0] CT
0 5.5 moveto 
1 -1 scale
(38) t 
GR
GR
GS
[0.75 0 0 0.75 0 -0.25] CT
1 0 0 RC
1 LJ
0.667 LW
N
994 150.5 M
991.951 153.295 L
S
GR
GS
[0.75 0 0 0.75 0 -0.25] CT
1 LJ
0.667 LW
N
994 150.5 M
993.448 151.441 L
S
GR
GS
[0.75 0 0 0.75 0 -0.25] CT
0 1 0 RC
1 LJ
0.667 LW
N
994 150.5 M
993.941 150.265 L
S
GR
GS
[0.75 0 0 0.75 833.8125 112.625] CT
0 0 1 RC
/Helvetica 13.333 F
GS
[1 0 0 1 0 0] CT
0 5.5 moveto 
1 -1 scale
(39) t 
GR
GR
GS
[0.75 0 0 0.75 831.90244 114.73051] CT
1 0 0 RC
/Helvetica 13.333 F
GS
[1 0 0 1 0 0] CT
0 5.5 moveto 
1 -1 scale
(39) t 
GR
GR
GS
[0.75 0 0 0.75 833.43045 113.3403] CT
/Helvetica 13.333 F
GS
[1 0 0 1 0 0] CT
0 5.5 moveto 
1 -1 scale
(39) t 
GR
GR
GS
[0.75 0 0 0.75 833.83319 113.03629] CT
0 1 0 RC
/Helvetica 13.333 F
GS
[1 0 0 1 0 0] CT
0 5.5 moveto 
1 -1 scale
(39) t 
GR
GR
GS
[0.75 0 0 0.75 0 -0.25] CT
1 0 0 RC
1 LJ
0.667 LW
N
1088.2 150.5 M
1085.653 153.307 L
S
GR
GS
[0.75 0 0 0.75 0 -0.25] CT
1 LJ
0.667 LW
N
1088.2 150.5 M
1087.691 151.454 L
S
GR
GS
[0.75 0 0 0.75 0 -0.25] CT
0 1 0 RC
1 LJ
0.667 LW
N
1088.2 150.5 M
1088.228 151.048 L
S
GR
GS
[0.75 0 0 0.75 904.46246 112.625] CT
0 0 1 RC
/Helvetica 13.333 F
GS
[1 0 0 1 0 0] CT
0 5.5 moveto 
1 -1 scale
(40) t 
GR
GR
GS
[0.75 0 0 0.75 902.16257 114.7375] CT
1 0 0 RC
/Helvetica 13.333 F
GS
[1 0 0 1 0 0] CT
0 5.5 moveto 
1 -1 scale
(40) t 
GR
GR
GS
[0.75 0 0 0.75 904.11859 113.18238] CT
/Helvetica 13.333 F
GS
[1 0 0 1 0 0] CT
0 5.5 moveto 
1 -1 scale
(40) t 
GR
GR
GS
[0.75 0 0 0.75 904.56857 113.54874] CT
0 1 0 RC
/Helvetica 13.333 F
GS
[1 0 0 1 0 0] CT
0 5.5 moveto 
1 -1 scale
(40) t 
GR
GR
GS
[0.75 0 0 0.75 0 -0.25] CT
1 0 0 RC
1 LJ
0.667 LW
N
1182.4 150.5 M
1179.333 153.317 L
S
GR
GS
[0.75 0 0 0.75 0 -0.25] CT
1 LJ
0.667 LW
N
1182.4 150.5 M
1181.942 151.243 L
S
GR
GS
[0.75 0 0 0.75 0 -0.25] CT
0 1 0 RC
1 LJ
0.667 LW
N
1182.4 150.5 M
1182.541 151.732 L
S
GR
GS
[0.75 0 0 0.75 975.11252 112.625] CT
0 0 1 RC
/Helvetica 13.333 F
GS
[1 0 0 1 0 0] CT
0 5.5 moveto 
1 -1 scale
(41) t 
GR
GR
GS
[0.75 0 0 0.75 971.6825 114.32946] CT
1 0 0 RC
/Helvetica 13.333 F
GS
[1 0 0 1 0 0] CT
0 5.5 moveto 
1 -1 scale
(41) t 
GR
GR
GS
[0.75 0 0 0.75 974.35153 112.48719] CT
/Helvetica 13.333 F
GS
[1 0 0 1 0 0] CT
0 5.5 moveto 
1 -1 scale
(41) t 
GR
GR
GS
[0.75 0 0 0.75 974.86487 113.62589] CT
0 1 0 RC
/Helvetica 13.333 F
GS
[1 0 0 1 0 0] CT
0 5.5 moveto 
1 -1 scale
(41) t 
GR
GR
GS
[0.75 0 0 0.75 0 -0.25] CT
1 0 0 RC
1 LJ
0.667 LW
N
1276.6 150.5 M
1272.027 152.773 L
S
GR
GS
[0.75 0 0 0.75 0 -0.25] CT
1 LJ
0.667 LW
N
1276.6 150.5 M
1275.585 150.316 L
S
GR
GS
[0.75 0 0 0.75 0 -0.25] CT
0 1 0 RC
1 LJ
0.667 LW
N
1276.6 150.5 M
1276.27 151.835 L
S
GR
GS
[0.75 0 0 0.75 0 -0.25] CT
1 GC
N
1153 155 M
1153 85 L
1373 85 L
1373 155 L
cp
f
GR
GS
[0.75 0 0 0.75 892.5 71.05396] CT
/Helvetica 12 F
GS
[1 0 0 1 0 0] CT
0 5 moveto 
1 -1 scale
(Original measured points) t 
GR
GR
GS
[0.75 0 0 0.75 0 -0.25] CT
0 0 1 RC
1 LJ
N
1167 95.5 M
1176 95.5 L
S
GR
GS
[0.75 0 0 0.75 0 -0.25] CT
0 0 1 RC
1 LJ
N
1171.5 100 M
1171.5 91 L
S
GR
GS
[0.75 0 0 0.75 0 -0.25] CT
0 0 1 RC
1 LJ
N
1168 99 M
1175 92 L
S
GR
GS
[0.75 0 0 0.75 0 -0.25] CT
0 0 1 RC
1 LJ
N
1168 92 M
1175 99 L
S
GR
GS
[0.75 0 0 0.75 892.5 83.51799] CT
/Helvetica 12 F
GS
[1 0 0 1 0 0] CT
0 5 moveto 
1 -1 scale
(Points measured from plate) t 
GR
GR
GS
[0.75 0 0 0.75 0 -0.25] CT
1 0 0 RC
1 LJ
N
1175.5 111.5 M
1174.736 109.149 L
1172.736 107.696 L
1170.264 107.696 L
1168.264 109.149 L
1167.5 111.5 L
1168.264 113.851 L
1170.264 115.304 L
1172.736 115.304 L
1174.736 113.851 L
cp
S
GR
GS
[0.75 0 0 0.75 892.5 95.98202] CT
/Helvetica 12 F
GS
[1 0 0 1 0 0] CT
0 5 moveto 
1 -1 scale
(Plate Constant Model Adjustment) t 
GR
GR
GS
[0.75 0 0 0.75 0 -0.25] CT
10.0 ML
N
1168.38 131.62 M
1168.38 125.38 L
1174.62 125.38 L
1174.62 131.62 L
cp
S
GR
GS
[0.75 0 0 0.75 892.5 108.44604] CT
/Helvetica 12 F
GS
[1 0 0 1 0 0] CT
0 5 moveto 
1 -1 scale
(Zernike Adjustment) t 
GR
GR
GS
[0.75 0 0 0.75 0 -0.25] CT
0 1 0 RC
10.0 ML
N
1168.38 147.62 M
1168.38 141.38 L
1174.62 141.38 L
1174.62 147.62 L
cp
S
GR
GS
[0.75 0 0 0.75 0 -0.25] CT
0.149 GC
10.0 ML
0.667 LW
N
1153 155 M
1153 85 L
1373 85 L
1373 155 L
cp
S
GR
%%Trailer
%%Pages: 1
%%EOF
