%!PS-Adobe-3.0 EPSF-3.0
%%Creator: (MATLAB, The Mathworks, Inc. Version 9.0.0.341360 \(R2016a\). Operating System: Windows 8)
%%Title: C:/Users/fenix/Documents/MatlabScripts/GitSpherical3/Spherical/results/cristal/medidasRotada.eps
%%CreationDate: 2017-02-17T11:12:41
%%Pages: (atend)
%%BoundingBox: 0 0 1440 722
%%LanguageLevel: 3
%%EndComments
%%BeginProlog
%%BeginResource: procset (Apache XML Graphics Std ProcSet) 1.2 0
%%Version: 1.2 0
%%Copyright: (Copyright 2001-2003,2010 The Apache Software Foundation. License terms: http://www.apache.org/licenses/LICENSE-2.0)
/bd{bind def}bind def
/ld{load def}bd
/GR/grestore ld
/M/moveto ld
/LJ/setlinejoin ld
/C/curveto ld
/f/fill ld
/LW/setlinewidth ld
/GC/setgray ld
/t/show ld
/N/newpath ld
/CT/concat ld
/cp/closepath ld
/S/stroke ld
/L/lineto ld
/CC/setcmykcolor ld
/A/ashow ld
/GS/gsave ld
/RC/setrgbcolor ld
/RM/rmoveto ld
/ML/setmiterlimit ld
/re {4 2 roll M
1 index 0 rlineto
0 exch rlineto
neg 0 rlineto
cp } bd
/_ctm matrix def
/_tm matrix def
/BT { _ctm currentmatrix pop matrix _tm copy pop 0 0 moveto } bd
/ET { _ctm setmatrix } bd
/iTm { _ctm setmatrix _tm concat } bd
/Tm { _tm astore pop iTm 0 0 moveto } bd
/ux 0.0 def
/uy 0.0 def
/F {
  /Tp exch def
  /Tf exch def
  Tf findfont Tp scalefont setfont
  /cf Tf def  /cs Tp def
} bd
/ULS {currentpoint /uy exch def /ux exch def} bd
/ULE {
  /Tcx currentpoint pop def
  gsave
  newpath
  cf findfont cs scalefont dup
  /FontMatrix get 0 get /Ts exch def /FontInfo get dup
  /UnderlinePosition get Ts mul /To exch def
  /UnderlineThickness get Ts mul /Tt exch def
  ux uy To add moveto  Tcx uy To add lineto
  Tt setlinewidth stroke
  grestore
} bd
/OLE {
  /Tcx currentpoint pop def
  gsave
  newpath
  cf findfont cs scalefont dup
  /FontMatrix get 0 get /Ts exch def /FontInfo get dup
  /UnderlinePosition get Ts mul /To exch def
  /UnderlineThickness get Ts mul /Tt exch def
  ux uy To add cs add moveto Tcx uy To add cs add lineto
  Tt setlinewidth stroke
  grestore
} bd
/SOE {
  /Tcx currentpoint pop def
  gsave
  newpath
  cf findfont cs scalefont dup
  /FontMatrix get 0 get /Ts exch def /FontInfo get dup
  /UnderlinePosition get Ts mul /To exch def
  /UnderlineThickness get Ts mul /Tt exch def
  ux uy To add cs 10 mul 26 idiv add moveto Tcx uy To add cs 10 mul 26 idiv add lineto
  Tt setlinewidth stroke
  grestore
} bd
/QT {
/Y22 exch store
/X22 exch store
/Y21 exch store
/X21 exch store
currentpoint
/Y21 load 2 mul add 3 div exch
/X21 load 2 mul add 3 div exch
/X21 load 2 mul /X22 load add 3 div
/Y21 load 2 mul /Y22 load add 3 div
/X22 load /Y22 load curveto
} bd
/SSPD {
dup length /d exch dict def
{
/v exch def
/k exch def
currentpagedevice k known {
/cpdv currentpagedevice k get def
v cpdv ne {
/upd false def
/nullv v type /nulltype eq def
/nullcpdv cpdv type /nulltype eq def
nullv nullcpdv or
{
/upd true def
} {
/sametype v type cpdv type eq def
sametype {
v type /arraytype eq {
/vlen v length def
/cpdvlen cpdv length def
vlen cpdvlen eq {
0 1 vlen 1 sub {
/i exch def
/obj v i get def
/cpdobj cpdv i get def
obj cpdobj ne {
/upd true def
exit
} if
} for
} {
/upd true def
} ifelse
} {
v type /dicttype eq {
v {
/dv exch def
/dk exch def
/cpddv cpdv dk get def
dv cpddv ne {
/upd true def
exit
} if
} forall
} {
/upd true def
} ifelse
} ifelse
} if
} ifelse
upd true eq {
d k v put
} if
} if
} if
} forall
d length 0 gt {
d setpagedevice
} if
} bd
%%EndResource
%%BeginResource: procset (Apache XML Graphics EPS ProcSet) 1.0 0
%%Version: 1.0 0
%%Copyright: (Copyright 2002-2003 The Apache Software Foundation. License terms: http://www.apache.org/licenses/LICENSE-2.0)
/BeginEPSF { %def
/b4_Inc_state save def         % Save state for cleanup
/dict_count countdictstack def % Count objects on dict stack
/op_count count 1 sub def      % Count objects on operand stack
userdict begin                 % Push userdict on dict stack
/showpage { } def              % Redefine showpage, { } = null proc
0 setgray 0 setlinecap         % Prepare graphics state
1 setlinewidth 0 setlinejoin
10 setmiterlimit [ ] 0 setdash newpath
/languagelevel where           % If level not equal to 1 then
{pop languagelevel             % set strokeadjust and
1 ne                           % overprint to their defaults.
{false setstrokeadjust false setoverprint
} if
} if
} bd
/EndEPSF { %def
count op_count sub {pop} repeat            % Clean up stacks
countdictstack dict_count sub {end} repeat
b4_Inc_state restore
} bd
%%EndResource
%FOPBeginFontDict
%%IncludeResource: font Courier-Bold
%%IncludeResource: font Helvetica
%%IncludeResource: font Courier-BoldOblique
%%IncludeResource: font Courier-Oblique
%%IncludeResource: font Times-Roman
%%IncludeResource: font Helvetica-BoldOblique
%%IncludeResource: font Helvetica-Bold
%%IncludeResource: font Helvetica-Oblique
%%IncludeResource: font Times-BoldItalic
%%IncludeResource: font Courier
%%IncludeResource: font Times-Italic
%%IncludeResource: font Times-Bold
%%IncludeResource: font Symbol
%%IncludeResource: font ZapfDingbats
%FOPEndFontDict
%%BeginResource: encoding WinAnsiEncoding
/WinAnsiEncoding [
/.notdef /.notdef /.notdef /.notdef /.notdef
/.notdef /.notdef /.notdef /.notdef /.notdef
/.notdef /.notdef /.notdef /.notdef /.notdef
/.notdef /.notdef /.notdef /.notdef /.notdef
/.notdef /.notdef /.notdef /.notdef /.notdef
/.notdef /.notdef /.notdef /.notdef /.notdef
/.notdef /.notdef /space /exclam /quotedbl
/numbersign /dollar /percent /ampersand /quotesingle
/parenleft /parenright /asterisk /plus /comma
/hyphen /period /slash /zero /one
/two /three /four /five /six
/seven /eight /nine /colon /semicolon
/less /equal /greater /question /at
/A /B /C /D /E
/F /G /H /I /J
/K /L /M /N /O
/P /Q /R /S /T
/U /V /W /X /Y
/Z /bracketleft /backslash /bracketright /asciicircum
/underscore /quoteleft /a /b /c
/d /e /f /g /h
/i /j /k /l /m
/n /o /p /q /r
/s /t /u /v /w
/x /y /z /braceleft /bar
/braceright /asciitilde /bullet /Euro /bullet
/quotesinglbase /florin /quotedblbase /ellipsis /dagger
/daggerdbl /circumflex /perthousand /Scaron /guilsinglleft
/OE /bullet /Zcaron /bullet /bullet
/quoteleft /quoteright /quotedblleft /quotedblright /bullet
/endash /emdash /asciitilde /trademark /scaron
/guilsinglright /oe /bullet /zcaron /Ydieresis
/space /exclamdown /cent /sterling /currency
/yen /brokenbar /section /dieresis /copyright
/ordfeminine /guillemotleft /logicalnot /sfthyphen /registered
/macron /degree /plusminus /twosuperior /threesuperior
/acute /mu /paragraph /middot /cedilla
/onesuperior /ordmasculine /guillemotright /onequarter /onehalf
/threequarters /questiondown /Agrave /Aacute /Acircumflex
/Atilde /Adieresis /Aring /AE /Ccedilla
/Egrave /Eacute /Ecircumflex /Edieresis /Igrave
/Iacute /Icircumflex /Idieresis /Eth /Ntilde
/Ograve /Oacute /Ocircumflex /Otilde /Odieresis
/multiply /Oslash /Ugrave /Uacute /Ucircumflex
/Udieresis /Yacute /Thorn /germandbls /agrave
/aacute /acircumflex /atilde /adieresis /aring
/ae /ccedilla /egrave /eacute /ecircumflex
/edieresis /igrave /iacute /icircumflex /idieresis
/eth /ntilde /ograve /oacute /ocircumflex
/otilde /odieresis /divide /oslash /ugrave
/uacute /ucircumflex /udieresis /yacute /thorn
/ydieresis
] def
%%EndResource
%FOPBeginFontReencode
/Courier-Bold findfont
dup length dict begin
  {1 index /FID ne {def} {pop pop} ifelse} forall
  /Encoding WinAnsiEncoding def
  currentdict
end
/Courier-Bold exch definefont pop
/Helvetica findfont
dup length dict begin
  {1 index /FID ne {def} {pop pop} ifelse} forall
  /Encoding WinAnsiEncoding def
  currentdict
end
/Helvetica exch definefont pop
/Courier-BoldOblique findfont
dup length dict begin
  {1 index /FID ne {def} {pop pop} ifelse} forall
  /Encoding WinAnsiEncoding def
  currentdict
end
/Courier-BoldOblique exch definefont pop
/Courier-Oblique findfont
dup length dict begin
  {1 index /FID ne {def} {pop pop} ifelse} forall
  /Encoding WinAnsiEncoding def
  currentdict
end
/Courier-Oblique exch definefont pop
/Times-Roman findfont
dup length dict begin
  {1 index /FID ne {def} {pop pop} ifelse} forall
  /Encoding WinAnsiEncoding def
  currentdict
end
/Times-Roman exch definefont pop
/Helvetica-BoldOblique findfont
dup length dict begin
  {1 index /FID ne {def} {pop pop} ifelse} forall
  /Encoding WinAnsiEncoding def
  currentdict
end
/Helvetica-BoldOblique exch definefont pop
/Helvetica-Bold findfont
dup length dict begin
  {1 index /FID ne {def} {pop pop} ifelse} forall
  /Encoding WinAnsiEncoding def
  currentdict
end
/Helvetica-Bold exch definefont pop
/Helvetica-Oblique findfont
dup length dict begin
  {1 index /FID ne {def} {pop pop} ifelse} forall
  /Encoding WinAnsiEncoding def
  currentdict
end
/Helvetica-Oblique exch definefont pop
/Times-BoldItalic findfont
dup length dict begin
  {1 index /FID ne {def} {pop pop} ifelse} forall
  /Encoding WinAnsiEncoding def
  currentdict
end
/Times-BoldItalic exch definefont pop
/Courier findfont
dup length dict begin
  {1 index /FID ne {def} {pop pop} ifelse} forall
  /Encoding WinAnsiEncoding def
  currentdict
end
/Courier exch definefont pop
/Times-Italic findfont
dup length dict begin
  {1 index /FID ne {def} {pop pop} ifelse} forall
  /Encoding WinAnsiEncoding def
  currentdict
end
/Times-Italic exch definefont pop
/Times-Bold findfont
dup length dict begin
  {1 index /FID ne {def} {pop pop} ifelse} forall
  /Encoding WinAnsiEncoding def
  currentdict
end
/Times-Bold exch definefont pop
%FOPEndFontReencode
%%EndProlog
%%Page: 1 1
%%PageBoundingBox: 0 0 1440 722
%%BeginPageSetup
[1 0 0 -1 0 722] CT
%%EndPageSetup
GS
[0.75 0 0 0.75 0 -0.25] CT
1 GC
N
0 0 1920 963 re
f
GR
GS
[0.75 0 0 0.75 0 -0.25] CT
1 GC
N
0 0 1920 963 re
f
GR
GS
[0.75 0 0 0.75 0 -0.25] CT
1 GC
N
601.5 857 M
1386.5 857 L
1386.5 72 L
601.5 72 L
cp
f
GR
GS
[0.75 0 0 0.75 0 -0.25] CT
0.775 GC
[1 3] 0 setdash
2 LJ
0.667 LW
N
617.2 857 M
617.2 72 L
S
GR
GS
[0.75 0 0 0.75 0 -0.25] CT
0.775 GC
[1 3] 0 setdash
2 LJ
0.667 LW
N
632.9 857 M
632.9 72 L
S
GR
GS
[0.75 0 0 0.75 0 -0.25] CT
0.775 GC
[1 3] 0 setdash
2 LJ
0.667 LW
N
648.6 857 M
648.6 72 L
S
GR
GS
[0.75 0 0 0.75 0 -0.25] CT
0.775 GC
[1 3] 0 setdash
2 LJ
0.667 LW
N
664.3 857 M
664.3 72 L
S
GR
GS
[0.75 0 0 0.75 0 -0.25] CT
0.775 GC
[1 3] 0 setdash
2 LJ
0.667 LW
N
695.7 857 M
695.7 72 L
S
GR
GS
[0.75 0 0 0.75 0 -0.25] CT
0.775 GC
[1 3] 0 setdash
2 LJ
0.667 LW
N
711.4 857 M
711.4 72 L
S
GR
GS
[0.75 0 0 0.75 0 -0.25] CT
0.775 GC
[1 3] 0 setdash
2 LJ
0.667 LW
N
727.1 857 M
727.1 72 L
S
GR
GS
[0.75 0 0 0.75 0 -0.25] CT
0.775 GC
[1 3] 0 setdash
2 LJ
0.667 LW
N
742.8 857 M
742.8 72 L
S
GR
GS
[0.75 0 0 0.75 0 -0.25] CT
0.775 GC
[1 3] 0 setdash
2 LJ
0.667 LW
N
774.2 857 M
774.2 72 L
S
GR
GS
[0.75 0 0 0.75 0 -0.25] CT
0.775 GC
[1 3] 0 setdash
2 LJ
0.667 LW
N
789.9 857 M
789.9 72 L
S
GR
GS
[0.75 0 0 0.75 0 -0.25] CT
0.775 GC
[1 3] 0 setdash
2 LJ
0.667 LW
N
805.6 857 M
805.6 72 L
S
GR
GS
[0.75 0 0 0.75 0 -0.25] CT
0.775 GC
[1 3] 0 setdash
2 LJ
0.667 LW
N
821.3 857 M
821.3 72 L
S
GR
GS
[0.75 0 0 0.75 0 -0.25] CT
0.775 GC
[1 3] 0 setdash
2 LJ
0.667 LW
N
852.7 857 M
852.7 72 L
S
GR
GS
[0.75 0 0 0.75 0 -0.25] CT
0.775 GC
[1 3] 0 setdash
2 LJ
0.667 LW
N
868.4 857 M
868.4 72 L
S
GR
GS
[0.75 0 0 0.75 0 -0.25] CT
0.775 GC
[1 3] 0 setdash
2 LJ
0.667 LW
N
884.1 857 M
884.1 72 L
S
GR
GS
[0.75 0 0 0.75 0 -0.25] CT
0.775 GC
[1 3] 0 setdash
2 LJ
0.667 LW
N
899.8 857 M
899.8 72 L
S
GR
GS
[0.75 0 0 0.75 0 -0.25] CT
0.775 GC
[1 3] 0 setdash
2 LJ
0.667 LW
N
931.2 857 M
931.2 72 L
S
GR
GS
[0.75 0 0 0.75 0 -0.25] CT
0.775 GC
[1 3] 0 setdash
2 LJ
0.667 LW
N
946.9 857 M
946.9 72 L
S
GR
GS
[0.75 0 0 0.75 0 -0.25] CT
0.775 GC
[1 3] 0 setdash
2 LJ
0.667 LW
N
962.6 857 M
962.6 72 L
S
GR
GS
[0.75 0 0 0.75 0 -0.25] CT
0.775 GC
[1 3] 0 setdash
2 LJ
0.667 LW
N
978.3 857 M
978.3 72 L
S
GR
GS
[0.75 0 0 0.75 0 -0.25] CT
0.775 GC
[1 3] 0 setdash
2 LJ
0.667 LW
N
1009.7 857 M
1009.7 72 L
S
GR
GS
[0.75 0 0 0.75 0 -0.25] CT
0.775 GC
[1 3] 0 setdash
2 LJ
0.667 LW
N
1025.4 857 M
1025.4 72 L
S
GR
GS
[0.75 0 0 0.75 0 -0.25] CT
0.775 GC
[1 3] 0 setdash
2 LJ
0.667 LW
N
1041.1 857 M
1041.1 72 L
S
GR
GS
[0.75 0 0 0.75 0 -0.25] CT
0.775 GC
[1 3] 0 setdash
2 LJ
0.667 LW
N
1056.8 857 M
1056.8 72 L
S
GR
GS
[0.75 0 0 0.75 0 -0.25] CT
0.775 GC
[1 3] 0 setdash
2 LJ
0.667 LW
N
1088.2 857 M
1088.2 72 L
S
GR
GS
[0.75 0 0 0.75 0 -0.25] CT
0.775 GC
[1 3] 0 setdash
2 LJ
0.667 LW
N
1103.9 857 M
1103.9 72 L
S
GR
GS
[0.75 0 0 0.75 0 -0.25] CT
0.775 GC
[1 3] 0 setdash
2 LJ
0.667 LW
N
1119.6 857 M
1119.6 72 L
S
GR
GS
[0.75 0 0 0.75 0 -0.25] CT
0.775 GC
[1 3] 0 setdash
2 LJ
0.667 LW
N
1135.3 857 M
1135.3 72 L
S
GR
GS
[0.75 0 0 0.75 0 -0.25] CT
0.775 GC
[1 3] 0 setdash
2 LJ
0.667 LW
N
1166.7 857 M
1166.7 72 L
S
GR
GS
[0.75 0 0 0.75 0 -0.25] CT
0.775 GC
[1 3] 0 setdash
2 LJ
0.667 LW
N
1182.4 857 M
1182.4 72 L
S
GR
GS
[0.75 0 0 0.75 0 -0.25] CT
0.775 GC
[1 3] 0 setdash
2 LJ
0.667 LW
N
1198.1 857 M
1198.1 72 L
S
GR
GS
[0.75 0 0 0.75 0 -0.25] CT
0.775 GC
[1 3] 0 setdash
2 LJ
0.667 LW
N
1213.8 857 M
1213.8 72 L
S
GR
GS
[0.75 0 0 0.75 0 -0.25] CT
0.775 GC
[1 3] 0 setdash
2 LJ
0.667 LW
N
1245.2 857 M
1245.2 72 L
S
GR
GS
[0.75 0 0 0.75 0 -0.25] CT
0.775 GC
[1 3] 0 setdash
2 LJ
0.667 LW
N
1260.9 857 M
1260.9 72 L
S
GR
GS
[0.75 0 0 0.75 0 -0.25] CT
0.775 GC
[1 3] 0 setdash
2 LJ
0.667 LW
N
1276.6 857 M
1276.6 72 L
S
GR
GS
[0.75 0 0 0.75 0 -0.25] CT
0.775 GC
[1 3] 0 setdash
2 LJ
0.667 LW
N
1292.3 857 M
1292.3 72 L
S
GR
GS
[0.75 0 0 0.75 0 -0.25] CT
0.775 GC
[1 3] 0 setdash
2 LJ
0.667 LW
N
1323.7 857 M
1323.7 72 L
S
GR
GS
[0.75 0 0 0.75 0 -0.25] CT
0.775 GC
[1 3] 0 setdash
2 LJ
0.667 LW
N
1339.4 857 M
1339.4 72 L
S
GR
GS
[0.75 0 0 0.75 0 -0.25] CT
0.775 GC
[1 3] 0 setdash
2 LJ
0.667 LW
N
1355.1 857 M
1355.1 72 L
S
GR
GS
[0.75 0 0 0.75 0 -0.25] CT
0.775 GC
[1 3] 0 setdash
2 LJ
0.667 LW
N
1370.8 857 M
1370.8 72 L
S
GR
GS
[0.75 0 0 0.75 0 -0.25] CT
0.873 GC
1 LJ
0.667 LW
N
601.5 857 M
601.5 72 L
S
GR
GS
[0.75 0 0 0.75 0 -0.25] CT
0.873 GC
1 LJ
0.667 LW
N
680 857 M
680 72 L
S
GR
GS
[0.75 0 0 0.75 0 -0.25] CT
0.873 GC
1 LJ
0.667 LW
N
758.5 857 M
758.5 72 L
S
GR
GS
[0.75 0 0 0.75 0 -0.25] CT
0.873 GC
1 LJ
0.667 LW
N
837 857 M
837 72 L
S
GR
GS
[0.75 0 0 0.75 0 -0.25] CT
0.873 GC
1 LJ
0.667 LW
N
915.5 857 M
915.5 72 L
S
GR
GS
[0.75 0 0 0.75 0 -0.25] CT
0.873 GC
1 LJ
0.667 LW
N
994 857 M
994 72 L
S
GR
GS
[0.75 0 0 0.75 0 -0.25] CT
0.873 GC
1 LJ
0.667 LW
N
1072.5 857 M
1072.5 72 L
S
GR
GS
[0.75 0 0 0.75 0 -0.25] CT
0.873 GC
1 LJ
0.667 LW
N
1151 857 M
1151 72 L
S
GR
GS
[0.75 0 0 0.75 0 -0.25] CT
0.873 GC
1 LJ
0.667 LW
N
1229.5 857 M
1229.5 72 L
S
GR
GS
[0.75 0 0 0.75 0 -0.25] CT
0.873 GC
1 LJ
0.667 LW
N
1308 857 M
1308 72 L
S
GR
GS
[0.75 0 0 0.75 0 -0.25] CT
0.873 GC
1 LJ
0.667 LW
N
1386.5 857 M
1386.5 72 L
S
GR
GS
[0.75 0 0 0.75 0 -0.25] CT
0.775 GC
[1 3] 0 setdash
2 LJ
0.667 LW
N
1386.5 841.3 M
601.5 841.3 L
S
GR
GS
[0.75 0 0 0.75 0 -0.25] CT
0.775 GC
[1 3] 0 setdash
2 LJ
0.667 LW
N
1386.5 825.6 M
601.5 825.6 L
S
GR
GS
[0.75 0 0 0.75 0 -0.25] CT
0.775 GC
[1 3] 0 setdash
2 LJ
0.667 LW
N
1386.5 809.9 M
601.5 809.9 L
S
GR
GS
[0.75 0 0 0.75 0 -0.25] CT
0.775 GC
[1 3] 0 setdash
2 LJ
0.667 LW
N
1386.5 794.2 M
601.5 794.2 L
S
GR
GS
[0.75 0 0 0.75 0 -0.25] CT
0.775 GC
[1 3] 0 setdash
2 LJ
0.667 LW
N
1386.5 762.8 M
601.5 762.8 L
S
GR
GS
[0.75 0 0 0.75 0 -0.25] CT
0.775 GC
[1 3] 0 setdash
2 LJ
0.667 LW
N
1386.5 747.1 M
601.5 747.1 L
S
GR
GS
[0.75 0 0 0.75 0 -0.25] CT
0.775 GC
[1 3] 0 setdash
2 LJ
0.667 LW
N
1386.5 731.4 M
601.5 731.4 L
S
GR
GS
[0.75 0 0 0.75 0 -0.25] CT
0.775 GC
[1 3] 0 setdash
2 LJ
0.667 LW
N
1386.5 715.7 M
601.5 715.7 L
S
GR
GS
[0.75 0 0 0.75 0 -0.25] CT
0.775 GC
[1 3] 0 setdash
2 LJ
0.667 LW
N
1386.5 684.3 M
601.5 684.3 L
S
GR
GS
[0.75 0 0 0.75 0 -0.25] CT
0.775 GC
[1 3] 0 setdash
2 LJ
0.667 LW
N
1386.5 668.6 M
601.5 668.6 L
S
GR
GS
[0.75 0 0 0.75 0 -0.25] CT
0.775 GC
[1 3] 0 setdash
2 LJ
0.667 LW
N
1386.5 652.9 M
601.5 652.9 L
S
GR
GS
[0.75 0 0 0.75 0 -0.25] CT
0.775 GC
[1 3] 0 setdash
2 LJ
0.667 LW
N
1386.5 637.2 M
601.5 637.2 L
S
GR
GS
[0.75 0 0 0.75 0 -0.25] CT
0.775 GC
[1 3] 0 setdash
2 LJ
0.667 LW
N
1386.5 605.8 M
601.5 605.8 L
S
GR
GS
[0.75 0 0 0.75 0 -0.25] CT
0.775 GC
[1 3] 0 setdash
2 LJ
0.667 LW
N
1386.5 590.1 M
601.5 590.1 L
S
GR
GS
[0.75 0 0 0.75 0 -0.25] CT
0.775 GC
[1 3] 0 setdash
2 LJ
0.667 LW
N
1386.5 574.4 M
601.5 574.4 L
S
GR
GS
[0.75 0 0 0.75 0 -0.25] CT
0.775 GC
[1 3] 0 setdash
2 LJ
0.667 LW
N
1386.5 558.7 M
601.5 558.7 L
S
GR
GS
[0.75 0 0 0.75 0 -0.25] CT
0.775 GC
[1 3] 0 setdash
2 LJ
0.667 LW
N
1386.5 527.3 M
601.5 527.3 L
S
GR
GS
[0.75 0 0 0.75 0 -0.25] CT
0.775 GC
[1 3] 0 setdash
2 LJ
0.667 LW
N
1386.5 511.6 M
601.5 511.6 L
S
GR
GS
[0.75 0 0 0.75 0 -0.25] CT
0.775 GC
[1 3] 0 setdash
2 LJ
0.667 LW
N
1386.5 495.9 M
601.5 495.9 L
S
GR
GS
[0.75 0 0 0.75 0 -0.25] CT
0.775 GC
[1 3] 0 setdash
2 LJ
0.667 LW
N
1386.5 480.2 M
601.5 480.2 L
S
GR
GS
[0.75 0 0 0.75 0 -0.25] CT
0.775 GC
[1 3] 0 setdash
2 LJ
0.667 LW
N
1386.5 448.8 M
601.5 448.8 L
S
GR
GS
[0.75 0 0 0.75 0 -0.25] CT
0.775 GC
[1 3] 0 setdash
2 LJ
0.667 LW
N
1386.5 433.1 M
601.5 433.1 L
S
GR
GS
[0.75 0 0 0.75 0 -0.25] CT
0.775 GC
[1 3] 0 setdash
2 LJ
0.667 LW
N
1386.5 417.4 M
601.5 417.4 L
S
GR
GS
[0.75 0 0 0.75 0 -0.25] CT
0.775 GC
[1 3] 0 setdash
2 LJ
0.667 LW
N
1386.5 401.7 M
601.5 401.7 L
S
GR
GS
[0.75 0 0 0.75 0 -0.25] CT
0.775 GC
[1 3] 0 setdash
2 LJ
0.667 LW
N
1386.5 370.3 M
601.5 370.3 L
S
GR
GS
[0.75 0 0 0.75 0 -0.25] CT
0.775 GC
[1 3] 0 setdash
2 LJ
0.667 LW
N
1386.5 354.6 M
601.5 354.6 L
S
GR
GS
[0.75 0 0 0.75 0 -0.25] CT
0.775 GC
[1 3] 0 setdash
2 LJ
0.667 LW
N
1386.5 338.9 M
601.5 338.9 L
S
GR
GS
[0.75 0 0 0.75 0 -0.25] CT
0.775 GC
[1 3] 0 setdash
2 LJ
0.667 LW
N
1386.5 323.2 M
601.5 323.2 L
S
GR
GS
[0.75 0 0 0.75 0 -0.25] CT
0.775 GC
[1 3] 0 setdash
2 LJ
0.667 LW
N
1386.5 291.8 M
601.5 291.8 L
S
GR
GS
[0.75 0 0 0.75 0 -0.25] CT
0.775 GC
[1 3] 0 setdash
2 LJ
0.667 LW
N
1386.5 276.1 M
601.5 276.1 L
S
GR
GS
[0.75 0 0 0.75 0 -0.25] CT
0.775 GC
[1 3] 0 setdash
2 LJ
0.667 LW
N
1386.5 260.4 M
601.5 260.4 L
S
GR
GS
[0.75 0 0 0.75 0 -0.25] CT
0.775 GC
[1 3] 0 setdash
2 LJ
0.667 LW
N
1386.5 244.7 M
601.5 244.7 L
S
GR
GS
[0.75 0 0 0.75 0 -0.25] CT
0.775 GC
[1 3] 0 setdash
2 LJ
0.667 LW
N
1386.5 213.3 M
601.5 213.3 L
S
GR
GS
[0.75 0 0 0.75 0 -0.25] CT
0.775 GC
[1 3] 0 setdash
2 LJ
0.667 LW
N
1386.5 197.6 M
601.5 197.6 L
S
GR
GS
[0.75 0 0 0.75 0 -0.25] CT
0.775 GC
[1 3] 0 setdash
2 LJ
0.667 LW
N
1386.5 181.9 M
601.5 181.9 L
S
GR
GS
[0.75 0 0 0.75 0 -0.25] CT
0.775 GC
[1 3] 0 setdash
2 LJ
0.667 LW
N
1386.5 166.2 M
601.5 166.2 L
S
GR
GS
[0.75 0 0 0.75 0 -0.25] CT
0.775 GC
[1 3] 0 setdash
2 LJ
0.667 LW
N
1386.5 134.8 M
601.5 134.8 L
S
GR
GS
[0.75 0 0 0.75 0 -0.25] CT
0.775 GC
[1 3] 0 setdash
2 LJ
0.667 LW
N
1386.5 119.1 M
601.5 119.1 L
S
GR
GS
[0.75 0 0 0.75 0 -0.25] CT
0.775 GC
[1 3] 0 setdash
2 LJ
0.667 LW
N
1386.5 103.4 M
601.5 103.4 L
S
GR
GS
[0.75 0 0 0.75 0 -0.25] CT
0.775 GC
[1 3] 0 setdash
2 LJ
0.667 LW
N
1386.5 87.7 M
601.5 87.7 L
S
GR
GS
[0.75 0 0 0.75 0 -0.25] CT
0.873 GC
1 LJ
0.667 LW
N
1386.5 857 M
601.5 857 L
S
GR
GS
[0.75 0 0 0.75 0 -0.25] CT
0.873 GC
1 LJ
0.667 LW
N
1386.5 778.5 M
601.5 778.5 L
S
GR
GS
[0.75 0 0 0.75 0 -0.25] CT
0.873 GC
1 LJ
0.667 LW
N
1386.5 700 M
601.5 700 L
S
GR
GS
[0.75 0 0 0.75 0 -0.25] CT
0.873 GC
1 LJ
0.667 LW
N
1386.5 621.5 M
601.5 621.5 L
S
GR
GS
[0.75 0 0 0.75 0 -0.25] CT
0.873 GC
1 LJ
0.667 LW
N
1386.5 543 M
601.5 543 L
S
GR
GS
[0.75 0 0 0.75 0 -0.25] CT
0.873 GC
1 LJ
0.667 LW
N
1386.5 464.5 M
601.5 464.5 L
S
GR
GS
[0.75 0 0 0.75 0 -0.25] CT
0.873 GC
1 LJ
0.667 LW
N
1386.5 386 M
601.5 386 L
S
GR
GS
[0.75 0 0 0.75 0 -0.25] CT
0.873 GC
1 LJ
0.667 LW
N
1386.5 307.5 M
601.5 307.5 L
S
GR
GS
[0.75 0 0 0.75 0 -0.25] CT
0.873 GC
1 LJ
0.667 LW
N
1386.5 229 M
601.5 229 L
S
GR
GS
[0.75 0 0 0.75 0 -0.25] CT
0.873 GC
1 LJ
0.667 LW
N
1386.5 150.5 M
601.5 150.5 L
S
GR
GS
[0.75 0 0 0.75 0 -0.25] CT
0.873 GC
1 LJ
0.667 LW
N
1386.5 72 M
601.5 72 L
S
GR
GS
[0.75 0 0 0.75 0 -0.25] CT
0.149 GC
2 setlinecap
1 LJ
0.667 LW
N
601.5 857 M
1386.5 857 L
S
GR
GS
[0.75 0 0 0.75 0 -0.25] CT
0.149 GC
2 setlinecap
1 LJ
0.667 LW
N
601.5 72 M
1386.5 72 L
S
GR
GS
[0.75 0 0 0.75 0 -0.25] CT
0.149 GC
2 setlinecap
1 LJ
0.667 LW
N
601.5 857 M
601.5 849.15 L
S
GR
GS
[0.75 0 0 0.75 0 -0.25] CT
0.149 GC
2 setlinecap
1 LJ
0.667 LW
N
680 857 M
680 849.15 L
S
GR
GS
[0.75 0 0 0.75 0 -0.25] CT
0.149 GC
2 setlinecap
1 LJ
0.667 LW
N
758.5 857 M
758.5 849.15 L
S
GR
GS
[0.75 0 0 0.75 0 -0.25] CT
0.149 GC
2 setlinecap
1 LJ
0.667 LW
N
837 857 M
837 849.15 L
S
GR
GS
[0.75 0 0 0.75 0 -0.25] CT
0.149 GC
2 setlinecap
1 LJ
0.667 LW
N
915.5 857 M
915.5 849.15 L
S
GR
GS
[0.75 0 0 0.75 0 -0.25] CT
0.149 GC
2 setlinecap
1 LJ
0.667 LW
N
994 857 M
994 849.15 L
S
GR
GS
[0.75 0 0 0.75 0 -0.25] CT
0.149 GC
2 setlinecap
1 LJ
0.667 LW
N
1072.5 857 M
1072.5 849.15 L
S
GR
GS
[0.75 0 0 0.75 0 -0.25] CT
0.149 GC
2 setlinecap
1 LJ
0.667 LW
N
1151 857 M
1151 849.15 L
S
GR
GS
[0.75 0 0 0.75 0 -0.25] CT
0.149 GC
2 setlinecap
1 LJ
0.667 LW
N
1229.5 857 M
1229.5 849.15 L
S
GR
GS
[0.75 0 0 0.75 0 -0.25] CT
0.149 GC
2 setlinecap
1 LJ
0.667 LW
N
1308 857 M
1308 849.15 L
S
GR
GS
[0.75 0 0 0.75 0 -0.25] CT
0.149 GC
2 setlinecap
1 LJ
0.667 LW
N
1386.5 857 M
1386.5 849.15 L
S
GR
GS
[0.75 0 0 0.75 0 -0.25] CT
0.149 GC
2 setlinecap
1 LJ
0.667 LW
N
601.5 72 M
601.5 79.85 L
S
GR
GS
[0.75 0 0 0.75 0 -0.25] CT
0.149 GC
2 setlinecap
1 LJ
0.667 LW
N
680 72 M
680 79.85 L
S
GR
GS
[0.75 0 0 0.75 0 -0.25] CT
0.149 GC
2 setlinecap
1 LJ
0.667 LW
N
758.5 72 M
758.5 79.85 L
S
GR
GS
[0.75 0 0 0.75 0 -0.25] CT
0.149 GC
2 setlinecap
1 LJ
0.667 LW
N
837 72 M
837 79.85 L
S
GR
GS
[0.75 0 0 0.75 0 -0.25] CT
0.149 GC
2 setlinecap
1 LJ
0.667 LW
N
915.5 72 M
915.5 79.85 L
S
GR
GS
[0.75 0 0 0.75 0 -0.25] CT
0.149 GC
2 setlinecap
1 LJ
0.667 LW
N
994 72 M
994 79.85 L
S
GR
GS
[0.75 0 0 0.75 0 -0.25] CT
0.149 GC
2 setlinecap
1 LJ
0.667 LW
N
1072.5 72 M
1072.5 79.85 L
S
GR
GS
[0.75 0 0 0.75 0 -0.25] CT
0.149 GC
2 setlinecap
1 LJ
0.667 LW
N
1151 72 M
1151 79.85 L
S
GR
GS
[0.75 0 0 0.75 0 -0.25] CT
0.149 GC
2 setlinecap
1 LJ
0.667 LW
N
1229.5 72 M
1229.5 79.85 L
S
GR
GS
[0.75 0 0 0.75 0 -0.25] CT
0.149 GC
2 setlinecap
1 LJ
0.667 LW
N
1308 72 M
1308 79.85 L
S
GR
GS
[0.75 0 0 0.75 0 -0.25] CT
0.149 GC
2 setlinecap
1 LJ
0.667 LW
N
1386.5 72 M
1386.5 79.85 L
S
GR
GS
[0.75 0 0 0.75 451.125 646.49998] CT
0.149 GC
/Helvetica 13.333 F
GS
[1 0 0 1 0 0] CT
-9.5 14 moveto 
1 -1 scale
(-50) t 
GR
GR
GS
[0.75 0 0 0.75 510 646.49998] CT
0.149 GC
/Helvetica 13.333 F
GS
[1 0 0 1 0 0] CT
-9.5 14 moveto 
1 -1 scale
(-40) t 
GR
GR
GS
[0.75 0 0 0.75 568.875 646.49998] CT
0.149 GC
/Helvetica 13.333 F
GS
[1 0 0 1 0 0] CT
-9.5 14 moveto 
1 -1 scale
(-30) t 
GR
GR
GS
[0.75 0 0 0.75 627.75 646.49998] CT
0.149 GC
/Helvetica 13.333 F
GS
[1 0 0 1 0 0] CT
-9.5 14 moveto 
1 -1 scale
(-20) t 
GR
GR
GS
[0.75 0 0 0.75 686.625 646.49998] CT
0.149 GC
/Helvetica 13.333 F
GS
[1 0 0 1 0 0] CT
-9.5 14 moveto 
1 -1 scale
(-10) t 
GR
GR
GS
[0.75 0 0 0.75 745.5 646.49998] CT
0.149 GC
/Helvetica 13.333 F
GS
[1 0 0 1 0 0] CT
-4 14 moveto 
1 -1 scale
(0) t 
GR
GR
GS
[0.75 0 0 0.75 804.375 646.49998] CT
0.149 GC
/Helvetica 13.333 F
GS
[1 0 0 1 0 0] CT
-7.5 14 moveto 
1 -1 scale
(10) t 
GR
GR
GS
[0.75 0 0 0.75 863.25 646.49998] CT
0.149 GC
/Helvetica 13.333 F
GS
[1 0 0 1 0 0] CT
-7.5 14 moveto 
1 -1 scale
(20) t 
GR
GR
GS
[0.75 0 0 0.75 922.125 646.49998] CT
0.149 GC
/Helvetica 13.333 F
GS
[1 0 0 1 0 0] CT
-7.5 14 moveto 
1 -1 scale
(30) t 
GR
GR
GS
[0.75 0 0 0.75 981 646.49998] CT
0.149 GC
/Helvetica 13.333 F
GS
[1 0 0 1 0 0] CT
-7.5 14 moveto 
1 -1 scale
(40) t 
GR
GR
GS
[0.75 0 0 0.75 1039.875 646.49998] CT
0.149 GC
/Helvetica 13.333 F
GS
[1 0 0 1 0 0] CT
-7.5 14 moveto 
1 -1 scale
(50) t 
GR
GR
GS
[0.75 0 0 0.75 0 -0.25] CT
0.149 GC
2 setlinecap
1 LJ
0.667 LW
N
601.5 857 M
601.5 72 L
S
GR
GS
[0.75 0 0 0.75 0 -0.25] CT
0.149 GC
2 setlinecap
1 LJ
0.667 LW
N
1386.5 857 M
1386.5 72 L
S
GR
GS
[0.75 0 0 0.75 0 -0.25] CT
0.149 GC
2 setlinecap
1 LJ
0.667 LW
N
601.5 857 M
609.35 857 L
S
GR
GS
[0.75 0 0 0.75 0 -0.25] CT
0.149 GC
2 setlinecap
1 LJ
0.667 LW
N
601.5 778.5 M
609.35 778.5 L
S
GR
GS
[0.75 0 0 0.75 0 -0.25] CT
0.149 GC
2 setlinecap
1 LJ
0.667 LW
N
601.5 700 M
609.35 700 L
S
GR
GS
[0.75 0 0 0.75 0 -0.25] CT
0.149 GC
2 setlinecap
1 LJ
0.667 LW
N
601.5 621.5 M
609.35 621.5 L
S
GR
GS
[0.75 0 0 0.75 0 -0.25] CT
0.149 GC
2 setlinecap
1 LJ
0.667 LW
N
601.5 543 M
609.35 543 L
S
GR
GS
[0.75 0 0 0.75 0 -0.25] CT
0.149 GC
2 setlinecap
1 LJ
0.667 LW
N
601.5 464.5 M
609.35 464.5 L
S
GR
GS
[0.75 0 0 0.75 0 -0.25] CT
0.149 GC
2 setlinecap
1 LJ
0.667 LW
N
601.5 386 M
609.35 386 L
S
GR
GS
[0.75 0 0 0.75 0 -0.25] CT
0.149 GC
2 setlinecap
1 LJ
0.667 LW
N
601.5 307.5 M
609.35 307.5 L
S
GR
GS
[0.75 0 0 0.75 0 -0.25] CT
0.149 GC
2 setlinecap
1 LJ
0.667 LW
N
601.5 229 M
609.35 229 L
S
GR
GS
[0.75 0 0 0.75 0 -0.25] CT
0.149 GC
2 setlinecap
1 LJ
0.667 LW
N
601.5 150.5 M
609.35 150.5 L
S
GR
GS
[0.75 0 0 0.75 0 -0.25] CT
0.149 GC
2 setlinecap
1 LJ
0.667 LW
N
601.5 72 M
609.35 72 L
S
GR
GS
[0.75 0 0 0.75 0 -0.25] CT
0.149 GC
2 setlinecap
1 LJ
0.667 LW
N
1386.5 857 M
1378.65 857 L
S
GR
GS
[0.75 0 0 0.75 0 -0.25] CT
0.149 GC
2 setlinecap
1 LJ
0.667 LW
N
1386.5 778.5 M
1378.65 778.5 L
S
GR
GS
[0.75 0 0 0.75 0 -0.25] CT
0.149 GC
2 setlinecap
1 LJ
0.667 LW
N
1386.5 700 M
1378.65 700 L
S
GR
GS
[0.75 0 0 0.75 0 -0.25] CT
0.149 GC
2 setlinecap
1 LJ
0.667 LW
N
1386.5 621.5 M
1378.65 621.5 L
S
GR
GS
[0.75 0 0 0.75 0 -0.25] CT
0.149 GC
2 setlinecap
1 LJ
0.667 LW
N
1386.5 543 M
1378.65 543 L
S
GR
GS
[0.75 0 0 0.75 0 -0.25] CT
0.149 GC
2 setlinecap
1 LJ
0.667 LW
N
1386.5 464.5 M
1378.65 464.5 L
S
GR
GS
[0.75 0 0 0.75 0 -0.25] CT
0.149 GC
2 setlinecap
1 LJ
0.667 LW
N
1386.5 386 M
1378.65 386 L
S
GR
GS
[0.75 0 0 0.75 0 -0.25] CT
0.149 GC
2 setlinecap
1 LJ
0.667 LW
N
1386.5 307.5 M
1378.65 307.5 L
S
GR
GS
[0.75 0 0 0.75 0 -0.25] CT
0.149 GC
2 setlinecap
1 LJ
0.667 LW
N
1386.5 229 M
1378.65 229 L
S
GR
GS
[0.75 0 0 0.75 0 -0.25] CT
0.149 GC
2 setlinecap
1 LJ
0.667 LW
N
1386.5 150.5 M
1378.65 150.5 L
S
GR
GS
[0.75 0 0 0.75 0 -0.25] CT
0.149 GC
2 setlinecap
1 LJ
0.667 LW
N
1386.5 72 M
1378.65 72 L
S
GR
GS
[0.75 0 0 0.75 447.12502 642.5] CT
0.149 GC
/Helvetica 13.333 F
GS
[1 0 0 1 0 0] CT
-19 5.5 moveto 
1 -1 scale
(-50) t 
GR
GR
GS
[0.75 0 0 0.75 447.12502 583.625] CT
0.149 GC
/Helvetica 13.333 F
GS
[1 0 0 1 0 0] CT
-19 5.5 moveto 
1 -1 scale
(-40) t 
GR
GR
GS
[0.75 0 0 0.75 447.12502 524.75] CT
0.149 GC
/Helvetica 13.333 F
GS
[1 0 0 1 0 0] CT
-19 5.5 moveto 
1 -1 scale
(-30) t 
GR
GR
GS
[0.75 0 0 0.75 447.12502 465.875] CT
0.149 GC
/Helvetica 13.333 F
GS
[1 0 0 1 0 0] CT
-19 5.5 moveto 
1 -1 scale
(-20) t 
GR
GR
GS
[0.75 0 0 0.75 447.12502 407] CT
0.149 GC
/Helvetica 13.333 F
GS
[1 0 0 1 0 0] CT
-19 5.5 moveto 
1 -1 scale
(-10) t 
GR
GR
GS
[0.75 0 0 0.75 447.12502 348.125] CT
0.149 GC
/Helvetica 13.333 F
GS
[1 0 0 1 0 0] CT
-8 5.5 moveto 
1 -1 scale
(0) t 
GR
GR
GS
[0.75 0 0 0.75 447.12502 289.25] CT
0.149 GC
/Helvetica 13.333 F
GS
[1 0 0 1 0 0] CT
-15 5.5 moveto 
1 -1 scale
(10) t 
GR
GR
GS
[0.75 0 0 0.75 447.12502 230.375] CT
0.149 GC
/Helvetica 13.333 F
GS
[1 0 0 1 0 0] CT
-15 5.5 moveto 
1 -1 scale
(20) t 
GR
GR
GS
[0.75 0 0 0.75 447.12502 171.5] CT
0.149 GC
/Helvetica 13.333 F
GS
[1 0 0 1 0 0] CT
-15 5.5 moveto 
1 -1 scale
(30) t 
GR
GR
GS
[0.75 0 0 0.75 447.12502 112.625] CT
0.149 GC
/Helvetica 13.333 F
GS
[1 0 0 1 0 0] CT
-15 5.5 moveto 
1 -1 scale
(40) t 
GR
GR
GS
[0.75 0 0 0.75 447.12502 53.75] CT
0.149 GC
/Helvetica 13.333 F
GS
[1 0 0 1 0 0] CT
-15 5.5 moveto 
1 -1 scale
(50) t 
GR
GR
GS
[0.75 0 0 0.75 0 -0.25] CT
0 0 1 RC
1 LJ
N
707 778.5 M
716 778.5 L
S
GR
GS
[0.75 0 0 0.75 0 -0.25] CT
0 0 1 RC
1 LJ
N
711.5 783 M
711.5 774 L
S
GR
GS
[0.75 0 0 0.75 0 -0.25] CT
0 0 1 RC
1 LJ
N
708 782 M
715 775 L
S
GR
GS
[0.75 0 0 0.75 0 -0.25] CT
0 0 1 RC
1 LJ
N
708 775 M
715 782 L
S
GR
GS
[0.75 0 0 0.75 0 -0.25] CT
0 0 1 RC
1 LJ
N
801 778.5 M
810 778.5 L
S
GR
GS
[0.75 0 0 0.75 0 -0.25] CT
0 0 1 RC
1 LJ
N
805.5 783 M
805.5 774 L
S
GR
GS
[0.75 0 0 0.75 0 -0.25] CT
0 0 1 RC
1 LJ
N
802 782 M
809 775 L
S
GR
GS
[0.75 0 0 0.75 0 -0.25] CT
0 0 1 RC
1 LJ
N
802 775 M
809 782 L
S
GR
GS
[0.75 0 0 0.75 0 -0.25] CT
0 0 1 RC
1 LJ
N
895 778.5 M
904 778.5 L
S
GR
GS
[0.75 0 0 0.75 0 -0.25] CT
0 0 1 RC
1 LJ
N
899.5 783 M
899.5 774 L
S
GR
GS
[0.75 0 0 0.75 0 -0.25] CT
0 0 1 RC
1 LJ
N
896 782 M
903 775 L
S
GR
GS
[0.75 0 0 0.75 0 -0.25] CT
0 0 1 RC
1 LJ
N
896 775 M
903 782 L
S
GR
GS
[0.75 0 0 0.75 0 -0.25] CT
0 0 1 RC
1 LJ
N
990 778.5 M
999 778.5 L
S
GR
GS
[0.75 0 0 0.75 0 -0.25] CT
0 0 1 RC
1 LJ
N
994.5 783 M
994.5 774 L
S
GR
GS
[0.75 0 0 0.75 0 -0.25] CT
0 0 1 RC
1 LJ
N
991 782 M
998 775 L
S
GR
GS
[0.75 0 0 0.75 0 -0.25] CT
0 0 1 RC
1 LJ
N
991 775 M
998 782 L
S
GR
GS
[0.75 0 0 0.75 0 -0.25] CT
0 0 1 RC
1 LJ
N
1084 778.5 M
1093 778.5 L
S
GR
GS
[0.75 0 0 0.75 0 -0.25] CT
0 0 1 RC
1 LJ
N
1088.5 783 M
1088.5 774 L
S
GR
GS
[0.75 0 0 0.75 0 -0.25] CT
0 0 1 RC
1 LJ
N
1085 782 M
1092 775 L
S
GR
GS
[0.75 0 0 0.75 0 -0.25] CT
0 0 1 RC
1 LJ
N
1085 775 M
1092 782 L
S
GR
GS
[0.75 0 0 0.75 0 -0.25] CT
0 0 1 RC
1 LJ
N
1178 778.5 M
1187 778.5 L
S
GR
GS
[0.75 0 0 0.75 0 -0.25] CT
0 0 1 RC
1 LJ
N
1182.5 783 M
1182.5 774 L
S
GR
GS
[0.75 0 0 0.75 0 -0.25] CT
0 0 1 RC
1 LJ
N
1179 782 M
1186 775 L
S
GR
GS
[0.75 0 0 0.75 0 -0.25] CT
0 0 1 RC
1 LJ
N
1179 775 M
1186 782 L
S
GR
GS
[0.75 0 0 0.75 0 -0.25] CT
0 0 1 RC
1 LJ
N
1272 778.5 M
1281 778.5 L
S
GR
GS
[0.75 0 0 0.75 0 -0.25] CT
0 0 1 RC
1 LJ
N
1276.5 783 M
1276.5 774 L
S
GR
GS
[0.75 0 0 0.75 0 -0.25] CT
0 0 1 RC
1 LJ
N
1273 782 M
1280 775 L
S
GR
GS
[0.75 0 0 0.75 0 -0.25] CT
0 0 1 RC
1 LJ
N
1273 775 M
1280 782 L
S
GR
GS
[0.75 0 0 0.75 0 -0.25] CT
0 0 1 RC
1 LJ
N
613 621.5 M
622 621.5 L
S
GR
GS
[0.75 0 0 0.75 0 -0.25] CT
0 0 1 RC
1 LJ
N
617.5 626 M
617.5 617 L
S
GR
GS
[0.75 0 0 0.75 0 -0.25] CT
0 0 1 RC
1 LJ
N
614 625 M
621 618 L
S
GR
GS
[0.75 0 0 0.75 0 -0.25] CT
0 0 1 RC
1 LJ
N
614 618 M
621 625 L
S
GR
GS
[0.75 0 0 0.75 0 -0.25] CT
0 0 1 RC
1 LJ
N
707 621.5 M
716 621.5 L
S
GR
GS
[0.75 0 0 0.75 0 -0.25] CT
0 0 1 RC
1 LJ
N
711.5 626 M
711.5 617 L
S
GR
GS
[0.75 0 0 0.75 0 -0.25] CT
0 0 1 RC
1 LJ
N
708 625 M
715 618 L
S
GR
GS
[0.75 0 0 0.75 0 -0.25] CT
0 0 1 RC
1 LJ
N
708 618 M
715 625 L
S
GR
GS
[0.75 0 0 0.75 0 -0.25] CT
0 0 1 RC
1 LJ
N
801 621.5 M
810 621.5 L
S
GR
GS
[0.75 0 0 0.75 0 -0.25] CT
0 0 1 RC
1 LJ
N
805.5 626 M
805.5 617 L
S
GR
GS
[0.75 0 0 0.75 0 -0.25] CT
0 0 1 RC
1 LJ
N
802 625 M
809 618 L
S
GR
GS
[0.75 0 0 0.75 0 -0.25] CT
0 0 1 RC
1 LJ
N
802 618 M
809 625 L
S
GR
GS
[0.75 0 0 0.75 0 -0.25] CT
0 0 1 RC
1 LJ
N
895 621.5 M
904 621.5 L
S
GR
GS
[0.75 0 0 0.75 0 -0.25] CT
0 0 1 RC
1 LJ
N
899.5 626 M
899.5 617 L
S
GR
GS
[0.75 0 0 0.75 0 -0.25] CT
0 0 1 RC
1 LJ
N
896 625 M
903 618 L
S
GR
GS
[0.75 0 0 0.75 0 -0.25] CT
0 0 1 RC
1 LJ
N
896 618 M
903 625 L
S
GR
GS
[0.75 0 0 0.75 0 -0.25] CT
0 0 1 RC
1 LJ
N
990 621.5 M
999 621.5 L
S
GR
GS
[0.75 0 0 0.75 0 -0.25] CT
0 0 1 RC
1 LJ
N
994.5 626 M
994.5 617 L
S
GR
GS
[0.75 0 0 0.75 0 -0.25] CT
0 0 1 RC
1 LJ
N
991 625 M
998 618 L
S
GR
GS
[0.75 0 0 0.75 0 -0.25] CT
0 0 1 RC
1 LJ
N
991 618 M
998 625 L
S
GR
GS
[0.75 0 0 0.75 0 -0.25] CT
0 0 1 RC
1 LJ
N
1084 621.5 M
1093 621.5 L
S
GR
GS
[0.75 0 0 0.75 0 -0.25] CT
0 0 1 RC
1 LJ
N
1088.5 626 M
1088.5 617 L
S
GR
GS
[0.75 0 0 0.75 0 -0.25] CT
0 0 1 RC
1 LJ
N
1085 625 M
1092 618 L
S
GR
GS
[0.75 0 0 0.75 0 -0.25] CT
0 0 1 RC
1 LJ
N
1085 618 M
1092 625 L
S
GR
GS
[0.75 0 0 0.75 0 -0.25] CT
0 0 1 RC
1 LJ
N
1178 621.5 M
1187 621.5 L
S
GR
GS
[0.75 0 0 0.75 0 -0.25] CT
0 0 1 RC
1 LJ
N
1182.5 626 M
1182.5 617 L
S
GR
GS
[0.75 0 0 0.75 0 -0.25] CT
0 0 1 RC
1 LJ
N
1179 625 M
1186 618 L
S
GR
GS
[0.75 0 0 0.75 0 -0.25] CT
0 0 1 RC
1 LJ
N
1179 618 M
1186 625 L
S
GR
GS
[0.75 0 0 0.75 0 -0.25] CT
0 0 1 RC
1 LJ
N
1272 621.5 M
1281 621.5 L
S
GR
GS
[0.75 0 0 0.75 0 -0.25] CT
0 0 1 RC
1 LJ
N
1276.5 626 M
1276.5 617 L
S
GR
GS
[0.75 0 0 0.75 0 -0.25] CT
0 0 1 RC
1 LJ
N
1273 625 M
1280 618 L
S
GR
GS
[0.75 0 0 0.75 0 -0.25] CT
0 0 1 RC
1 LJ
N
1273 618 M
1280 625 L
S
GR
GS
[0.75 0 0 0.75 0 -0.25] CT
0 0 1 RC
1 LJ
N
1366 621.5 M
1375 621.5 L
S
GR
GS
[0.75 0 0 0.75 0 -0.25] CT
0 0 1 RC
1 LJ
N
1370.5 626 M
1370.5 617 L
S
GR
GS
[0.75 0 0 0.75 0 -0.25] CT
0 0 1 RC
1 LJ
N
1367 625 M
1374 618 L
S
GR
GS
[0.75 0 0 0.75 0 -0.25] CT
0 0 1 RC
1 LJ
N
1367 618 M
1374 625 L
S
GR
GS
[0.75 0 0 0.75 0 -0.25] CT
0 0 1 RC
1 LJ
N
613 464.5 M
622 464.5 L
S
GR
GS
[0.75 0 0 0.75 0 -0.25] CT
0 0 1 RC
1 LJ
N
617.5 469 M
617.5 460 L
S
GR
GS
[0.75 0 0 0.75 0 -0.25] CT
0 0 1 RC
1 LJ
N
614 468 M
621 461 L
S
GR
GS
[0.75 0 0 0.75 0 -0.25] CT
0 0 1 RC
1 LJ
N
614 461 M
621 468 L
S
GR
GS
[0.75 0 0 0.75 0 -0.25] CT
0 0 1 RC
1 LJ
N
707 464.5 M
716 464.5 L
S
GR
GS
[0.75 0 0 0.75 0 -0.25] CT
0 0 1 RC
1 LJ
N
711.5 469 M
711.5 460 L
S
GR
GS
[0.75 0 0 0.75 0 -0.25] CT
0 0 1 RC
1 LJ
N
708 468 M
715 461 L
S
GR
GS
[0.75 0 0 0.75 0 -0.25] CT
0 0 1 RC
1 LJ
N
708 461 M
715 468 L
S
GR
GS
[0.75 0 0 0.75 0 -0.25] CT
0 0 1 RC
1 LJ
N
801 464.5 M
810 464.5 L
S
GR
GS
[0.75 0 0 0.75 0 -0.25] CT
0 0 1 RC
1 LJ
N
805.5 469 M
805.5 460 L
S
GR
GS
[0.75 0 0 0.75 0 -0.25] CT
0 0 1 RC
1 LJ
N
802 468 M
809 461 L
S
GR
GS
[0.75 0 0 0.75 0 -0.25] CT
0 0 1 RC
1 LJ
N
802 461 M
809 468 L
S
GR
GS
[0.75 0 0 0.75 0 -0.25] CT
0 0 1 RC
1 LJ
N
895 464.5 M
904 464.5 L
S
GR
GS
[0.75 0 0 0.75 0 -0.25] CT
0 0 1 RC
1 LJ
N
899.5 469 M
899.5 460 L
S
GR
GS
[0.75 0 0 0.75 0 -0.25] CT
0 0 1 RC
1 LJ
N
896 468 M
903 461 L
S
GR
GS
[0.75 0 0 0.75 0 -0.25] CT
0 0 1 RC
1 LJ
N
896 461 M
903 468 L
S
GR
GS
[0.75 0 0 0.75 0 -0.25] CT
0 0 1 RC
1 LJ
N
990 464.5 M
999 464.5 L
S
GR
GS
[0.75 0 0 0.75 0 -0.25] CT
0 0 1 RC
1 LJ
N
994.5 469 M
994.5 460 L
S
GR
GS
[0.75 0 0 0.75 0 -0.25] CT
0 0 1 RC
1 LJ
N
991 468 M
998 461 L
S
GR
GS
[0.75 0 0 0.75 0 -0.25] CT
0 0 1 RC
1 LJ
N
991 461 M
998 468 L
S
GR
GS
[0.75 0 0 0.75 0 -0.25] CT
0 0 1 RC
1 LJ
N
1084 464.5 M
1093 464.5 L
S
GR
GS
[0.75 0 0 0.75 0 -0.25] CT
0 0 1 RC
1 LJ
N
1088.5 469 M
1088.5 460 L
S
GR
GS
[0.75 0 0 0.75 0 -0.25] CT
0 0 1 RC
1 LJ
N
1085 468 M
1092 461 L
S
GR
GS
[0.75 0 0 0.75 0 -0.25] CT
0 0 1 RC
1 LJ
N
1085 461 M
1092 468 L
S
GR
GS
[0.75 0 0 0.75 0 -0.25] CT
0 0 1 RC
1 LJ
N
1178 464.5 M
1187 464.5 L
S
GR
GS
[0.75 0 0 0.75 0 -0.25] CT
0 0 1 RC
1 LJ
N
1182.5 469 M
1182.5 460 L
S
GR
GS
[0.75 0 0 0.75 0 -0.25] CT
0 0 1 RC
1 LJ
N
1179 468 M
1186 461 L
S
GR
GS
[0.75 0 0 0.75 0 -0.25] CT
0 0 1 RC
1 LJ
N
1179 461 M
1186 468 L
S
GR
GS
[0.75 0 0 0.75 0 -0.25] CT
0 0 1 RC
1 LJ
N
1272 464.5 M
1281 464.5 L
S
GR
GS
[0.75 0 0 0.75 0 -0.25] CT
0 0 1 RC
1 LJ
N
1276.5 469 M
1276.5 460 L
S
GR
GS
[0.75 0 0 0.75 0 -0.25] CT
0 0 1 RC
1 LJ
N
1273 468 M
1280 461 L
S
GR
GS
[0.75 0 0 0.75 0 -0.25] CT
0 0 1 RC
1 LJ
N
1273 461 M
1280 468 L
S
GR
GS
[0.75 0 0 0.75 0 -0.25] CT
0 0 1 RC
1 LJ
N
1366 464.5 M
1375 464.5 L
S
GR
GS
[0.75 0 0 0.75 0 -0.25] CT
0 0 1 RC
1 LJ
N
1370.5 469 M
1370.5 460 L
S
GR
GS
[0.75 0 0 0.75 0 -0.25] CT
0 0 1 RC
1 LJ
N
1367 468 M
1374 461 L
S
GR
GS
[0.75 0 0 0.75 0 -0.25] CT
0 0 1 RC
1 LJ
N
1367 461 M
1374 468 L
S
GR
GS
[0.75 0 0 0.75 0 -0.25] CT
0 0 1 RC
1 LJ
N
613 307.5 M
622 307.5 L
S
GR
GS
[0.75 0 0 0.75 0 -0.25] CT
0 0 1 RC
1 LJ
N
617.5 312 M
617.5 303 L
S
GR
GS
[0.75 0 0 0.75 0 -0.25] CT
0 0 1 RC
1 LJ
N
614 311 M
621 304 L
S
GR
GS
[0.75 0 0 0.75 0 -0.25] CT
0 0 1 RC
1 LJ
N
614 304 M
621 311 L
S
GR
GS
[0.75 0 0 0.75 0 -0.25] CT
0 0 1 RC
1 LJ
N
707 307.5 M
716 307.5 L
S
GR
GS
[0.75 0 0 0.75 0 -0.25] CT
0 0 1 RC
1 LJ
N
711.5 312 M
711.5 303 L
S
GR
GS
[0.75 0 0 0.75 0 -0.25] CT
0 0 1 RC
1 LJ
N
708 311 M
715 304 L
S
GR
GS
[0.75 0 0 0.75 0 -0.25] CT
0 0 1 RC
1 LJ
N
708 304 M
715 311 L
S
GR
GS
[0.75 0 0 0.75 0 -0.25] CT
0 0 1 RC
1 LJ
N
801 307.5 M
810 307.5 L
S
GR
GS
[0.75 0 0 0.75 0 -0.25] CT
0 0 1 RC
1 LJ
N
805.5 312 M
805.5 303 L
S
GR
GS
[0.75 0 0 0.75 0 -0.25] CT
0 0 1 RC
1 LJ
N
802 311 M
809 304 L
S
GR
GS
[0.75 0 0 0.75 0 -0.25] CT
0 0 1 RC
1 LJ
N
802 304 M
809 311 L
S
GR
GS
[0.75 0 0 0.75 0 -0.25] CT
0 0 1 RC
1 LJ
N
895 307.5 M
904 307.5 L
S
GR
GS
[0.75 0 0 0.75 0 -0.25] CT
0 0 1 RC
1 LJ
N
899.5 312 M
899.5 303 L
S
GR
GS
[0.75 0 0 0.75 0 -0.25] CT
0 0 1 RC
1 LJ
N
896 311 M
903 304 L
S
GR
GS
[0.75 0 0 0.75 0 -0.25] CT
0 0 1 RC
1 LJ
N
896 304 M
903 311 L
S
GR
GS
[0.75 0 0 0.75 0 -0.25] CT
0 0 1 RC
1 LJ
N
990 307.5 M
999 307.5 L
S
GR
GS
[0.75 0 0 0.75 0 -0.25] CT
0 0 1 RC
1 LJ
N
994.5 312 M
994.5 303 L
S
GR
GS
[0.75 0 0 0.75 0 -0.25] CT
0 0 1 RC
1 LJ
N
991 311 M
998 304 L
S
GR
GS
[0.75 0 0 0.75 0 -0.25] CT
0 0 1 RC
1 LJ
N
991 304 M
998 311 L
S
GR
GS
[0.75 0 0 0.75 0 -0.25] CT
0 0 1 RC
1 LJ
N
1084 307.5 M
1093 307.5 L
S
GR
GS
[0.75 0 0 0.75 0 -0.25] CT
0 0 1 RC
1 LJ
N
1088.5 312 M
1088.5 303 L
S
GR
GS
[0.75 0 0 0.75 0 -0.25] CT
0 0 1 RC
1 LJ
N
1085 311 M
1092 304 L
S
GR
GS
[0.75 0 0 0.75 0 -0.25] CT
0 0 1 RC
1 LJ
N
1085 304 M
1092 311 L
S
GR
GS
[0.75 0 0 0.75 0 -0.25] CT
0 0 1 RC
1 LJ
N
1178 307.5 M
1187 307.5 L
S
GR
GS
[0.75 0 0 0.75 0 -0.25] CT
0 0 1 RC
1 LJ
N
1182.5 312 M
1182.5 303 L
S
GR
GS
[0.75 0 0 0.75 0 -0.25] CT
0 0 1 RC
1 LJ
N
1179 311 M
1186 304 L
S
GR
GS
[0.75 0 0 0.75 0 -0.25] CT
0 0 1 RC
1 LJ
N
1179 304 M
1186 311 L
S
GR
GS
[0.75 0 0 0.75 0 -0.25] CT
0 0 1 RC
1 LJ
N
1272 307.5 M
1281 307.5 L
S
GR
GS
[0.75 0 0 0.75 0 -0.25] CT
0 0 1 RC
1 LJ
N
1276.5 312 M
1276.5 303 L
S
GR
GS
[0.75 0 0 0.75 0 -0.25] CT
0 0 1 RC
1 LJ
N
1273 311 M
1280 304 L
S
GR
GS
[0.75 0 0 0.75 0 -0.25] CT
0 0 1 RC
1 LJ
N
1273 304 M
1280 311 L
S
GR
GS
[0.75 0 0 0.75 0 -0.25] CT
0 0 1 RC
1 LJ
N
1366 307.5 M
1375 307.5 L
S
GR
GS
[0.75 0 0 0.75 0 -0.25] CT
0 0 1 RC
1 LJ
N
1370.5 312 M
1370.5 303 L
S
GR
GS
[0.75 0 0 0.75 0 -0.25] CT
0 0 1 RC
1 LJ
N
1367 311 M
1374 304 L
S
GR
GS
[0.75 0 0 0.75 0 -0.25] CT
0 0 1 RC
1 LJ
N
1367 304 M
1374 311 L
S
GR
GS
[0.75 0 0 0.75 0 -0.25] CT
0 0 1 RC
1 LJ
N
707 150.5 M
716 150.5 L
S
GR
GS
[0.75 0 0 0.75 0 -0.25] CT
0 0 1 RC
1 LJ
N
711.5 155 M
711.5 146 L
S
GR
GS
[0.75 0 0 0.75 0 -0.25] CT
0 0 1 RC
1 LJ
N
708 154 M
715 147 L
S
GR
GS
[0.75 0 0 0.75 0 -0.25] CT
0 0 1 RC
1 LJ
N
708 147 M
715 154 L
S
GR
GS
[0.75 0 0 0.75 0 -0.25] CT
0 0 1 RC
1 LJ
N
801 150.5 M
810 150.5 L
S
GR
GS
[0.75 0 0 0.75 0 -0.25] CT
0 0 1 RC
1 LJ
N
805.5 155 M
805.5 146 L
S
GR
GS
[0.75 0 0 0.75 0 -0.25] CT
0 0 1 RC
1 LJ
N
802 154 M
809 147 L
S
GR
GS
[0.75 0 0 0.75 0 -0.25] CT
0 0 1 RC
1 LJ
N
802 147 M
809 154 L
S
GR
GS
[0.75 0 0 0.75 0 -0.25] CT
0 0 1 RC
1 LJ
N
895 150.5 M
904 150.5 L
S
GR
GS
[0.75 0 0 0.75 0 -0.25] CT
0 0 1 RC
1 LJ
N
899.5 155 M
899.5 146 L
S
GR
GS
[0.75 0 0 0.75 0 -0.25] CT
0 0 1 RC
1 LJ
N
896 154 M
903 147 L
S
GR
GS
[0.75 0 0 0.75 0 -0.25] CT
0 0 1 RC
1 LJ
N
896 147 M
903 154 L
S
GR
GS
[0.75 0 0 0.75 0 -0.25] CT
0 0 1 RC
1 LJ
N
990 150.5 M
999 150.5 L
S
GR
GS
[0.75 0 0 0.75 0 -0.25] CT
0 0 1 RC
1 LJ
N
994.5 155 M
994.5 146 L
S
GR
GS
[0.75 0 0 0.75 0 -0.25] CT
0 0 1 RC
1 LJ
N
991 154 M
998 147 L
S
GR
GS
[0.75 0 0 0.75 0 -0.25] CT
0 0 1 RC
1 LJ
N
991 147 M
998 154 L
S
GR
GS
[0.75 0 0 0.75 0 -0.25] CT
0 0 1 RC
1 LJ
N
1084 150.5 M
1093 150.5 L
S
GR
GS
[0.75 0 0 0.75 0 -0.25] CT
0 0 1 RC
1 LJ
N
1088.5 155 M
1088.5 146 L
S
GR
GS
[0.75 0 0 0.75 0 -0.25] CT
0 0 1 RC
1 LJ
N
1085 154 M
1092 147 L
S
GR
GS
[0.75 0 0 0.75 0 -0.25] CT
0 0 1 RC
1 LJ
N
1085 147 M
1092 154 L
S
GR
GS
[0.75 0 0 0.75 0 -0.25] CT
0 0 1 RC
1 LJ
N
1178 150.5 M
1187 150.5 L
S
GR
GS
[0.75 0 0 0.75 0 -0.25] CT
0 0 1 RC
1 LJ
N
1182.5 155 M
1182.5 146 L
S
GR
GS
[0.75 0 0 0.75 0 -0.25] CT
0 0 1 RC
1 LJ
N
1179 154 M
1186 147 L
S
GR
GS
[0.75 0 0 0.75 0 -0.25] CT
0 0 1 RC
1 LJ
N
1179 147 M
1186 154 L
S
GR
GS
[0.75 0 0 0.75 0 -0.25] CT
0 0 1 RC
1 LJ
N
1272 150.5 M
1281 150.5 L
S
GR
GS
[0.75 0 0 0.75 0 -0.25] CT
0 0 1 RC
1 LJ
N
1276.5 155 M
1276.5 146 L
S
GR
GS
[0.75 0 0 0.75 0 -0.25] CT
0 0 1 RC
1 LJ
N
1273 154 M
1280 147 L
S
GR
GS
[0.75 0 0 0.75 0 -0.25] CT
0 0 1 RC
1 LJ
N
1273 147 M
1280 154 L
S
GR
GS
[0.75 0 0 0.75 0 -0.25] CT
1 0 0 RC
1 LJ
N
715.5 777.5 M
714.736 775.149 L
712.736 773.696 L
710.264 773.696 L
708.264 775.149 L
707.5 777.5 L
708.264 779.851 L
710.264 781.304 L
712.736 781.304 L
714.736 779.851 L
cp
S
GR
GS
[0.75 0 0 0.75 0 -0.25] CT
1 0 0 RC
1 LJ
N
808.5 776.5 M
807.736 774.149 L
805.736 772.696 L
803.264 772.696 L
801.264 774.149 L
800.5 776.5 L
801.264 778.851 L
803.264 780.304 L
805.736 780.304 L
807.736 778.851 L
cp
S
GR
GS
[0.75 0 0 0.75 0 -0.25] CT
1 0 0 RC
1 LJ
N
902.5 776.5 M
901.736 774.149 L
899.736 772.696 L
897.264 772.696 L
895.264 774.149 L
894.5 776.5 L
895.264 778.851 L
897.264 780.304 L
899.736 780.304 L
901.736 778.851 L
cp
S
GR
GS
[0.75 0 0 0.75 0 -0.25] CT
1 0 0 RC
1 LJ
N
997.5 776.5 M
996.736 774.149 L
994.736 772.696 L
992.264 772.696 L
990.264 774.149 L
989.5 776.5 L
990.264 778.851 L
992.264 780.304 L
994.736 780.304 L
996.736 778.851 L
cp
S
GR
GS
[0.75 0 0 0.75 0 -0.25] CT
1 0 0 RC
1 LJ
N
1091.5 776.5 M
1090.736 774.149 L
1088.736 772.696 L
1086.264 772.696 L
1084.264 774.149 L
1083.5 776.5 L
1084.264 778.851 L
1086.264 780.304 L
1088.736 780.304 L
1090.736 778.851 L
cp
S
GR
GS
[0.75 0 0 0.75 0 -0.25] CT
1 0 0 RC
1 LJ
N
1185.5 776.5 M
1184.736 774.149 L
1182.736 772.696 L
1180.264 772.696 L
1178.264 774.149 L
1177.5 776.5 L
1178.264 778.851 L
1180.264 780.304 L
1182.736 780.304 L
1184.736 778.851 L
cp
S
GR
GS
[0.75 0 0 0.75 0 -0.25] CT
1 0 0 RC
1 LJ
N
1278.5 777.5 M
1277.736 775.149 L
1275.736 773.696 L
1273.264 773.696 L
1271.264 775.149 L
1270.5 777.5 L
1271.264 779.851 L
1273.264 781.304 L
1275.736 781.304 L
1277.736 779.851 L
cp
S
GR
GS
[0.75 0 0 0.75 0 -0.25] CT
1 0 0 RC
1 LJ
N
622.5 621.5 M
621.736 619.149 L
619.736 617.696 L
617.264 617.696 L
615.264 619.149 L
614.5 621.5 L
615.264 623.851 L
617.264 625.304 L
619.736 625.304 L
621.736 623.851 L
cp
S
GR
GS
[0.75 0 0 0.75 0 -0.25] CT
1 0 0 RC
1 LJ
N
715.5 622.5 M
714.736 620.149 L
712.736 618.696 L
710.264 618.696 L
708.264 620.149 L
707.5 622.5 L
708.264 624.851 L
710.264 626.304 L
712.736 626.304 L
714.736 624.851 L
cp
S
GR
GS
[0.75 0 0 0.75 0 -0.25] CT
1 0 0 RC
1 LJ
N
809.5 622.5 M
808.736 620.149 L
806.736 618.696 L
804.264 618.696 L
802.264 620.149 L
801.5 622.5 L
802.264 624.851 L
804.264 626.304 L
806.736 626.304 L
808.736 624.851 L
cp
S
GR
GS
[0.75 0 0 0.75 0 -0.25] CT
1 0 0 RC
1 LJ
N
903.5 622.5 M
902.736 620.149 L
900.736 618.696 L
898.264 618.696 L
896.264 620.149 L
895.5 622.5 L
896.264 624.851 L
898.264 626.304 L
900.736 626.304 L
902.736 624.851 L
cp
S
GR
GS
[0.75 0 0 0.75 0 -0.25] CT
1 0 0 RC
1 LJ
N
997.5 622.5 M
996.736 620.149 L
994.736 618.696 L
992.264 618.696 L
990.264 620.149 L
989.5 622.5 L
990.264 624.851 L
992.264 626.304 L
994.736 626.304 L
996.736 624.851 L
cp
S
GR
GS
[0.75 0 0 0.75 0 -0.25] CT
1 0 0 RC
1 LJ
N
1091.5 622.5 M
1090.736 620.149 L
1088.736 618.696 L
1086.264 618.696 L
1084.264 620.149 L
1083.5 622.5 L
1084.264 624.851 L
1086.264 626.304 L
1088.736 626.304 L
1090.736 624.851 L
cp
S
GR
GS
[0.75 0 0 0.75 0 -0.25] CT
1 0 0 RC
1 LJ
N
1185.5 622.5 M
1184.736 620.149 L
1182.736 618.696 L
1180.264 618.696 L
1178.264 620.149 L
1177.5 622.5 L
1178.264 624.851 L
1180.264 626.304 L
1182.736 626.304 L
1184.736 624.851 L
cp
S
GR
GS
[0.75 0 0 0.75 0 -0.25] CT
1 0 0 RC
1 LJ
N
1280.5 622.5 M
1279.736 620.149 L
1277.736 618.696 L
1275.264 618.696 L
1273.264 620.149 L
1272.5 622.5 L
1273.264 624.851 L
1275.264 626.304 L
1277.736 626.304 L
1279.736 624.851 L
cp
S
GR
GS
[0.75 0 0 0.75 0 -0.25] CT
1 0 0 RC
1 LJ
N
1373.5 621.5 M
1372.736 619.149 L
1370.736 617.696 L
1368.264 617.696 L
1366.264 619.149 L
1365.5 621.5 L
1366.264 623.851 L
1368.264 625.304 L
1370.736 625.304 L
1372.736 623.851 L
cp
S
GR
GS
[0.75 0 0 0.75 0 -0.25] CT
1 0 0 RC
1 LJ
N
623.5 466.5 M
622.736 464.149 L
620.736 462.696 L
618.264 462.696 L
616.264 464.149 L
615.5 466.5 L
616.264 468.851 L
618.264 470.304 L
620.736 470.304 L
622.736 468.851 L
cp
S
GR
GS
[0.75 0 0 0.75 0 -0.25] CT
1 0 0 RC
1 LJ
N
715.5 466.5 M
714.736 464.149 L
712.736 462.696 L
710.264 462.696 L
708.264 464.149 L
707.5 466.5 L
708.264 468.851 L
710.264 470.304 L
712.736 470.304 L
714.736 468.851 L
cp
S
GR
GS
[0.75 0 0 0.75 0 -0.25] CT
1 0 0 RC
1 LJ
N
809.5 466.5 M
808.736 464.149 L
806.736 462.696 L
804.264 462.696 L
802.264 464.149 L
801.5 466.5 L
802.264 468.851 L
804.264 470.304 L
806.736 470.304 L
808.736 468.851 L
cp
S
GR
GS
[0.75 0 0 0.75 0 -0.25] CT
1 0 0 RC
1 LJ
N
904.5 466.5 M
903.736 464.149 L
901.736 462.696 L
899.264 462.696 L
897.264 464.149 L
896.5 466.5 L
897.264 468.851 L
899.264 470.304 L
901.736 470.304 L
903.736 468.851 L
cp
S
GR
GS
[0.75 0 0 0.75 0 -0.25] CT
1 0 0 RC
1 LJ
N
998.5 466.5 M
997.736 464.149 L
995.736 462.696 L
993.264 462.696 L
991.264 464.149 L
990.5 466.5 L
991.264 468.851 L
993.264 470.304 L
995.736 470.304 L
997.736 468.851 L
cp
S
GR
GS
[0.75 0 0 0.75 0 -0.25] CT
1 0 0 RC
1 LJ
N
1092.5 466.5 M
1091.736 464.149 L
1089.736 462.696 L
1087.264 462.696 L
1085.264 464.149 L
1084.5 466.5 L
1085.264 468.851 L
1087.264 470.304 L
1089.736 470.304 L
1091.736 468.851 L
cp
S
GR
GS
[0.75 0 0 0.75 0 -0.25] CT
1 0 0 RC
1 LJ
N
1186.5 466.5 M
1185.736 464.149 L
1183.736 462.696 L
1181.264 462.696 L
1179.264 464.149 L
1178.5 466.5 L
1179.264 468.851 L
1181.264 470.304 L
1183.736 470.304 L
1185.736 468.851 L
cp
S
GR
GS
[0.75 0 0 0.75 0 -0.25] CT
1 0 0 RC
1 LJ
N
1280.5 466.5 M
1279.736 464.149 L
1277.736 462.696 L
1275.264 462.696 L
1273.264 464.149 L
1272.5 466.5 L
1273.264 468.851 L
1275.264 470.304 L
1277.736 470.304 L
1279.736 468.851 L
cp
S
GR
GS
[0.75 0 0 0.75 0 -0.25] CT
1 0 0 RC
1 LJ
N
1373.5 466.5 M
1372.736 464.149 L
1370.736 462.696 L
1368.264 462.696 L
1366.264 464.149 L
1365.5 466.5 L
1366.264 468.851 L
1368.264 470.304 L
1370.736 470.304 L
1372.736 468.851 L
cp
S
GR
GS
[0.75 0 0 0.75 0 -0.25] CT
1 0 0 RC
1 LJ
N
623.5 311.5 M
622.736 309.149 L
620.736 307.696 L
618.264 307.696 L
616.264 309.149 L
615.5 311.5 L
616.264 313.851 L
618.264 315.304 L
620.736 315.304 L
622.736 313.851 L
cp
S
GR
GS
[0.75 0 0 0.75 0 -0.25] CT
1 0 0 RC
1 LJ
N
716.5 310.5 M
715.736 308.149 L
713.736 306.696 L
711.264 306.696 L
709.264 308.149 L
708.5 310.5 L
709.264 312.851 L
711.264 314.304 L
713.736 314.304 L
715.736 312.851 L
cp
S
GR
GS
[0.75 0 0 0.75 0 -0.25] CT
1 0 0 RC
1 LJ
N
810.5 310.5 M
809.736 308.149 L
807.736 306.696 L
805.264 306.696 L
803.264 308.149 L
802.5 310.5 L
803.264 312.851 L
805.264 314.304 L
807.736 314.304 L
809.736 312.851 L
cp
S
GR
GS
[0.75 0 0 0.75 0 -0.25] CT
1 0 0 RC
1 LJ
N
904.5 310.5 M
903.736 308.149 L
901.736 306.696 L
899.264 306.696 L
897.264 308.149 L
896.5 310.5 L
897.264 312.851 L
899.264 314.304 L
901.736 314.304 L
903.736 312.851 L
cp
S
GR
GS
[0.75 0 0 0.75 0 -0.25] CT
1 0 0 RC
1 LJ
N
998.5 310.5 M
997.736 308.149 L
995.736 306.696 L
993.264 306.696 L
991.264 308.149 L
990.5 310.5 L
991.264 312.851 L
993.264 314.304 L
995.736 314.304 L
997.736 312.851 L
cp
S
GR
GS
[0.75 0 0 0.75 0 -0.25] CT
1 0 0 RC
1 LJ
N
1093.5 310.5 M
1092.736 308.149 L
1090.736 306.696 L
1088.264 306.696 L
1086.264 308.149 L
1085.5 310.5 L
1086.264 312.851 L
1088.264 314.304 L
1090.736 314.304 L
1092.736 312.851 L
cp
S
GR
GS
[0.75 0 0 0.75 0 -0.25] CT
1 0 0 RC
1 LJ
N
1187.5 310.5 M
1186.736 308.149 L
1184.736 306.696 L
1182.264 306.696 L
1180.264 308.149 L
1179.5 310.5 L
1180.264 312.851 L
1182.264 314.304 L
1184.736 314.304 L
1186.736 312.851 L
cp
S
GR
GS
[0.75 0 0 0.75 0 -0.25] CT
1 0 0 RC
1 LJ
N
1281.5 310.5 M
1280.736 308.149 L
1278.736 306.696 L
1276.264 306.696 L
1274.264 308.149 L
1273.5 310.5 L
1274.264 312.851 L
1276.264 314.304 L
1278.736 314.304 L
1280.736 312.851 L
cp
S
GR
GS
[0.75 0 0 0.75 0 -0.25] CT
1 0 0 RC
1 LJ
N
1374.5 311.5 M
1373.736 309.149 L
1371.736 307.696 L
1369.264 307.696 L
1367.264 309.149 L
1366.5 311.5 L
1367.264 313.851 L
1369.264 315.304 L
1371.736 315.304 L
1373.736 313.851 L
cp
S
GR
GS
[0.75 0 0 0.75 0 -0.25] CT
1 0 0 RC
1 LJ
N
718.5 155.5 M
717.736 153.149 L
715.736 151.696 L
713.264 151.696 L
711.264 153.149 L
710.5 155.5 L
711.264 157.851 L
713.264 159.304 L
715.736 159.304 L
717.736 157.851 L
cp
S
GR
GS
[0.75 0 0 0.75 0 -0.25] CT
1 0 0 RC
1 LJ
N
811.5 156.5 M
810.736 154.149 L
808.736 152.696 L
806.264 152.696 L
804.264 154.149 L
803.5 156.5 L
804.264 158.851 L
806.264 160.304 L
808.736 160.304 L
810.736 158.851 L
cp
S
GR
GS
[0.75 0 0 0.75 0 -0.25] CT
1 0 0 RC
1 LJ
N
905.5 156.5 M
904.736 154.149 L
902.736 152.696 L
900.264 152.696 L
898.264 154.149 L
897.5 156.5 L
898.264 158.851 L
900.264 160.304 L
902.736 160.304 L
904.736 158.851 L
cp
S
GR
GS
[0.75 0 0 0.75 0 -0.25] CT
1 0 0 RC
1 LJ
N
999.5 156.5 M
998.736 154.149 L
996.736 152.696 L
994.264 152.696 L
992.264 154.149 L
991.5 156.5 L
992.264 158.851 L
994.264 160.304 L
996.736 160.304 L
998.736 158.851 L
cp
S
GR
GS
[0.75 0 0 0.75 0 -0.25] CT
1 0 0 RC
1 LJ
N
1093.5 156.5 M
1092.736 154.149 L
1090.736 152.696 L
1088.264 152.696 L
1086.264 154.149 L
1085.5 156.5 L
1086.264 158.851 L
1088.264 160.304 L
1090.736 160.304 L
1092.736 158.851 L
cp
S
GR
GS
[0.75 0 0 0.75 0 -0.25] CT
1 0 0 RC
1 LJ
N
1187.5 156.5 M
1186.736 154.149 L
1184.736 152.696 L
1182.264 152.696 L
1180.264 154.149 L
1179.5 156.5 L
1180.264 158.851 L
1182.264 160.304 L
1184.736 160.304 L
1186.736 158.851 L
cp
S
GR
GS
[0.75 0 0 0.75 0 -0.25] CT
1 0 0 RC
1 LJ
N
1280.5 155.5 M
1279.736 153.149 L
1277.736 151.696 L
1275.264 151.696 L
1273.264 153.149 L
1272.5 155.5 L
1273.264 157.851 L
1275.264 159.304 L
1277.736 159.304 L
1279.736 157.851 L
cp
S
GR
GS
[0.75 0 0 0.75 0 -0.25] CT
10.0 ML
N
706.38 783.62 M
706.38 777.38 L
712.62 777.38 L
712.62 783.62 L
cp
S
GR
GS
[0.75 0 0 0.75 0 -0.25] CT
10.0 ML
N
799.38 782.62 M
799.38 776.38 L
805.62 776.38 L
805.62 782.62 L
cp
S
GR
GS
[0.75 0 0 0.75 0 -0.25] CT
10.0 ML
N
896.38 780.62 M
896.38 774.38 L
902.62 774.38 L
902.62 780.62 L
cp
S
GR
GS
[0.75 0 0 0.75 0 -0.25] CT
10.0 ML
N
991.38 780.62 M
991.38 774.38 L
997.62 774.38 L
997.62 780.62 L
cp
S
GR
GS
[0.75 0 0 0.75 0 -0.25] CT
10.0 ML
N
1083.38 783.62 M
1083.38 777.38 L
1089.62 777.38 L
1089.62 783.62 L
cp
S
GR
GS
[0.75 0 0 0.75 0 -0.25] CT
10.0 ML
N
1177.38 784.62 M
1177.38 778.38 L
1183.62 778.38 L
1183.62 784.62 L
cp
S
GR
GS
[0.75 0 0 0.75 0 -0.25] CT
10.0 ML
N
1273.38 783.62 M
1273.38 777.38 L
1279.62 777.38 L
1279.62 783.62 L
cp
S
GR
GS
[0.75 0 0 0.75 0 -0.25] CT
10.0 ML
N
614.38 622.62 M
614.38 616.38 L
620.62 616.38 L
620.62 622.62 L
cp
S
GR
GS
[0.75 0 0 0.75 0 -0.25] CT
10.0 ML
N
706.38 626.62 M
706.38 620.38 L
712.62 620.38 L
712.62 626.62 L
cp
S
GR
GS
[0.75 0 0 0.75 0 -0.25] CT
10.0 ML
N
802.38 623.62 M
802.38 617.38 L
808.62 617.38 L
808.62 623.62 L
cp
S
GR
GS
[0.75 0 0 0.75 0 -0.25] CT
10.0 ML
N
894.38 626.62 M
894.38 620.38 L
900.62 620.38 L
900.62 626.62 L
cp
S
GR
GS
[0.75 0 0 0.75 0 -0.25] CT
10.0 ML
N
988.38 626.62 M
988.38 620.38 L
994.62 620.38 L
994.62 626.62 L
cp
S
GR
GS
[0.75 0 0 0.75 0 -0.25] CT
10.0 ML
N
1085.38 624.62 M
1085.38 618.38 L
1091.62 618.38 L
1091.62 624.62 L
cp
S
GR
GS
[0.75 0 0 0.75 0 -0.25] CT
10.0 ML
N
1177.38 627.62 M
1177.38 621.38 L
1183.62 621.38 L
1183.62 627.62 L
cp
S
GR
GS
[0.75 0 0 0.75 0 -0.25] CT
10.0 ML
N
1271.38 628.62 M
1271.38 622.38 L
1277.62 622.38 L
1277.62 628.62 L
cp
S
GR
GS
[0.75 0 0 0.75 0 -0.25] CT
10.0 ML
N
1365.38 628.62 M
1365.38 622.38 L
1371.62 622.38 L
1371.62 628.62 L
cp
S
GR
GS
[0.75 0 0 0.75 0 -0.25] CT
10.0 ML
N
615.38 465.62 M
615.38 459.38 L
621.62 459.38 L
621.62 465.62 L
cp
S
GR
GS
[0.75 0 0 0.75 0 -0.25] CT
10.0 ML
N
708.38 465.62 M
708.38 459.38 L
714.62 459.38 L
714.62 465.62 L
cp
S
GR
GS
[0.75 0 0 0.75 0 -0.25] CT
10.0 ML
N
800.38 468.62 M
800.38 462.38 L
806.62 462.38 L
806.62 468.62 L
cp
S
GR
GS
[0.75 0 0 0.75 0 -0.25] CT
10.0 ML
N
897.38 466.62 M
897.38 460.38 L
903.62 460.38 L
903.62 466.62 L
cp
S
GR
GS
[0.75 0 0 0.75 0 -0.25] CT
10.0 ML
N
988.38 469.62 M
988.38 463.38 L
994.62 463.38 L
994.62 469.62 L
cp
S
GR
GS
[0.75 0 0 0.75 0 -0.25] CT
10.0 ML
N
1085.38 467.62 M
1085.38 461.38 L
1091.62 461.38 L
1091.62 467.62 L
cp
S
GR
GS
[0.75 0 0 0.75 0 -0.25] CT
10.0 ML
N
1179.38 468.62 M
1179.38 462.38 L
1185.62 462.38 L
1185.62 468.62 L
cp
S
GR
GS
[0.75 0 0 0.75 0 -0.25] CT
10.0 ML
N
1271.38 470.62 M
1271.38 464.38 L
1277.62 464.38 L
1277.62 470.62 L
cp
S
GR
GS
[0.75 0 0 0.75 0 -0.25] CT
10.0 ML
N
1364.38 471.62 M
1364.38 465.38 L
1370.62 465.38 L
1370.62 471.62 L
cp
S
GR
GS
[0.75 0 0 0.75 0 -0.25] CT
10.0 ML
N
614.38 308.62 M
614.38 302.38 L
620.62 302.38 L
620.62 308.62 L
cp
S
GR
GS
[0.75 0 0 0.75 0 -0.25] CT
10.0 ML
N
706.38 310.62 M
706.38 304.38 L
712.62 304.38 L
712.62 310.62 L
cp
S
GR
GS
[0.75 0 0 0.75 0 -0.25] CT
10.0 ML
N
800.38 311.62 M
800.38 305.38 L
806.62 305.38 L
806.62 311.62 L
cp
S
GR
GS
[0.75 0 0 0.75 0 -0.25] CT
10.0 ML
N
897.38 309.62 M
897.38 303.38 L
903.62 303.38 L
903.62 309.62 L
cp
S
GR
GS
[0.75 0 0 0.75 0 -0.25] CT
10.0 ML
N
991.38 310.62 M
991.38 304.38 L
997.62 304.38 L
997.62 310.62 L
cp
S
GR
GS
[0.75 0 0 0.75 0 -0.25] CT
10.0 ML
N
1085.38 310.62 M
1085.38 304.38 L
1091.62 304.38 L
1091.62 310.62 L
cp
S
GR
GS
[0.75 0 0 0.75 0 -0.25] CT
10.0 ML
N
1179.38 310.62 M
1179.38 304.38 L
1185.62 304.38 L
1185.62 310.62 L
cp
S
GR
GS
[0.75 0 0 0.75 0 -0.25] CT
10.0 ML
N
1274.38 310.62 M
1274.38 304.38 L
1280.62 304.38 L
1280.62 310.62 L
cp
S
GR
GS
[0.75 0 0 0.75 0 -0.25] CT
10.0 ML
N
1368.38 312.62 M
1368.38 306.38 L
1374.62 306.38 L
1374.62 312.62 L
cp
S
GR
GS
[0.75 0 0 0.75 0 -0.25] CT
10.0 ML
N
708.38 150.62 M
708.38 144.38 L
714.62 144.38 L
714.62 150.62 L
cp
S
GR
GS
[0.75 0 0 0.75 0 -0.25] CT
10.0 ML
N
802.38 152.62 M
802.38 146.38 L
808.62 146.38 L
808.62 152.62 L
cp
S
GR
GS
[0.75 0 0 0.75 0 -0.25] CT
10.0 ML
N
896.38 153.62 M
896.38 147.38 L
902.62 147.38 L
902.62 153.62 L
cp
S
GR
GS
[0.75 0 0 0.75 0 -0.25] CT
10.0 ML
N
988.38 156.62 M
988.38 150.38 L
994.62 150.38 L
994.62 156.62 L
cp
S
GR
GS
[0.75 0 0 0.75 0 -0.25] CT
10.0 ML
N
1083.38 156.62 M
1083.38 150.38 L
1089.62 150.38 L
1089.62 156.62 L
cp
S
GR
GS
[0.75 0 0 0.75 0 -0.25] CT
10.0 ML
N
1180.38 154.62 M
1180.38 148.38 L
1186.62 148.38 L
1186.62 154.62 L
cp
S
GR
GS
[0.75 0 0 0.75 0 -0.25] CT
10.0 ML
N
1273.38 153.62 M
1273.38 147.38 L
1279.62 147.38 L
1279.62 153.62 L
cp
S
GR
GS
[0.75 0 0 0.75 0 -0.25] CT
0 1 0 RC
10.0 ML
N
707.38 781.62 M
707.38 775.38 L
713.62 775.38 L
713.62 781.62 L
cp
S
GR
GS
[0.75 0 0 0.75 0 -0.25] CT
0 1 0 RC
10.0 ML
N
800.38 781.62 M
800.38 775.38 L
806.62 775.38 L
806.62 781.62 L
cp
S
GR
GS
[0.75 0 0 0.75 0 -0.25] CT
0 1 0 RC
10.0 ML
N
897.38 778.62 M
897.38 772.38 L
903.62 772.38 L
903.62 778.62 L
cp
S
GR
GS
[0.75 0 0 0.75 0 -0.25] CT
0 1 0 RC
10.0 ML
N
991.38 778.62 M
991.38 772.38 L
997.62 772.38 L
997.62 778.62 L
cp
S
GR
GS
[0.75 0 0 0.75 0 -0.25] CT
0 1 0 RC
10.0 ML
N
1083.38 781.62 M
1083.38 775.38 L
1089.62 775.38 L
1089.62 781.62 L
cp
S
GR
GS
[0.75 0 0 0.75 0 -0.25] CT
0 1 0 RC
10.0 ML
N
1178.38 782.62 M
1178.38 776.38 L
1184.62 776.38 L
1184.62 782.62 L
cp
S
GR
GS
[0.75 0 0 0.75 0 -0.25] CT
0 1 0 RC
10.0 ML
N
1274.38 781.62 M
1274.38 775.38 L
1280.62 775.38 L
1280.62 781.62 L
cp
S
GR
GS
[0.75 0 0 0.75 0 -0.25] CT
0 1 0 RC
10.0 ML
N
614.38 621.62 M
614.38 615.38 L
620.62 615.38 L
620.62 621.62 L
cp
S
GR
GS
[0.75 0 0 0.75 0 -0.25] CT
0 1 0 RC
10.0 ML
N
706.38 625.62 M
706.38 619.38 L
712.62 619.38 L
712.62 625.62 L
cp
S
GR
GS
[0.75 0 0 0.75 0 -0.25] CT
0 1 0 RC
10.0 ML
N
803.38 622.62 M
803.38 616.38 L
809.62 616.38 L
809.62 622.62 L
cp
S
GR
GS
[0.75 0 0 0.75 0 -0.25] CT
0 1 0 RC
10.0 ML
N
894.38 625.62 M
894.38 619.38 L
900.62 619.38 L
900.62 625.62 L
cp
S
GR
GS
[0.75 0 0 0.75 0 -0.25] CT
0 1 0 RC
10.0 ML
N
988.38 626.62 M
988.38 620.38 L
994.62 620.38 L
994.62 626.62 L
cp
S
GR
GS
[0.75 0 0 0.75 0 -0.25] CT
0 1 0 RC
10.0 ML
N
1084.38 624.62 M
1084.38 618.38 L
1090.62 618.38 L
1090.62 624.62 L
cp
S
GR
GS
[0.75 0 0 0.75 0 -0.25] CT
0 1 0 RC
10.0 ML
N
1176.38 627.62 M
1176.38 621.38 L
1182.62 621.38 L
1182.62 627.62 L
cp
S
GR
GS
[0.75 0 0 0.75 0 -0.25] CT
0 1 0 RC
10.0 ML
N
1270.38 629.62 M
1270.38 623.38 L
1276.62 623.38 L
1276.62 629.62 L
cp
S
GR
GS
[0.75 0 0 0.75 0 -0.25] CT
0 1 0 RC
10.0 ML
N
1364.38 629.62 M
1364.38 623.38 L
1370.62 623.38 L
1370.62 629.62 L
cp
S
GR
GS
[0.75 0 0 0.75 0 -0.25] CT
0 1 0 RC
10.0 ML
N
615.38 464.62 M
615.38 458.38 L
621.62 458.38 L
621.62 464.62 L
cp
S
GR
GS
[0.75 0 0 0.75 0 -0.25] CT
0 1 0 RC
10.0 ML
N
708.38 464.62 M
708.38 458.38 L
714.62 458.38 L
714.62 464.62 L
cp
S
GR
GS
[0.75 0 0 0.75 0 -0.25] CT
0 1 0 RC
10.0 ML
N
800.38 468.62 M
800.38 462.38 L
806.62 462.38 L
806.62 468.62 L
cp
S
GR
GS
[0.75 0 0 0.75 0 -0.25] CT
0 1 0 RC
10.0 ML
N
896.38 466.62 M
896.38 460.38 L
902.62 460.38 L
902.62 466.62 L
cp
S
GR
GS
[0.75 0 0 0.75 0 -0.25] CT
0 1 0 RC
10.0 ML
N
987.38 469.62 M
987.38 463.38 L
993.62 463.38 L
993.62 469.62 L
cp
S
GR
GS
[0.75 0 0 0.75 0 -0.25] CT
0 1 0 RC
10.0 ML
N
1083.38 468.62 M
1083.38 462.38 L
1089.62 462.38 L
1089.62 468.62 L
cp
S
GR
GS
[0.75 0 0 0.75 0 -0.25] CT
0 1 0 RC
10.0 ML
N
1176.38 469.62 M
1176.38 463.38 L
1182.62 463.38 L
1182.62 469.62 L
cp
S
GR
GS
[0.75 0 0 0.75 0 -0.25] CT
0 1 0 RC
10.0 ML
N
1268.38 473.62 M
1268.38 467.38 L
1274.62 467.38 L
1274.62 473.62 L
cp
S
GR
GS
[0.75 0 0 0.75 0 -0.25] CT
0 1 0 RC
10.0 ML
N
1360.38 475.62 M
1360.38 469.38 L
1366.62 469.38 L
1366.62 475.62 L
cp
S
GR
GS
[0.75 0 0 0.75 0 -0.25] CT
0 1 0 RC
10.0 ML
N
615.38 306.62 M
615.38 300.38 L
621.62 300.38 L
621.62 306.62 L
cp
S
GR
GS
[0.75 0 0 0.75 0 -0.25] CT
0 1 0 RC
10.0 ML
N
706.38 308.62 M
706.38 302.38 L
712.62 302.38 L
712.62 308.62 L
cp
S
GR
GS
[0.75 0 0 0.75 0 -0.25] CT
0 1 0 RC
10.0 ML
N
800.38 310.62 M
800.38 304.38 L
806.62 304.38 L
806.62 310.62 L
cp
S
GR
GS
[0.75 0 0 0.75 0 -0.25] CT
0 1 0 RC
10.0 ML
N
896.38 309.62 M
896.38 303.38 L
902.62 303.38 L
902.62 309.62 L
cp
S
GR
GS
[0.75 0 0 0.75 0 -0.25] CT
0 1 0 RC
10.0 ML
N
989.38 310.62 M
989.38 304.38 L
995.62 304.38 L
995.62 310.62 L
cp
S
GR
GS
[0.75 0 0 0.75 0 -0.25] CT
0 1 0 RC
10.0 ML
N
1082.38 312.62 M
1082.38 306.38 L
1088.62 306.38 L
1088.62 312.62 L
cp
S
GR
GS
[0.75 0 0 0.75 0 -0.25] CT
0 1 0 RC
10.0 ML
N
1175.38 313.62 M
1175.38 307.38 L
1181.62 307.38 L
1181.62 313.62 L
cp
S
GR
GS
[0.75 0 0 0.75 0 -0.25] CT
0 1 0 RC
10.0 ML
N
1269.38 315.62 M
1269.38 309.38 L
1275.62 309.38 L
1275.62 315.62 L
cp
S
GR
GS
[0.75 0 0 0.75 0 -0.25] CT
0 1 0 RC
10.0 ML
N
1362.38 318.62 M
1362.38 312.38 L
1368.62 312.38 L
1368.62 318.62 L
cp
S
GR
GS
[0.75 0 0 0.75 0 -0.25] CT
0 1 0 RC
10.0 ML
N
709.38 147.62 M
709.38 141.38 L
715.62 141.38 L
715.62 147.62 L
cp
S
GR
GS
[0.75 0 0 0.75 0 -0.25] CT
0 1 0 RC
10.0 ML
N
802.38 149.62 M
802.38 143.38 L
808.62 143.38 L
808.62 149.62 L
cp
S
GR
GS
[0.75 0 0 0.75 0 -0.25] CT
0 1 0 RC
10.0 ML
N
895.38 151.62 M
895.38 145.38 L
901.62 145.38 L
901.62 151.62 L
cp
S
GR
GS
[0.75 0 0 0.75 0 -0.25] CT
0 1 0 RC
10.0 ML
N
986.38 155.62 M
986.38 149.38 L
992.62 149.38 L
992.62 155.62 L
cp
S
GR
GS
[0.75 0 0 0.75 0 -0.25] CT
0 1 0 RC
10.0 ML
N
1079.38 157.62 M
1079.38 151.38 L
1085.62 151.38 L
1085.62 157.62 L
cp
S
GR
GS
[0.75 0 0 0.75 0 -0.25] CT
0 1 0 RC
10.0 ML
N
1174.38 157.62 M
1174.38 151.38 L
1180.62 151.38 L
1180.62 157.62 L
cp
S
GR
GS
[0.75 0 0 0.75 0 -0.25] CT
0 1 0 RC
10.0 ML
N
1267.38 158.62 M
1267.38 152.38 L
1273.62 152.38 L
1273.62 158.62 L
cp
S
GR
GS
[0.75 0 0 0.75 551.21251 583.625] CT
0 0 1 RC
/Helvetica 13.333 F
GS
[1 0 0 1 0 0] CT
0 5.5 moveto 
1 -1 scale
(1) t 
GR
GR
GS
[0.75 0 0 0.75 551.4109 582.87651] CT
1 0 0 RC
/Helvetica 13.333 F
GS
[1 0 0 1 0 0] CT
0 5.5 moveto 
1 -1 scale
(1) t 
GR
GR
GS
[0.75 0 0 0.75 549.69447 585.00186] CT
/Helvetica 13.333 F
GS
[1 0 0 1 0 0] CT
0 5.5 moveto 
1 -1 scale
(1) t 
GR
GR
GS
[0.75 0 0 0.75 550.27853 583.9756] CT
0 1 0 RC
/Helvetica 13.333 F
GS
[1 0 0 1 0 0] CT
0 5.5 moveto 
1 -1 scale
(1) t 
GR
GR
GS
[0.75 0 0 0.75 0 -0.25] CT
1 0 0 RC
1 LJ
0.667 LW
N
711.4 778.5 M
711.665 777.502 L
S
GR
GS
[0.75 0 0 0.75 0 -0.25] CT
1 LJ
0.667 LW
N
711.4 778.5 M
709.376 780.336 L
S
GR
GS
[0.75 0 0 0.75 0 -0.25] CT
0 1 0 RC
1 LJ
0.667 LW
N
711.4 778.5 M
710.155 778.967 L
S
GR
GS
[0.75 0 0 0.75 621.86252 583.625] CT
0 0 1 RC
/Helvetica 13.333 F
GS
[1 0 0 1 0 0] CT
0 5.5 moveto 
1 -1 scale
(2) t 
GR
GR
GS
[0.75 0 0 0.75 621.17601 582.45216] CT
1 0 0 RC
/Helvetica 13.333 F
GS
[1 0 0 1 0 0] CT
0 5.5 moveto 
1 -1 scale
(2) t 
GR
GR
GS
[0.75 0 0 0.75 619.90938 584.55124] CT
/Helvetica 13.333 F
GS
[1 0 0 1 0 0] CT
0 5.5 moveto 
1 -1 scale
(2) t 
GR
GR
GS
[0.75 0 0 0.75 620.49014 583.36659] CT
0 1 0 RC
/Helvetica 13.333 F
GS
[1 0 0 1 0 0] CT
0 5.5 moveto 
1 -1 scale
(2) t 
GR
GR
GS
[0.75 0 0 0.75 0 -0.25] CT
1 0 0 RC
1 LJ
0.667 LW
N
805.6 778.5 M
804.685 776.936 L
S
GR
GS
[0.75 0 0 0.75 0 -0.25] CT
1 LJ
0.667 LW
N
805.6 778.5 M
802.996 779.735 L
S
GR
GS
[0.75 0 0 0.75 0 -0.25] CT
0 1 0 RC
1 LJ
0.667 LW
N
805.6 778.5 M
803.77 778.155 L
S
GR
GS
[0.75 0 0 0.75 692.51248 583.625] CT
0 0 1 RC
/Helvetica 13.333 F
GS
[1 0 0 1 0 0] CT
0 5.5 moveto 
1 -1 scale
(3) t 
GR
GR
GS
[0.75 0 0 0.75 691.78862 582.43582] CT
1 0 0 RC
/Helvetica 13.333 F
GS
[1 0 0 1 0 0] CT
0 5.5 moveto 
1 -1 scale
(3) t 
GR
GR
GS
[0.75 0 0 0.75 692.62683 582.76097] CT
/Helvetica 13.333 F
GS
[1 0 0 1 0 0] CT
0 5.5 moveto 
1 -1 scale
(3) t 
GR
GR
GS
[0.75 0 0 0.75 693.17825 581.45396] CT
0 1 0 RC
/Helvetica 13.333 F
GS
[1 0 0 1 0 0] CT
0 5.5 moveto 
1 -1 scale
(3) t 
GR
GR
GS
[0.75 0 0 0.75 0 -0.25] CT
1 0 0 RC
1 LJ
0.667 LW
N
899.8 778.5 M
898.835 776.914 L
S
GR
GS
[0.75 0 0 0.75 0 -0.25] CT
1 LJ
0.667 LW
N
899.8 778.5 M
899.952 777.348 L
S
GR
GS
[0.75 0 0 0.75 0 -0.25] CT
0 1 0 RC
1 LJ
0.667 LW
N
899.8 778.5 M
900.688 775.605 L
S
GR
GS
[0.75 0 0 0.75 763.16249 583.625] CT
0 0 1 RC
/Helvetica 13.333 F
GS
[1 0 0 1 0 0] CT
0 5.5 moveto 
1 -1 scale
(4) t 
GR
GR
GS
[0.75 0 0 0.75 762.43858 582.41486] CT
1 0 0 RC
/Helvetica 13.333 F
GS
[1 0 0 1 0 0] CT
0 5.5 moveto 
1 -1 scale
(4) t 
GR
GR
GS
[0.75 0 0 0.75 763.39526 583.01306] CT
/Helvetica 13.333 F
GS
[1 0 0 1 0 0] CT
0 5.5 moveto 
1 -1 scale
(4) t 
GR
GR
GS
[0.75 0 0 0.75 763.89926 581.61647] CT
0 1 0 RC
/Helvetica 13.333 F
GS
[1 0 0 1 0 0] CT
0 5.5 moveto 
1 -1 scale
(4) t 
GR
GR
GS
[0.75 0 0 0.75 0 -0.25] CT
1 0 0 RC
1 LJ
0.667 LW
N
994 778.5 M
993.035 776.886 L
S
GR
GS
[0.75 0 0 0.75 0 -0.25] CT
1 LJ
0.667 LW
N
994 778.5 M
994.31 777.684 L
S
GR
GS
[0.75 0 0 0.75 0 -0.25] CT
0 1 0 RC
1 LJ
0.667 LW
N
994 778.5 M
994.982 775.822 L
S
GR
GS
[0.75 0 0 0.75 833.8125 583.625] CT
0 0 1 RC
/Helvetica 13.333 F
GS
[1 0 0 1 0 0] CT
0 5.5 moveto 
1 -1 scale
(5) t 
GR
GR
GS
[0.75 0 0 0.75 833.02313 582.41486] CT
1 0 0 RC
/Helvetica 13.333 F
GS
[1 0 0 1 0 0] CT
0 5.5 moveto 
1 -1 scale
(5) t 
GR
GR
GS
[0.75 0 0 0.75 832.27478 585.2123] CT
/Helvetica 13.333 F
GS
[1 0 0 1 0 0] CT
0 5.5 moveto 
1 -1 scale
(5) t 
GR
GR
GS
[0.75 0 0 0.75 832.70837 583.76558] CT
0 1 0 RC
/Helvetica 13.333 F
GS
[1 0 0 1 0 0] CT
0 5.5 moveto 
1 -1 scale
(5) t 
GR
GR
GS
[0.75 0 0 0.75 0 -0.25] CT
1 0 0 RC
1 LJ
0.667 LW
N
1088.2 778.5 M
1087.148 776.886 L
S
GR
GS
[0.75 0 0 0.75 0 -0.25] CT
1 LJ
0.667 LW
N
1088.2 778.5 M
1086.15 780.616 L
S
GR
GS
[0.75 0 0 0.75 0 -0.25] CT
0 1 0 RC
1 LJ
0.667 LW
N
1088.2 778.5 M
1086.728 778.687 L
S
GR
GS
[0.75 0 0 0.75 904.46246 583.625] CT
0 0 1 RC
/Helvetica 13.333 F
GS
[1 0 0 1 0 0] CT
0 5.5 moveto 
1 -1 scale
(6) t 
GR
GR
GS
[0.75 0 0 0.75 903.59143 582.42186] CT
1 0 0 RC
/Helvetica 13.333 F
GS
[1 0 0 1 0 0] CT
0 5.5 moveto 
1 -1 scale
(6) t 
GR
GR
GS
[0.75 0 0 0.75 903.1149 585.81659] CT
/Helvetica 13.333 F
GS
[1 0 0 1 0 0] CT
0 5.5 moveto 
1 -1 scale
(6) t 
GR
GR
GS
[0.75 0 0 0.75 903.45282 584.35344] CT
0 1 0 RC
/Helvetica 13.333 F
GS
[1 0 0 1 0 0] CT
0 5.5 moveto 
1 -1 scale
(6) t 
GR
GR
GS
[0.75 0 0 0.75 0 -0.25] CT
1 0 0 RC
1 LJ
0.667 LW
N
1182.4 778.5 M
1181.239 776.896 L
S
GR
GS
[0.75 0 0 0.75 0 -0.25] CT
1 LJ
0.667 LW
N
1182.4 778.5 M
1180.603 781.422 L
S
GR
GS
[0.75 0 0 0.75 0 -0.25] CT
0 1 0 RC
1 LJ
0.667 LW
N
1182.4 778.5 M
1181.054 779.471 L
S
GR
GS
[0.75 0 0 0.75 975.11252 583.625] CT
0 0 1 RC
/Helvetica 13.333 F
GS
[1 0 0 1 0 0] CT
0 5.5 moveto 
1 -1 scale
(7) t 
GR
GR
GS
[0.75 0 0 0.75 973.45459 582.83925] CT
1 0 0 RC
/Helvetica 13.333 F
GS
[1 0 0 1 0 0] CT
0 5.5 moveto 
1 -1 scale
(7) t 
GR
GR
GS
[0.75 0 0 0.75 975.22293 585.11937] CT
/Helvetica 13.333 F
GS
[1 0 0 1 0 0] CT
0 5.5 moveto 
1 -1 scale
(7) t 
GR
GR
GS
[0.75 0 0 0.75 975.44092 583.67622] CT
0 1 0 RC
/Helvetica 13.333 F
GS
[1 0 0 1 0 0] CT
0 5.5 moveto 
1 -1 scale
(7) t 
GR
GR
GS
[0.75 0 0 0.75 0 -0.25] CT
1 0 0 RC
1 LJ
0.667 LW
N
1276.6 778.5 M
1274.389 777.452 L
S
GR
GS
[0.75 0 0 0.75 0 -0.25] CT
1 LJ
0.667 LW
N
1276.6 778.5 M
1276.747 780.492 L
S
GR
GS
[0.75 0 0 0.75 0 -0.25] CT
0 1 0 RC
1 LJ
0.667 LW
N
1276.6 778.5 M
1277.038 778.568 L
S
GR
GS
[0.75 0 0 0.75 480.5625 465.875] CT
0 0 1 RC
/Helvetica 13.333 F
GS
[1 0 0 1 0 0] CT
0 5.5 moveto 
1 -1 scale
(8) t 
GR
GR
GS
[0.75 0 0 0.75 481.36565 466.05453] CT
1 0 0 RC
/Helvetica 13.333 F
GS
[1 0 0 1 0 0] CT
0 5.5 moveto 
1 -1 scale
(8) t 
GR
GR
GS
[0.75 0 0 0.75 480.77925 464.46065] CT
/Helvetica 13.333 F
GS
[1 0 0 1 0 0] CT
0 5.5 moveto 
1 -1 scale
(8) t 
GR
GR
GS
[0.75 0 0 0.75 481.11882 463.84377] CT
0 1 0 RC
/Helvetica 13.333 F
GS
[1 0 0 1 0 0] CT
0 5.5 moveto 
1 -1 scale
(8) t 
GR
GR
GS
[0.75 0 0 0.75 0 -0.25] CT
1 0 0 RC
1 LJ
0.667 LW
N
617.2 621.5 M
618.271 621.739 L
S
GR
GS
[0.75 0 0 0.75 0 -0.25] CT
1 LJ
0.667 LW
N
617.2 621.5 M
617.489 619.614 L
S
GR
GS
[0.75 0 0 0.75 0 -0.25] CT
0 1 0 RC
1 LJ
0.667 LW
N
617.2 621.5 M
617.942 618.792 L
S
GR
GS
[0.75 0 0 0.75 551.21251 465.875] CT
0 0 1 RC
/Helvetica 13.333 F
GS
[1 0 0 1 0 0] CT
0 5.5 moveto 
1 -1 scale
(9) t 
GR
GR
GS
[0.75 0 0 0.75 551.16344 466.71674] CT
1 0 0 RC
/Helvetica 13.333 F
GS
[1 0 0 1 0 0] CT
0 5.5 moveto 
1 -1 scale
(9) t 
GR
GR
GS
[0.75 0 0 0.75 549.48903 467.00494] CT
/Helvetica 13.333 F
GS
[1 0 0 1 0 0] CT
0 5.5 moveto 
1 -1 scale
(9) t 
GR
GR
GS
[0.75 0 0 0.75 549.75687 466.31573] CT
0 1 0 RC
/Helvetica 13.333 F
GS
[1 0 0 1 0 0] CT
0 5.5 moveto 
1 -1 scale
(9) t 
GR
GR
GS
[0.75 0 0 0.75 0 -0.25] CT
1 0 0 RC
1 LJ
0.667 LW
N
711.4 621.5 M
711.335 622.622 L
S
GR
GS
[0.75 0 0 0.75 0 -0.25] CT
1 LJ
0.667 LW
N
711.4 621.5 M
709.102 623.007 L
S
GR
GS
[0.75 0 0 0.75 0 -0.25] CT
0 1 0 RC
1 LJ
0.667 LW
N
711.4 621.5 M
709.459 622.088 L
S
GR
GS
[0.75 0 0 0.75 621.86252 465.875] CT
0 0 1 RC
/Helvetica 13.333 F
GS
[1 0 0 1 0 0] CT
0 5.5 moveto 
1 -1 scale
(10) t 
GR
GR
GS
[0.75 0 0 0.75 621.65465 466.70039] CT
1 0 0 RC
/Helvetica 13.333 F
GS
[1 0 0 1 0 0] CT
0 5.5 moveto 
1 -1 scale
(10) t 
GR
GR
GS
[0.75 0 0 0.75 622.14249 465.33804] CT
/Helvetica 13.333 F
GS
[1 0 0 1 0 0] CT
0 5.5 moveto 
1 -1 scale
(10) t 
GR
GR
GS
[0.75 0 0 0.75 622.28558 464.65227] CT
0 1 0 RC
/Helvetica 13.333 F
GS
[1 0 0 1 0 0] CT
0 5.5 moveto 
1 -1 scale
(10) t 
GR
GR
GS
[0.75 0 0 0.75 0 -0.25] CT
1 0 0 RC
1 LJ
0.667 LW
N
805.6 621.5 M
805.323 622.601 L
S
GR
GS
[0.75 0 0 0.75 0 -0.25] CT
1 LJ
0.667 LW
N
805.6 621.5 M
805.973 620.784 L
S
GR
GS
[0.75 0 0 0.75 0 -0.25] CT
0 1 0 RC
1 LJ
0.667 LW
N
805.6 621.5 M
806.164 619.87 L
S
GR
GS
[0.75 0 0 0.75 692.51248 465.875] CT
0 0 1 RC
/Helvetica 13.333 F
GS
[1 0 0 1 0 0] CT
0 5.5 moveto 
1 -1 scale
(11) t 
GR
GR
GS
[0.75 0 0 0.75 692.28127 466.6911] CT
1 0 0 RC
/Helvetica 13.333 F
GS
[1 0 0 1 0 0] CT
0 5.5 moveto 
1 -1 scale
(11) t 
GR
GR
GS
[0.75 0 0 0.75 691.0453 467.33728] CT
/Helvetica 13.333 F
GS
[1 0 0 1 0 0] CT
0 5.5 moveto 
1 -1 scale
(11) t 
GR
GR
GS
[0.75 0 0 0.75 691.04173 466.71463] CT
0 1 0 RC
/Helvetica 13.333 F
GS
[1 0 0 1 0 0] CT
0 5.5 moveto 
1 -1 scale
(11) t 
GR
GR
GS
[0.75 0 0 0.75 0 -0.25] CT
1 0 0 RC
1 LJ
0.667 LW
N
899.8 621.5 M
899.492 622.588 L
S
GR
GS
[0.75 0 0 0.75 0 -0.25] CT
1 LJ
0.667 LW
N
899.8 621.5 M
897.844 623.45 L
S
GR
GS
[0.75 0 0 0.75 0 -0.25] CT
0 1 0 RC
1 LJ
0.667 LW
N
899.8 621.5 M
897.839 622.62 L
S
GR
GS
[0.75 0 0 0.75 763.16249 465.875] CT
0 0 1 RC
/Helvetica 13.333 F
GS
[1 0 0 1 0 0] CT
0 5.5 moveto 
1 -1 scale
(12) t 
GR
GR
GS
[0.75 0 0 0.75 762.9359 466.6911] CT
1 0 0 RC
/Helvetica 13.333 F
GS
[1 0 0 1 0 0] CT
0 5.5 moveto 
1 -1 scale
(12) t 
GR
GR
GS
[0.75 0 0 0.75 761.62349 467.63634] CT
/Helvetica 13.333 F
GS
[1 0 0 1 0 0] CT
0 5.5 moveto 
1 -1 scale
(12) t 
GR
GR
GS
[0.75 0 0 0.75 761.42972 467.15079] CT
0 1 0 RC
/Helvetica 13.333 F
GS
[1 0 0 1 0 0] CT
0 5.5 moveto 
1 -1 scale
(12) t 
GR
GR
GS
[0.75 0 0 0.75 0 -0.25] CT
1 0 0 RC
1 LJ
0.667 LW
N
994 621.5 M
993.698 622.588 L
S
GR
GS
[0.75 0 0 0.75 0 -0.25] CT
1 LJ
0.667 LW
N
994 621.5 M
991.948 623.848 L
S
GR
GS
[0.75 0 0 0.75 0 -0.25] CT
0 1 0 RC
1 LJ
0.667 LW
N
994 621.5 M
991.69 623.201 L
S
GR
GS
[0.75 0 0 0.75 833.8125 465.875] CT
0 0 1 RC
/Helvetica 13.333 F
GS
[1 0 0 1 0 0] CT
0 5.5 moveto 
1 -1 scale
(13) t 
GR
GR
GS
[0.75 0 0 0.75 833.51111 466.68877] CT
1 0 0 RC
/Helvetica 13.333 F
GS
[1 0 0 1 0 0] CT
0 5.5 moveto 
1 -1 scale
(13) t 
GR
GR
GS
[0.75 0 0 0.75 833.92099 466.20313] CT
/Helvetica 13.333 F
GS
[1 0 0 1 0 0] CT
0 5.5 moveto 
1 -1 scale
(13) t 
GR
GR
GS
[0.75 0 0 0.75 833.47659 465.94971] CT
0 1 0 RC
/Helvetica 13.333 F
GS
[1 0 0 1 0 0] CT
0 5.5 moveto 
1 -1 scale
(13) t 
GR
GR
GS
[0.75 0 0 0.75 0 -0.25] CT
1 0 0 RC
1 LJ
0.667 LW
N
1088.2 621.5 M
1087.798 622.585 L
S
GR
GS
[0.75 0 0 0.75 0 -0.25] CT
1 LJ
0.667 LW
N
1088.2 621.5 M
1088.345 621.938 L
S
GR
GS
[0.75 0 0 0.75 0 -0.25] CT
0 1 0 RC
1 LJ
0.667 LW
N
1088.2 621.5 M
1087.752 621.6 L
S
GR
GS
[0.75 0 0 0.75 904.46246 465.875] CT
0 0 1 RC
/Helvetica 13.333 F
GS
[1 0 0 1 0 0] CT
0 5.5 moveto 
1 -1 scale
(14) t 
GR
GR
GS
[0.75 0 0 0.75 904.07703 466.67009] CT
1 0 0 RC
/Helvetica 13.333 F
GS
[1 0 0 1 0 0] CT
0 5.5 moveto 
1 -1 scale
(14) t 
GR
GR
GS
[0.75 0 0 0.75 902.72891 468.44342] CT
/Helvetica 13.333 F
GS
[1 0 0 1 0 0] CT
0 5.5 moveto 
1 -1 scale
(14) t 
GR
GR
GS
[0.75 0 0 0.75 902.03384 468.44873] CT
0 1 0 RC
/Helvetica 13.333 F
GS
[1 0 0 1 0 0] CT
0 5.5 moveto 
1 -1 scale
(14) t 
GR
GR
GS
[0.75 0 0 0.75 0 -0.25] CT
1 0 0 RC
1 LJ
0.667 LW
N
1182.4 621.5 M
1181.886 622.56 L
S
GR
GS
[0.75 0 0 0.75 0 -0.25] CT
1 LJ
0.667 LW
N
1182.4 621.5 M
1180.089 624.925 L
S
GR
GS
[0.75 0 0 0.75 0 -0.25] CT
0 1 0 RC
1 LJ
0.667 LW
N
1182.4 621.5 M
1179.162 624.932 L
S
GR
GS
[0.75 0 0 0.75 975.11252 465.875] CT
0 0 1 RC
/Helvetica 13.333 F
GS
[1 0 0 1 0 0] CT
0 5.5 moveto 
1 -1 scale
(15) t 
GR
GR
GS
[0.75 0 0 0.75 974.68268 466.64445] CT
1 0 0 RC
/Helvetica 13.333 F
GS
[1 0 0 1 0 0] CT
0 5.5 moveto 
1 -1 scale
(15) t 
GR
GR
GS
[0.75 0 0 0.75 973.68723 468.93053] CT
/Helvetica 13.333 F
GS
[1 0 0 1 0 0] CT
0 5.5 moveto 
1 -1 scale
(15) t 
GR
GR
GS
[0.75 0 0 0.75 972.68372 469.28671] CT
0 1 0 RC
/Helvetica 13.333 F
GS
[1 0 0 1 0 0] CT
0 5.5 moveto 
1 -1 scale
(15) t 
GR
GR
GS
[0.75 0 0 0.75 0 -0.25] CT
1 0 0 RC
1 LJ
0.667 LW
N
1276.6 621.5 M
1276.027 622.526 L
S
GR
GS
[0.75 0 0 0.75 0 -0.25] CT
1 LJ
0.667 LW
N
1276.6 621.5 M
1274.7 625.574 L
S
GR
GS
[0.75 0 0 0.75 0 -0.25] CT
0 1 0 RC
1 LJ
0.667 LW
N
1276.6 621.5 M
1273.362 626.049 L
S
GR
GS
[0.75 0 0 0.75 1045.76248 465.875] CT
0 0 1 RC
/Helvetica 13.333 F
GS
[1 0 0 1 0 0] CT
0 5.5 moveto 
1 -1 scale
(16) t 
GR
GR
GS
[0.75 0 0 0.75 1044.62283 465.88901] CT
1 0 0 RC
/Helvetica 13.333 F
GS
[1 0 0 1 0 0] CT
0 5.5 moveto 
1 -1 scale
(16) t 
GR
GR
GS
[0.75 0 0 0.75 1044.36365 468.73026] CT
/Helvetica 13.333 F
GS
[1 0 0 1 0 0] CT
0 5.5 moveto 
1 -1 scale
(16) t 
GR
GR
GS
[0.75 0 0 0.75 1043.01059 469.51207] CT
0 1 0 RC
/Helvetica 13.333 F
GS
[1 0 0 1 0 0] CT
0 5.5 moveto 
1 -1 scale
(16) t 
GR
GR
GS
[0.75 0 0 0.75 0 -0.25] CT
1 0 0 RC
1 LJ
0.667 LW
N
1370.8 621.5 M
1369.28 621.519 L
S
GR
GS
[0.75 0 0 0.75 0 -0.25] CT
1 LJ
0.667 LW
N
1370.8 621.5 M
1368.935 625.307 L
S
GR
GS
[0.75 0 0 0.75 0 -0.25] CT
0 1 0 RC
1 LJ
0.667 LW
N
1370.8 621.5 M
1367.131 626.349 L
S
GR
GS
[0.75 0 0 0.75 480.5625 348.125] CT
0 0 1 RC
/Helvetica 13.333 F
GS
[1 0 0 1 0 0] CT
0 5.5 moveto 
1 -1 scale
(17) t 
GR
GR
GS
[0.75 0 0 0.75 482.15712 349.7152] CT
1 0 0 RC
/Helvetica 13.333 F
GS
[1 0 0 1 0 0] CT
0 5.5 moveto 
1 -1 scale
(17) t 
GR
GR
GS
[0.75 0 0 0.75 481.38391 346.58659] CT
/Helvetica 13.333 F
GS
[1 0 0 1 0 0] CT
0 5.5 moveto 
1 -1 scale
(17) t 
GR
GR
GS
[0.75 0 0 0.75 481.67271 345.83103] CT
0 1 0 RC
/Helvetica 13.333 F
GS
[1 0 0 1 0 0] CT
0 5.5 moveto 
1 -1 scale
(17) t 
GR
GR
GS
[0.75 0 0 0.75 0 -0.25] CT
1 0 0 RC
1 LJ
0.667 LW
N
617.2 464.5 M
619.326 466.62 L
S
GR
GS
[0.75 0 0 0.75 0 -0.25] CT
1 LJ
0.667 LW
N
617.2 464.5 M
618.295 462.449 L
S
GR
GS
[0.75 0 0 0.75 0 -0.25] CT
0 1 0 RC
1 LJ
0.667 LW
N
617.2 464.5 M
618.68 461.441 L
S
GR
GS
[0.75 0 0 0.75 551.21251 348.125] CT
0 0 1 RC
/Helvetica 13.333 F
GS
[1 0 0 1 0 0] CT
0 5.5 moveto 
1 -1 scale
(18) t 
GR
GR
GS
[0.75 0 0 0.75 551.63274 349.71987] CT
1 0 0 RC
/Helvetica 13.333 F
GS
[1 0 0 1 0 0] CT
0 5.5 moveto 
1 -1 scale
(18) t 
GR
GR
GS
[0.75 0 0 0.75 551.52214 346.923] CT
/Helvetica 13.333 F
GS
[1 0 0 1 0 0] CT
0 5.5 moveto 
1 -1 scale
(18) t 
GR
GR
GS
[0.75 0 0 0.75 551.5919 346.24458] CT
0 1 0 RC
/Helvetica 13.333 F
GS
[1 0 0 1 0 0] CT
0 5.5 moveto 
1 -1 scale
(18) t 
GR
GR
GS
[0.75 0 0 0.75 0 -0.25] CT
1 0 0 RC
1 LJ
0.667 LW
N
711.4 464.5 M
711.96 466.626 L
S
GR
GS
[0.75 0 0 0.75 0 -0.25] CT
1 LJ
0.667 LW
N
711.4 464.5 M
711.813 462.897 L
S
GR
GS
[0.75 0 0 0.75 0 -0.25] CT
0 1 0 RC
1 LJ
0.667 LW
N
711.4 464.5 M
711.906 461.993 L
S
GR
GS
[0.75 0 0 0.75 621.86252 348.125] CT
0 0 1 RC
/Helvetica 13.333 F
GS
[1 0 0 1 0 0] CT
0 5.5 moveto 
1 -1 scale
(19) t 
GR
GR
GS
[0.75 0 0 0.75 622.14024 349.71287] CT
1 0 0 RC
/Helvetica 13.333 F
GS
[1 0 0 1 0 0] CT
0 5.5 moveto 
1 -1 scale
(19) t 
GR
GR
GS
[0.75 0 0 0.75 620.49976 349.0489] CT
/Helvetica 13.333 F
GS
[1 0 0 1 0 0] CT
0 5.5 moveto 
1 -1 scale
(19) t 
GR
GR
GS
[0.75 0 0 0.75 620.30653 348.55257] CT
0 1 0 RC
/Helvetica 13.333 F
GS
[1 0 0 1 0 0] CT
0 5.5 moveto 
1 -1 scale
(19) t 
GR
GR
GS
[0.75 0 0 0.75 0 -0.25] CT
1 0 0 RC
1 LJ
0.667 LW
N
805.6 464.5 M
805.97 466.617 L
S
GR
GS
[0.75 0 0 0.75 0 -0.25] CT
1 LJ
0.667 LW
N
805.6 464.5 M
803.783 465.732 L
S
GR
GS
[0.75 0 0 0.75 0 -0.25] CT
0 1 0 RC
1 LJ
0.667 LW
N
805.6 464.5 M
803.525 465.07 L
S
GR
GS
[0.75 0 0 0.75 692.51248 348.125] CT
0 0 1 RC
/Helvetica 13.333 F
GS
[1 0 0 1 0 0] CT
0 5.5 moveto 
1 -1 scale
(20) t 
GR
GR
GS
[0.75 0 0 0.75 692.74818 349.71053] CT
1 0 0 RC
/Helvetica 13.333 F
GS
[1 0 0 1 0 0] CT
0 5.5 moveto 
1 -1 scale
(20) t 
GR
GR
GS
[0.75 0 0 0.75 692.89728 347.58379] CT
/Helvetica 13.333 F
GS
[1 0 0 1 0 0] CT
0 5.5 moveto 
1 -1 scale
(20) t 
GR
GR
GS
[0.75 0 0 0.75 692.36288 347.3886] CT
0 1 0 RC
/Helvetica 13.333 F
GS
[1 0 0 1 0 0] CT
0 5.5 moveto 
1 -1 scale
(20) t 
GR
GR
GS
[0.75 0 0 0.75 0 -0.25] CT
1 0 0 RC
1 LJ
0.667 LW
N
899.8 464.5 M
900.114 466.614 L
S
GR
GS
[0.75 0 0 0.75 0 -0.25] CT
1 LJ
0.667 LW
N
899.8 464.5 M
900.313 463.778 L
S
GR
GS
[0.75 0 0 0.75 0 -0.25] CT
0 1 0 RC
1 LJ
0.667 LW
N
899.8 464.5 M
899.601 463.518 L
S
GR
GS
[0.75 0 0 0.75 763.16249 348.125] CT
0 0 1 RC
/Helvetica 13.333 F
GS
[1 0 0 1 0 0] CT
0 5.5 moveto 
1 -1 scale
(21) t 
GR
GR
GS
[0.75 0 0 0.75 763.40982 349.70822] CT
1 0 0 RC
/Helvetica 13.333 F
GS
[1 0 0 1 0 0] CT
0 5.5 moveto 
1 -1 scale
(21) t 
GR
GR
GS
[0.75 0 0 0.75 761.60907 349.72024] CT
/Helvetica 13.333 F
GS
[1 0 0 1 0 0] CT
0 5.5 moveto 
1 -1 scale
(21) t 
GR
GR
GS
[0.75 0 0 0.75 760.71181 349.90788] CT
0 1 0 RC
/Helvetica 13.333 F
GS
[1 0 0 1 0 0] CT
0 5.5 moveto 
1 -1 scale
(21) t 
GR
GR
GS
[0.75 0 0 0.75 0 -0.25] CT
1 0 0 RC
1 LJ
0.667 LW
N
994 464.5 M
994.33 466.611 L
S
GR
GS
[0.75 0 0 0.75 0 -0.25] CT
1 LJ
0.667 LW
N
994 464.5 M
991.929 466.627 L
S
GR
GS
[0.75 0 0 0.75 0 -0.25] CT
0 1 0 RC
1 LJ
0.667 LW
N
994 464.5 M
990.732 466.877 L
S
GR
GS
[0.75 0 0 0.75 833.8125 348.125] CT
0 0 1 RC
/Helvetica 13.333 F
GS
[1 0 0 1 0 0] CT
0 5.5 moveto 
1 -1 scale
(22) t 
GR
GR
GS
[0.75 0 0 0.75 833.98975 349.70355] CT
1 0 0 RC
/Helvetica 13.333 F
GS
[1 0 0 1 0 0] CT
0 5.5 moveto 
1 -1 scale
(22) t 
GR
GR
GS
[0.75 0 0 0.75 833.84894 348.23392] CT
/Helvetica 13.333 F
GS
[1 0 0 1 0 0] CT
0 5.5 moveto 
1 -1 scale
(22) t 
GR
GR
GS
[0.75 0 0 0.75 832.49149 348.95174] CT
0 1 0 RC
/Helvetica 13.333 F
GS
[1 0 0 1 0 0] CT
0 5.5 moveto 
1 -1 scale
(22) t 
GR
GR
GS
[0.75 0 0 0.75 0 -0.25] CT
1 0 0 RC
1 LJ
0.667 LW
N
1088.2 464.5 M
1088.436 466.605 L
S
GR
GS
[0.75 0 0 0.75 0 -0.25] CT
1 LJ
0.667 LW
N
1088.2 464.5 M
1088.249 464.645 L
S
GR
GS
[0.75 0 0 0.75 0 -0.25] CT
0 1 0 RC
1 LJ
0.667 LW
N
1088.2 464.5 M
1086.439 465.602 L
S
GR
GS
[0.75 0 0 0.75 904.46246 348.125] CT
0 0 1 RC
/Helvetica 13.333 F
GS
[1 0 0 1 0 0] CT
0 5.5 moveto 
1 -1 scale
(23) t 
GR
GR
GS
[0.75 0 0 0.75 904.55795 349.69655] CT
1 0 0 RC
/Helvetica 13.333 F
GS
[1 0 0 1 0 0] CT
0 5.5 moveto 
1 -1 scale
(23) t 
GR
GR
GS
[0.75 0 0 0.75 904.39197 348.5691] CT
/Helvetica 13.333 F
GS
[1 0 0 1 0 0] CT
0 5.5 moveto 
1 -1 scale
(23) t 
GR
GR
GS
[0.75 0 0 0.75 902.5405 349.9054] CT
0 1 0 RC
/Helvetica 13.333 F
GS
[1 0 0 1 0 0] CT
0 5.5 moveto 
1 -1 scale
(23) t 
GR
GR
GS
[0.75 0 0 0.75 0 -0.25] CT
1 0 0 RC
1 LJ
0.667 LW
N
1182.4 464.5 M
1182.527 466.595 L
S
GR
GS
[0.75 0 0 0.75 0 -0.25] CT
1 LJ
0.667 LW
N
1182.4 464.5 M
1182.306 465.092 L
S
GR
GS
[0.75 0 0 0.75 0 -0.25] CT
0 1 0 RC
1 LJ
0.667 LW
N
1182.4 464.5 M
1179.837 466.874 L
S
GR
GS
[0.75 0 0 0.75 975.11252 348.125] CT
0 0 1 RC
/Helvetica 13.333 F
GS
[1 0 0 1 0 0] CT
0 5.5 moveto 
1 -1 scale
(24) t 
GR
GR
GS
[0.75 0 0 0.75 975.16827 349.6849] CT
1 0 0 RC
/Helvetica 13.333 F
GS
[1 0 0 1 0 0] CT
0 5.5 moveto 
1 -1 scale
(24) t 
GR
GR
GS
[0.75 0 0 0.75 973.46127 350.708] CT
/Helvetica 13.333 F
GS
[1 0 0 1 0 0] CT
0 5.5 moveto 
1 -1 scale
(24) t 
GR
GR
GS
[0.75 0 0 0.75 971.09253 352.73203] CT
0 1 0 RC
/Helvetica 13.333 F
GS
[1 0 0 1 0 0] CT
0 5.5 moveto 
1 -1 scale
(24) t 
GR
GR
GS
[0.75 0 0 0.75 0 -0.25] CT
1 0 0 RC
1 LJ
0.667 LW
N
1276.6 464.5 M
1276.674 466.58 L
S
GR
GS
[0.75 0 0 0.75 0 -0.25] CT
1 LJ
0.667 LW
N
1276.6 464.5 M
1274.398 467.944 L
S
GR
GS
[0.75 0 0 0.75 0 -0.25] CT
0 1 0 RC
1 LJ
0.667 LW
N
1276.6 464.5 M
1271.24 470.643 L
S
GR
GS
[0.75 0 0 0.75 1045.76248 348.125] CT
0 0 1 RC
/Helvetica 13.333 F
GS
[1 0 0 1 0 0] CT
0 5.5 moveto 
1 -1 scale
(25) t 
GR
GR
GS
[0.75 0 0 0.75 1044.68353 349.64292] CT
1 0 0 RC
/Helvetica 13.333 F
GS
[1 0 0 1 0 0] CT
0 5.5 moveto 
1 -1 scale
(25) t 
GR
GR
GS
[0.75 0 0 0.75 1043.6088 351.0001] CT
/Helvetica 13.333 F
GS
[1 0 0 1 0 0] CT
0 5.5 moveto 
1 -1 scale
(25) t 
GR
GR
GS
[0.75 0 0 0.75 1040.64752 353.84043] CT
0 1 0 RC
/Helvetica 13.333 F
GS
[1 0 0 1 0 0] CT
0 5.5 moveto 
1 -1 scale
(25) t 
GR
GR
GS
[0.75 0 0 0.75 0 -0.25] CT
1 0 0 RC
1 LJ
0.667 LW
N
1370.8 464.5 M
1369.361 466.524 L
S
GR
GS
[0.75 0 0 0.75 0 -0.25] CT
1 LJ
0.667 LW
N
1370.8 464.5 M
1367.928 468.333 L
S
GR
GS
[0.75 0 0 0.75 0 -0.25] CT
0 1 0 RC
1 LJ
0.667 LW
N
1370.8 464.5 M
1363.98 472.121 L
S
GR
GS
[0.75 0 0 0.75 480.5625 230.375] CT
0 0 1 RC
/Helvetica 13.333 F
GS
[1 0 0 1 0 0] CT
0 5.5 moveto 
1 -1 scale
(26) t 
GR
GR
GS
[0.75 0 0 0.75 482.19685 233.51345] CT
1 0 0 RC
/Helvetica 13.333 F
GS
[1 0 0 1 0 0] CT
0 5.5 moveto 
1 -1 scale
(26) t 
GR
GR
GS
[0.75 0 0 0.75 480.70056 228.92336] CT
/Helvetica 13.333 F
GS
[1 0 0 1 0 0] CT
0 5.5 moveto 
1 -1 scale
(26) t 
GR
GR
GS
[0.75 0 0 0.75 481.24763 227.44005] CT
0 1 0 RC
/Helvetica 13.333 F
GS
[1 0 0 1 0 0] CT
0 5.5 moveto 
1 -1 scale
(26) t 
GR
GR
GS
[0.75 0 0 0.75 0 -0.25] CT
1 0 0 RC
1 LJ
0.667 LW
N
617.2 307.5 M
619.379 311.685 L
S
GR
GS
[0.75 0 0 0.75 0 -0.25] CT
1 LJ
0.667 LW
N
617.2 307.5 M
617.384 305.564 L
S
GR
GS
[0.75 0 0 0.75 0 -0.25] CT
0 1 0 RC
1 LJ
0.667 LW
N
617.2 307.5 M
618.114 303.587 L
S
GR
GS
[0.75 0 0 0.75 551.21251 230.375] CT
0 0 1 RC
/Helvetica 13.333 F
GS
[1 0 0 1 0 0] CT
0 5.5 moveto 
1 -1 scale
(27) t 
GR
GR
GS
[0.75 0 0 0.75 552.08565 232.72301] CT
1 0 0 RC
/Helvetica 13.333 F
GS
[1 0 0 1 0 0] CT
0 5.5 moveto 
1 -1 scale
(27) t 
GR
GR
GS
[0.75 0 0 0.75 549.48788 230.48287] CT
/Helvetica 13.333 F
GS
[1 0 0 1 0 0] CT
0 5.5 moveto 
1 -1 scale
(27) t 
GR
GR
GS
[0.75 0 0 0.75 549.64906 229.2473] CT
0 1 0 RC
/Helvetica 13.333 F
GS
[1 0 0 1 0 0] CT
0 5.5 moveto 
1 -1 scale
(27) t 
GR
GR
GS
[0.75 0 0 0.75 0 -0.25] CT
1 0 0 RC
1 LJ
0.667 LW
N
711.4 307.5 M
712.564 310.631 L
S
GR
GS
[0.75 0 0 0.75 0 -0.25] CT
1 LJ
0.667 LW
N
711.4 307.5 M
709.101 307.644 L
S
GR
GS
[0.75 0 0 0.75 0 -0.25] CT
0 1 0 RC
1 LJ
0.667 LW
N
711.4 307.5 M
709.315 305.996 L
S
GR
GS
[0.75 0 0 0.75 621.86252 230.375] CT
0 0 1 RC
/Helvetica 13.333 F
GS
[1 0 0 1 0 0] CT
0 5.5 moveto 
1 -1 scale
(28) t 
GR
GR
GS
[0.75 0 0 0.75 622.60254 232.71834] CT
1 0 0 RC
/Helvetica 13.333 F
GS
[1 0 0 1 0 0] CT
0 5.5 moveto 
1 -1 scale
(28) t 
GR
GR
GS
[0.75 0 0 0.75 620.34746 230.99209] CT
/Helvetica 13.333 F
GS
[1 0 0 1 0 0] CT
0 5.5 moveto 
1 -1 scale
(28) t 
GR
GR
GS
[0.75 0 0 0.75 620.043 230.14653] CT
0 1 0 RC
/Helvetica 13.333 F
GS
[1 0 0 1 0 0] CT
0 5.5 moveto 
1 -1 scale
(28) t 
GR
GR
GS
[0.75 0 0 0.75 0 -0.25] CT
1 0 0 RC
1 LJ
0.667 LW
N
805.6 307.5 M
806.587 310.624 L
S
GR
GS
[0.75 0 0 0.75 0 -0.25] CT
1 LJ
0.667 LW
N
805.6 307.5 M
803.58 308.323 L
S
GR
GS
[0.75 0 0 0.75 0 -0.25] CT
0 1 0 RC
1 LJ
0.667 LW
N
805.6 307.5 M
803.174 307.195 L
S
GR
GS
[0.75 0 0 0.75 692.51248 230.375] CT
0 0 1 RC
/Helvetica 13.333 F
GS
[1 0 0 1 0 0] CT
0 5.5 moveto 
1 -1 scale
(29) t 
GR
GR
GS
[0.75 0 0 0.75 693.23149 232.72534] CT
1 0 0 RC
/Helvetica 13.333 F
GS
[1 0 0 1 0 0] CT
0 5.5 moveto 
1 -1 scale
(29) t 
GR
GR
GS
[0.75 0 0 0.75 692.84294 229.64299] CT
/Helvetica 13.333 F
GS
[1 0 0 1 0 0] CT
0 5.5 moveto 
1 -1 scale
(29) t 
GR
GR
GS
[0.75 0 0 0.75 691.97937 229.34563] CT
0 1 0 RC
/Helvetica 13.333 F
GS
[1 0 0 1 0 0] CT
0 5.5 moveto 
1 -1 scale
(29) t 
GR
GR
GS
[0.75 0 0 0.75 0 -0.25] CT
1 0 0 RC
1 LJ
0.667 LW
N
899.8 307.5 M
900.759 310.634 L
S
GR
GS
[0.75 0 0 0.75 0 -0.25] CT
1 LJ
0.667 LW
N
899.8 307.5 M
900.241 306.524 L
S
GR
GS
[0.75 0 0 0.75 0 -0.25] CT
0 1 0 RC
1 LJ
0.667 LW
N
899.8 307.5 M
899.089 306.128 L
S
GR
GS
[0.75 0 0 0.75 763.16249 230.375] CT
0 0 1 RC
/Helvetica 13.333 F
GS
[1 0 0 1 0 0] CT
0 5.5 moveto 
1 -1 scale
(30) t 
GR
GR
GS
[0.75 0 0 0.75 763.88379 232.72768] CT
1 0 0 RC
/Helvetica 13.333 F
GS
[1 0 0 1 0 0] CT
0 5.5 moveto 
1 -1 scale
(30) t 
GR
GR
GS
[0.75 0 0 0.75 763.41248 230.02065] CT
/Helvetica 13.333 F
GS
[1 0 0 1 0 0] CT
0 5.5 moveto 
1 -1 scale
(30) t 
GR
GR
GS
[0.75 0 0 0.75 761.9399 230.40583] CT
0 1 0 RC
/Helvetica 13.333 F
GS
[1 0 0 1 0 0] CT
0 5.5 moveto 
1 -1 scale
(30) t 
GR
GR
GS
[0.75 0 0 0.75 0 -0.25] CT
1 0 0 RC
1 LJ
0.667 LW
N
994 307.5 M
994.962 310.637 L
S
GR
GS
[0.75 0 0 0.75 0 -0.25] CT
1 LJ
0.667 LW
N
994 307.5 M
994.333 307.028 L
S
GR
GS
[0.75 0 0 0.75 0 -0.25] CT
0 1 0 RC
1 LJ
0.667 LW
N
994 307.5 M
992.37 307.541 L
S
GR
GS
[0.75 0 0 0.75 833.8125 230.375] CT
0 0 1 RC
/Helvetica 13.333 F
GS
[1 0 0 1 0 0] CT
0 5.5 moveto 
1 -1 scale
(31) t 
GR
GR
GS
[0.75 0 0 0.75 834.46838 232.71834] CT
1 0 0 RC
/Helvetica 13.333 F
GS
[1 0 0 1 0 0] CT
0 5.5 moveto 
1 -1 scale
(31) t 
GR
GR
GS
[0.75 0 0 0.75 833.91092 230.30446] CT
/Helvetica 13.333 F
GS
[1 0 0 1 0 0] CT
0 5.5 moveto 
1 -1 scale
(31) t 
GR
GR
GS
[0.75 0 0 0.75 831.7533 231.52188] CT
0 1 0 RC
/Helvetica 13.333 F
GS
[1 0 0 1 0 0] CT
0 5.5 moveto 
1 -1 scale
(31) t 
GR
GR
GS
[0.75 0 0 0.75 0 -0.25] CT
1 0 0 RC
1 LJ
0.667 LW
N
1088.2 307.5 M
1089.074 310.624 L
S
GR
GS
[0.75 0 0 0.75 0 -0.25] CT
1 LJ
0.667 LW
N
1088.2 307.5 M
1088.331 307.406 L
S
GR
GS
[0.75 0 0 0.75 0 -0.25] CT
0 1 0 RC
1 LJ
0.667 LW
N
1088.2 307.5 M
1085.454 309.029 L
S
GR
GS
[0.75 0 0 0.75 904.46246 230.375] CT
0 0 1 RC
/Helvetica 13.333 F
GS
[1 0 0 1 0 0] CT
0 5.5 moveto 
1 -1 scale
(32) t 
GR
GR
GS
[0.75 0 0 0.75 905.03659 232.71834] CT
1 0 0 RC
/Helvetica 13.333 F
GS
[1 0 0 1 0 0] CT
0 5.5 moveto 
1 -1 scale
(32) t 
GR
GR
GS
[0.75 0 0 0.75 904.52124 230.52533] CT
/Helvetica 13.333 F
GS
[1 0 0 1 0 0] CT
0 5.5 moveto 
1 -1 scale
(32) t 
GR
GR
GS
[0.75 0 0 0.75 901.60382 232.72131] CT
0 1 0 RC
/Helvetica 13.333 F
GS
[1 0 0 1 0 0] CT
0 5.5 moveto 
1 -1 scale
(32) t 
GR
GR
GS
[0.75 0 0 0.75 0 -0.25] CT
1 0 0 RC
1 LJ
0.667 LW
N
1182.4 307.5 M
1183.166 310.624 L
S
GR
GS
[0.75 0 0 0.75 0 -0.25] CT
1 LJ
0.667 LW
N
1182.4 307.5 M
1182.478 307.7 L
S
GR
GS
[0.75 0 0 0.75 0 -0.25] CT
0 1 0 RC
1 LJ
0.667 LW
N
1182.4 307.5 M
1178.588 310.628 L
S
GR
GS
[0.75 0 0 0.75 975.11252 230.375] CT
0 0 1 RC
/Helvetica 13.333 F
GS
[1 0 0 1 0 0] CT
0 5.5 moveto 
1 -1 scale
(33) t 
GR
GR
GS
[0.75 0 0 0.75 975.64453 232.70202] CT
1 0 0 RC
/Helvetica 13.333 F
GS
[1 0 0 1 0 0] CT
0 5.5 moveto 
1 -1 scale
(33) t 
GR
GR
GS
[0.75 0 0 0.75 975.4769 230.65822] CT
/Helvetica 13.333 F
GS
[1 0 0 1 0 0] CT
0 5.5 moveto 
1 -1 scale
(33) t 
GR
GR
GS
[0.75 0 0 0.75 971.72433 233.98582] CT
0 1 0 RC
/Helvetica 13.333 F
GS
[1 0 0 1 0 0] CT
0 5.5 moveto 
1 -1 scale
(33) t 
GR
GR
GS
[0.75 0 0 0.75 0 -0.25] CT
1 0 0 RC
1 LJ
0.667 LW
N
1276.6 307.5 M
1277.309 310.603 L
S
GR
GS
[0.75 0 0 0.75 0 -0.25] CT
1 LJ
0.667 LW
N
1276.6 307.5 M
1277.086 307.878 L
S
GR
GS
[0.75 0 0 0.75 0 -0.25] CT
0 1 0 RC
1 LJ
0.667 LW
N
1276.6 307.5 M
1272.083 312.314 L
S
GR
GS
[0.75 0 0 0.75 1045.76248 230.375] CT
0 0 1 RC
/Helvetica 13.333 F
GS
[1 0 0 1 0 0] CT
0 5.5 moveto 
1 -1 scale
(34) t 
GR
GR
GS
[0.75 0 0 0.75 1045.54971 233.45515] CT
1 0 0 RC
/Helvetica 13.333 F
GS
[1 0 0 1 0 0] CT
0 5.5 moveto 
1 -1 scale
(34) t 
GR
GR
GS
[0.75 0 0 0.75 1046.09573 231.53639] CT
/Helvetica 13.333 F
GS
[1 0 0 1 0 0] CT
0 5.5 moveto 
1 -1 scale
(34) t 
GR
GR
GS
[0.75 0 0 0.75 1041.44412 236.13026] CT
0 1 0 RC
/Helvetica 13.333 F
GS
[1 0 0 1 0 0] CT
0 5.5 moveto 
1 -1 scale
(34) t 
GR
GR
GS
[0.75 0 0 0.75 0 -0.25] CT
1 0 0 RC
1 LJ
0.667 LW
N
1370.8 307.5 M
1370.516 311.607 L
S
GR
GS
[0.75 0 0 0.75 0 -0.25] CT
1 LJ
0.667 LW
N
1370.8 307.5 M
1371.244 309.049 L
S
GR
GS
[0.75 0 0 0.75 0 -0.25] CT
0 1 0 RC
1 LJ
0.667 LW
N
1370.8 307.5 M
1365.042 315.174 L
S
GR
GS
[0.75 0 0 0.75 551.21251 112.625] CT
0 0 1 RC
/Helvetica 13.333 F
GS
[1 0 0 1 0 0] CT
0 5.5 moveto 
1 -1 scale
(35) t 
GR
GR
GS
[0.75 0 0 0.75 553.33241 116.46296] CT
1 0 0 RC
/Helvetica 13.333 F
GS
[1 0 0 1 0 0] CT
0 5.5 moveto 
1 -1 scale
(35) t 
GR
GR
GS
[0.75 0 0 0.75 551.63049 110.65957] CT
/Helvetica 13.333 F
GS
[1 0 0 1 0 0] CT
0 5.5 moveto 
1 -1 scale
(35) t 
GR
GR
GS
[0.75 0 0 0.75 552.25717 108.09234] CT
0 1 0 RC
/Helvetica 13.333 F
GS
[1 0 0 1 0 0] CT
0 5.5 moveto 
1 -1 scale
(35) t 
GR
GR
GS
[0.75 0 0 0.75 0 -0.25] CT
1 0 0 RC
1 LJ
0.667 LW
N
711.4 150.5 M
714.227 155.617 L
S
GR
GS
[0.75 0 0 0.75 0 -0.25] CT
1 LJ
0.667 LW
N
711.4 150.5 M
711.957 147.879 L
S
GR
GS
[0.75 0 0 0.75 0 -0.25] CT
0 1 0 RC
1 LJ
0.667 LW
N
711.4 150.5 M
712.793 144.456 L
S
GR
GS
[0.75 0 0 0.75 621.86252 112.625] CT
0 0 1 RC
/Helvetica 13.333 F
GS
[1 0 0 1 0 0] CT
0 5.5 moveto 
1 -1 scale
(36) t 
GR
GR
GS
[0.75 0 0 0.75 623.0555 116.82902] CT
1 0 0 RC
/Helvetica 13.333 F
GS
[1 0 0 1 0 0] CT
0 5.5 moveto 
1 -1 scale
(36) t 
GR
GR
GS
[0.75 0 0 0.75 621.76067 111.65566] CT
/Helvetica 13.333 F
GS
[1 0 0 1 0 0] CT
0 5.5 moveto 
1 -1 scale
(36) t 
GR
GR
GS
[0.75 0 0 0.75 621.69154 109.70562] CT
0 1 0 RC
/Helvetica 13.333 F
GS
[1 0 0 1 0 0] CT
0 5.5 moveto 
1 -1 scale
(36) t 
GR
GR
GS
[0.75 0 0 0.75 0 -0.25] CT
1 0 0 RC
1 LJ
0.667 LW
N
805.6 150.5 M
807.191 156.105 L
S
GR
GS
[0.75 0 0 0.75 0 -0.25] CT
1 LJ
0.667 LW
N
805.6 150.5 M
805.464 149.208 L
S
GR
GS
[0.75 0 0 0.75 0 -0.25] CT
0 1 0 RC
1 LJ
0.667 LW
N
805.6 150.5 M
805.372 146.607 L
S
GR
GS
[0.75 0 0 0.75 692.51248 112.625] CT
0 0 1 RC
/Helvetica 13.333 F
GS
[1 0 0 1 0 0] CT
0 5.5 moveto 
1 -1 scale
(37) t 
GR
GR
GS
[0.75 0 0 0.75 693.68912 116.83136] CT
1 0 0 RC
/Helvetica 13.333 F
GS
[1 0 0 1 0 0] CT
0 5.5 moveto 
1 -1 scale
(37) t 
GR
GR
GS
[0.75 0 0 0.75 692.65041 112.30262] CT
/Helvetica 13.333 F
GS
[1 0 0 1 0 0] CT
0 5.5 moveto 
1 -1 scale
(37) t 
GR
GR
GS
[0.75 0 0 0.75 691.79018 111.15827] CT
0 1 0 RC
/Helvetica 13.333 F
GS
[1 0 0 1 0 0] CT
0 5.5 moveto 
1 -1 scale
(37) t 
GR
GR
GS
[0.75 0 0 0.75 0 -0.25] CT
1 0 0 RC
1 LJ
0.667 LW
N
899.8 150.5 M
901.369 156.108 L
S
GR
GS
[0.75 0 0 0.75 0 -0.25] CT
1 LJ
0.667 LW
N
899.8 150.5 M
899.984 150.07 L
S
GR
GS
[0.75 0 0 0.75 0 -0.25] CT
0 1 0 RC
1 LJ
0.667 LW
N
899.8 150.5 M
898.837 148.544 L
S
GR
GS
[0.75 0 0 0.75 763.16249 112.625] CT
0 0 1 RC
/Helvetica 13.333 F
GS
[1 0 0 1 0 0] CT
0 5.5 moveto 
1 -1 scale
(38) t 
GR
GR
GS
[0.75 0 0 0.75 764.34375 116.83836] CT
1 0 0 RC
/Helvetica 13.333 F
GS
[1 0 0 1 0 0] CT
0 5.5 moveto 
1 -1 scale
(38) t 
GR
GR
GS
[0.75 0 0 0.75 761.59863 114.53083] CT
/Helvetica 13.333 F
GS
[1 0 0 1 0 0] CT
0 5.5 moveto 
1 -1 scale
(38) t 
GR
GR
GS
[0.75 0 0 0.75 759.8817 114.36497] CT
0 1 0 RC
/Helvetica 13.333 F
GS
[1 0 0 1 0 0] CT
0 5.5 moveto 
1 -1 scale
(38) t 
GR
GR
GS
[0.75 0 0 0.75 0 -0.25] CT
1 0 0 RC
1 LJ
0.667 LW
N
994 150.5 M
995.575 156.118 L
S
GR
GS
[0.75 0 0 0.75 0 -0.25] CT
1 LJ
0.667 LW
N
994 150.5 M
991.915 153.041 L
S
GR
GS
[0.75 0 0 0.75 0 -0.25] CT
0 1 0 RC
1 LJ
0.667 LW
N
994 150.5 M
989.626 152.82 L
S
GR
GS
[0.75 0 0 0.75 833.8125 112.625] CT
0 0 1 RC
/Helvetica 13.333 F
GS
[1 0 0 1 0 0] CT
0 5.5 moveto 
1 -1 scale
(39) t 
GR
GR
GS
[0.75 0 0 0.75 834.92834 116.83369] CT
1 0 0 RC
/Helvetica 13.333 F
GS
[1 0 0 1 0 0] CT
0 5.5 moveto 
1 -1 scale
(39) t 
GR
GR
GS
[0.75 0 0 0.75 832.27762 114.78443] CT
/Helvetica 13.333 F
GS
[1 0 0 1 0 0] CT
0 5.5 moveto 
1 -1 scale
(39) t 
GR
GR
GS
[0.75 0 0 0.75 829.59833 115.78474] CT
0 1 0 RC
/Helvetica 13.333 F
GS
[1 0 0 1 0 0] CT
0 5.5 moveto 
1 -1 scale
(39) t 
GR
GR
GS
[0.75 0 0 0.75 0 -0.25] CT
1 0 0 RC
1 LJ
0.667 LW
N
1088.2 150.5 M
1089.688 156.112 L
S
GR
GS
[0.75 0 0 0.75 0 -0.25] CT
1 LJ
0.667 LW
N
1088.2 150.5 M
1086.153 153.379 L
S
GR
GS
[0.75 0 0 0.75 0 -0.25] CT
0 1 0 RC
1 LJ
0.667 LW
N
1088.2 150.5 M
1082.581 154.713 L
S
GR
GS
[0.75 0 0 0.75 904.46246 112.625] CT
0 0 1 RC
/Helvetica 13.333 F
GS
[1 0 0 1 0 0] CT
0 5.5 moveto 
1 -1 scale
(40) t 
GR
GR
GS
[0.75 0 0 0.75 905.51523 116.8267] CT
1 0 0 RC
/Helvetica 13.333 F
GS
[1 0 0 1 0 0] CT
0 5.5 moveto 
1 -1 scale
(40) t 
GR
GR
GS
[0.75 0 0 0.75 904.91647 113.04387] CT
/Helvetica 13.333 F
GS
[1 0 0 1 0 0] CT
0 5.5 moveto 
1 -1 scale
(40) t 
GR
GR
GS
[0.75 0 0 0.75 901.13681 115.43435] CT
0 1 0 RC
/Helvetica 13.333 F
GS
[1 0 0 1 0 0] CT
0 5.5 moveto 
1 -1 scale
(40) t 
GR
GR
GS
[0.75 0 0 0.75 0 -0.25] CT
1 0 0 RC
1 LJ
0.667 LW
N
1182.4 150.5 M
1183.804 156.102 L
S
GR
GS
[0.75 0 0 0.75 0 -0.25] CT
1 LJ
0.667 LW
N
1182.4 150.5 M
1183.005 151.058 L
S
GR
GS
[0.75 0 0 0.75 0 -0.25] CT
0 1 0 RC
1 LJ
0.667 LW
N
1182.4 150.5 M
1177.966 154.246 L
S
GR
GS
[0.75 0 0 0.75 975.11252 112.625] CT
0 0 1 RC
/Helvetica 13.333 F
GS
[1 0 0 1 0 0] CT
0 5.5 moveto 
1 -1 scale
(41) t 
GR
GR
GS
[0.75 0 0 0.75 975.35742 116.43497] CT
1 0 0 RC
/Helvetica 13.333 F
GS
[1 0 0 1 0 0] CT
0 5.5 moveto 
1 -1 scale
(41) t 
GR
GR
GS
[0.75 0 0 0.75 975.16534 112.65575] CT
/Helvetica 13.333 F
GS
[1 0 0 1 0 0] CT
0 5.5 moveto 
1 -1 scale
(41) t 
GR
GR
GS
[0.75 0 0 0.75 970.24118 116.57543] CT
0 1 0 RC
/Helvetica 13.333 F
GS
[1 0 0 1 0 0] CT
0 5.5 moveto 
1 -1 scale
(41) t 
GR
GR
GS
[0.75 0 0 0.75 0 -0.25] CT
1 0 0 RC
1 LJ
0.667 LW
N
1276.6 150.5 M
1276.927 155.58 L
S
GR
GS
[0.75 0 0 0.75 0 -0.25] CT
1 LJ
0.667 LW
N
1276.6 150.5 M
1276.67 150.541 L
S
GR
GS
[0.75 0 0 0.75 0 -0.25] CT
0 1 0 RC
1 LJ
0.667 LW
N
1276.6 150.5 M
1270.105 155.767 L
S
GR
GS
[0.75 0 0 0.75 0 -0.25] CT
1 GC
N
1153 155 M
1153 85 L
1373 85 L
1373 155 L
cp
f
GR
GS
[0.75 0 0 0.75 892.5 71.05396] CT
/Helvetica 12 F
GS
[1 0 0 1 0 0] CT
0 5 moveto 
1 -1 scale
(Original measured points) t 
GR
GR
GS
[0.75 0 0 0.75 0 -0.25] CT
0 0 1 RC
1 LJ
N
1167 95.5 M
1176 95.5 L
S
GR
GS
[0.75 0 0 0.75 0 -0.25] CT
0 0 1 RC
1 LJ
N
1171.5 100 M
1171.5 91 L
S
GR
GS
[0.75 0 0 0.75 0 -0.25] CT
0 0 1 RC
1 LJ
N
1168 99 M
1175 92 L
S
GR
GS
[0.75 0 0 0.75 0 -0.25] CT
0 0 1 RC
1 LJ
N
1168 92 M
1175 99 L
S
GR
GS
[0.75 0 0 0.75 892.5 83.51799] CT
/Helvetica 12 F
GS
[1 0 0 1 0 0] CT
0 5 moveto 
1 -1 scale
(Points measured from plate) t 
GR
GR
GS
[0.75 0 0 0.75 0 -0.25] CT
1 0 0 RC
1 LJ
N
1175.5 111.5 M
1174.736 109.149 L
1172.736 107.696 L
1170.264 107.696 L
1168.264 109.149 L
1167.5 111.5 L
1168.264 113.851 L
1170.264 115.304 L
1172.736 115.304 L
1174.736 113.851 L
cp
S
GR
GS
[0.75 0 0 0.75 892.5 95.98202] CT
/Helvetica 12 F
GS
[1 0 0 1 0 0] CT
0 5 moveto 
1 -1 scale
(Plate Constant Model Adjustment) t 
GR
GR
GS
[0.75 0 0 0.75 0 -0.25] CT
10.0 ML
N
1168.38 131.62 M
1168.38 125.38 L
1174.62 125.38 L
1174.62 131.62 L
cp
S
GR
GS
[0.75 0 0 0.75 892.5 108.44604] CT
/Helvetica 12 F
GS
[1 0 0 1 0 0] CT
0 5 moveto 
1 -1 scale
(Zernike Adjustment) t 
GR
GR
GS
[0.75 0 0 0.75 0 -0.25] CT
0 1 0 RC
10.0 ML
N
1168.38 147.62 M
1168.38 141.38 L
1174.62 141.38 L
1174.62 147.62 L
cp
S
GR
GS
[0.75 0 0 0.75 0 -0.25] CT
0.149 GC
10.0 ML
0.667 LW
N
1153 155 M
1153 85 L
1373 85 L
1373 155 L
cp
S
GR
%%Trailer
%%Pages: 1
%%EOF
