82.065	-5.5277	-3032.2	-1988.7
82.106	-2.7356	-2981.6	-2539.6
82.752	-3.1429	-1912.5	-3213.6
82.208	-2.1354	-2819.7	-1546.5
82.249	-1.862	-2755.8	-1095.6
82.284	-1.1618	-2702.8	63.536
82.062	0.0083944	-3076.8	1994.8
82.002	0.32842	-3178.5	2532.4
82.715	0.58763	-2002.6	2959.2
83.233	0.4646	-1147	2753.9
83.224	0.49925	-1161.6	2811.1
83.293	1.2919	-1054	4122.5
82.961	1.3278	-1602.5	4183.2
83.059	1.4802	-1443	4435.2
84.035	1.2526	171.45	4055.2
84.426	0.94691	819.7	3548
84.285	0.8814	588.08	3440
84.264	0.80777	552.55	3318.2
84.997	0.0386	1769.4	2056.9
85.577	0.69252	2731.6	3143.4
85.971	0.7806	3384.1	3291.1
86.556	-1.5173	4348.7	-548.68
86.138	-1.3888	3658.4	-332.4
85.735	-1.6335	2994	-733.63
85.398	-2.0961	2439.7	-1497
85.441	-2.364	2511.6	-1941.8
85.627	-2.5214	2818.7	-2202.9
84.843	-2.8221	1527.5	-2694.8
84.791	-2.9206	1440.5	-2856.6
84.757	-2.9979	1385.9	-2986.1
84.529	-2.8503	1008.9	-2739.2
84.632	-2.7414	1179.1	-2560.5
84.609	-2.8576	1141.7	-2752.2
84.129	-2.676	349.06	-2450.1
84.184	-2.5538	440.26	-2247.6
83.79	-2.4721	-209.66	-2110.5
83.429	-2.2892	-805.57	-1806.6
83.315	-2.4048	-992.74	-1996.5
83.179	-2.4128	-1218.6	-2009.4
82.944	-2.4181	-1604.2	-2017
82.936	-2.9144	-1614.5	-2838.6
82.577	-2.2315	-2210.8	-1707.9
82.543	-2.0716	-2268.4	-1442.6
82.909	-1.9348	-1665.4	-1217.3
83.364	-1.7936	-916.97	-985.36
83.761	-1.4509	-263.19	-419.03
83.922	-1.1971	0	0
83.804	0.80674	-197.33	3323.9
83.149	0.30127	-1282.2	2483.5
83.315	-2.4048	-2234.6	748.85
