star,U,B,V,R,I,G,J,H,K,Ra,Dec,x,y
HD 8890,3,2.62,2.02,1.53,1.22,0,0.795,0.46,0.52,26.7248,89.0141,,
SAO 132190,0,8.52,7.6,0,0,7.291,5.974,5.531,5.37,81.92,-6.0277,,
SAO 132203,0,8.22,8.16,0,0,0,8.044,8.042,8.021,82.1039,-6.2302,,
SAO 132225,0,7.56,7.66,0,0,0,7.825,7.881,7.919,82.3854,-6.7458,,
SAO 132237,0,9.18,9.19,0,0,9.218,9.25,9.24,9.211,82.5206,-6.9164,,
SAO 132290,0,7.88,6.7,0,0,6.278,4.913,4.294,4.032,83.0587,-7.2343,,
SAO 132347,0,7.31,7.38,0,0,7.419,7.53,7.61,7.621,83.3858,-7.4289,,
SAO 132391,0,9.84,9.61,9.51,0,9.576,9.208,9.094,9.068,83.8935,-7.7835,,
SAO 132381,0,7.89,7.7,0,0,7.666,7.235,7.18,7.096,83.7689,-8.2308,,
SAO 132421,0,9.73,9.36,0,0,9.203,8.475,8.29,8.233,84.1552,-8.8265,,
SAO 132450,0,10.51,10.04,9.71,0,9.795,8.989,8.766,8.702,84.5925,-8.6049,,
SAO 132454,0,8.13,8.04,0,0,8.055,7.852,7.891,7.82,84.6149,-8.0804,,
SAO 132485,0,9.13,8.54,0,0,0,7.404,7.167,7.027,85.2249,-7.9105,,
SAO 132474,0,9.13,8.59,0,0,8.485,7.707,7.49,7.444,85.0321,-7.3616,,
SAO 132459,0,9.25,9.22,0,0,0,9.02,8.985,8.952,84.7214,-6.7942,,
SAO 132430,0,9.17,9.19,0,0,9.199,9.208,9.218,9.209,84.3432,-6.8027,,
SAO 132415,0,8.81,8.67,0,0,8.658,8.389,8.394,8.325,84.109,-6.5259,,
SAO 132386,0,8.23,8.31,0,0,0,8.426,8.46,8.479,83.8181,-6.7522,,
SAO 132384,0,8.96,8.85,0,0,8.864,8.405,7.947,7.368,83.8023,-6.7386,,
SAO 132357,7.62,8.03,8.1,0,0,8.146,8.244,8.277,8.288,83.4839,-6.4857,,
SAO 132307,0,8.85,8.87,0,0,0,8.811,8.8,8.742,83.1391,-6.5972,,
SAO 132236,0,10.39,9.42,0,0,9.083,7.73,7.276,7.166,82.5112,-6.0317,,
SAO 132209,0,10.21,9.49,0,0,9.142,7.816,7.546,7.407,82.1776,-5.7422,,
SAO 132249,0,8.57,8.6,0,0,8.639,8.585,8.584,8.579,82.6302,-5.3767,,
SAO 132239,0,8.91,8.74,0,0,8.718,8.385,8.33,8.261,82.5408,-4.9974,,
SAO 132231,0,8.75,8.81,0,0,8.831,8.85,8.91,8.886,82.4576,-4.6126,,
SAO 132250,0,9.03,8.7,0,0,8.62,8.123,7.999,7.887,82.6541,-4.6712,,
SAO 132278,0,6.99,6.82,0,0,6.793,6.414,6.36,6.332,82.9465,-4.839,,
SAO 132282,0,7.4,7.48,0,0,0,7.456,7.483,7.477,82.9798,-4.5218,,
SAO 132285,0,7.14,7.22,0,0,0,7.316,7.345,7.358,83.0242,-4.4263,,
SAO 132296,0,7.44,7.55,0,0,0,7.775,7.86,7.822,83.0899,-4.388,,
SAO 132345,6.32,7.02,7.17,7.22,7.38,0,7.404,7.43,7.518,83.3705,-4.4582,,
SAO 132292,6.08,6.569,6.709,0,0,0,6.902,6.98,7.026,83.0677,-4.1443,,
SAO 132378,6.25,6.991,7.149,0,0,0,7.457,7.5,7.54,83.7501,-4.9646,,
SAO 132396,0,7.93,7.64,0,0,0,7.065,6.977,6.888,83.9602,-5.0739,,
SAO 132414,0,7.49,7.55,0,0,0,7.827,7.86,7.89,84.1083,-5.223,,
SAO 132447,0,9.4,8.79,0,0,8.6,7.654,7.349,7.274,84.5701,-5.5924,,
SAO 132495,0,9.27,9.17,0,0,9.219,9.102,9.101,9.063,85.367,-6.7555,,
SAO 132500,0,8.88,8.4,0,0,8.265,7.471,7.287,7.182,85.4375,-6.7743,,
SAO 132505,0,6.944,6.762,0,0,6.756,6.499,6.488,6.414,85.4952,-6.8859,,
SAO 132524,0,8.28,7.77,0,0,7.609,6.807,6.559,6.498,85.9944,-6.9636,,
SAO 132572,0,9.45,8.69,0,0,8.426,7.321,6.934,6.858,86.7375,-7.0023,,
SAO 132551,0,8.4,8.15,0,0,0,7.588,7.51,7.46,86.4409,-6.6625,,
SAO 132539,0,7.57,7.62,0,0,0,7.914,7.98,7.993,86.2999,-6.4524,,
SAO 132545,0,8.47,8.44,0,0,8.472,8.324,8.334,8.296,86.38,-6.1463,,
SAO 132555,0,8.3,8.22,0,0,8.251,8.079,8.106,8.071,86.5018,-5.8457,,
SAO 132562,0,9.02,8.82,0,0,8.841,8.509,8.436,8.433,86.5787,-5.505,,
SAO 132483,9.08,9.1,9.1,9.1,0,9.037,8.432,7.847,7.156,85.1469,-5.0204,,
SAO 132475,8.52,8.82,8.47,8.09,7.84,8.362,7.647,7.652,7.54,85.0375,-4.66,,
SAO 132455,7.18,7.79,7.87,0,0,0,8.124,8.2,8.232,84.6242,-3.6585,,
SAO 132429,0,7.93,8.04,0,0,0,8.168,8.207,8.196,84.3197,-3.358,,
