X	Y
781	11
1527	16
2280	16
3033	16
3786	16
4539	17
5284	12
21	1268
768	1260
1521	1260
2275	1261
3028	1261
3781	1261
4534	1261
5287	1261
6031	1269
20	2522
762	2522
1516	2523
2270	2523
3023	2523
3776	2523
4529	2523
5281	2524
6021	2524
11	3770
757	3779
1511	3779
2264	3779
3017	3780
3770	3780
4523	3780
5275	3780
6019	3772
759	5032
1505	5028
2259	5028
3012	5028
3765	5028
4517	5028
5262	5033