X	Y
781	11
1526	16
2280	16
3033	16
3786	16
4539	17
5284	12
21	1267
767	1260
1521	1260
2275	1260
3028	1260
3781	1261
4534	1261
5287	1261
6032	1269
20	2521
762	2522
1516	2522
2269	2522
3023	2522
3776	2523
4529	2523
5281	2523
6021	2523
10	3770
757	3778
1510	3779
2264	3779
3017	3779
3770	3779
4523	3779
5275	3780
6020	3771
759	5032
1505	5028
2259	5028
3012	5028
3765	5028
4517	5028
5262	5033