   X       Y 
14 	 3769 
24 	 2521 
25 	 1266 
758 	 3766 
760 	 5031 
764 	 2521 
769 	 1269 
770 	 3778 
781 	 1258 
783 	 9 
1505 	 5027 
1509 	 3777 
1510 	 3777 
1510 	 3778 
1510 	 3779 
1511 	 3776 
1511 	 3777 
1511 	 3778 
1512 	 3778 
1516 	 2521 
1522 	 1258 
1527 	 13 
2256 	 5028 
2262 	 3778 
2263 	 3778 
2268 	 2521 
2274 	 1258 
2280 	 13 
3008 	 5027 
3014 	 3778 
3020 	 2521 
3021 	 2521 
3027 	 1258 
3032 	 13 
3760 	 5027 
3766 	 3777 
3766 	 3778 
3773 	 2521 
3779 	 1258 
3785 	 13 
4512 	 5027 
4518 	 3777 
4518 	 3778 
4525 	 2521 
4531 	 1258 
4538 	 13 
5255 	 5032 
5259 	 3778 
5270 	 3766 
5272 	 1258 
5277 	 2521 
5282 	 8 
5284 	 1270 
6015 	 3769 
6018 	 2521 
6029 	 1266 
