   X       Y 
13 	 3769 
23 	 2520 
25 	 1265 
758 	 3766 
760 	 5032 
763 	 2520 
769 	 1269 
769 	 3778 
781 	 1257 
783 	 9 
1504 	 5027 
1510 	 3778 
1515 	 2520 
1516 	 2520 
1521 	 1257 
1527 	 14 
2256 	 5027 
2262 	 3778 
2268 	 2520 
2274 	 1257 
2279 	 13 
3008 	 5027 
3014 	 3778 
3020 	 2520 
3026 	 1257 
3032 	 14 
3759 	 5027 
3766 	 3777 
3766 	 3778 
3772 	 2520 
3778 	 1257 
3784 	 13 
4511 	 5027 
4517 	 3778 
4518 	 3778 
4524 	 2520 
4530 	 1257 
4531 	 1257 
4537 	 13 
5254 	 5032 
5258 	 3778 
5270 	 3766 
5271 	 1257 
5276 	 2520 
5277 	 2520 
5282 	 9 
5283 	 1269 
6014 	 3770 
6017 	 2520 
6028 	 1265 
