   X       Y 
8 	 3772 
16 	 2520 
17 	 1268 
752 	 3768 
755 	 5032 
757 	 2520 
763 	 1272 
764 	 3780 
775 	 1260 
776 	 9 
1500 	 5027 
1505 	 3780 
1506 	 3780 
1511 	 2520 
1516 	 1261 
1521 	 14 
2253 	 5028 
2259 	 3780 
2264 	 2520 
2269 	 1261 
2274 	 14 
3006 	 5027 
3011 	 3780 
3012 	 3780 
3017 	 2520 
3022 	 1260 
3022 	 1261 
3026 	 14 
3759 	 5027 
3764 	 3780 
3765 	 3779 
3769 	 2520 
3770 	 2520 
3774 	 1260 
3779 	 14 
4512 	 5027 
4517 	 3779 
4522 	 2520 
4527 	 1260 
4532 	 14 
5257 	 5031 
5259 	 3779 
5268 	 1260 
5270 	 3767 
5275 	 2520 
5276 	 9 
5280 	 1272 
6014 	 3771 
6015 	 2520 
6024 	 1268 
