   X       Y 
10 	 3770 
20 	 1267 
20 	 2520 
756 	 3766 
759 	 5032 
762 	 2521 
767 	 1270 
769 	 3778 
779 	 1259 
781 	 11 
1505 	 5028 
1510 	 3778 
1511 	 3778 
1516 	 2521 
1521 	 1259 
1526 	 15 
2259 	 5028 
2264 	 3778 
2269 	 2521 
2270 	 2521 
2275 	 1259 
2280 	 16 
3012 	 5028 
3017 	 3778 
3023 	 2521 
3028 	 1259 
3033 	 16 
3765 	 5028 
3770 	 3779 
3776 	 2521 
3781 	 1259 
3786 	 16 
4517 	 5028 
4523 	 3779 
4529 	 2521 
4534 	 1259 
4539 	 16 
5262 	 5032 
5265 	 3779 
5275 	 1260 
5275 	 3767 
5281 	 2522 
5284 	 11 
5287 	 1271 
6020 	 3771 
6021 	 2522 
6031 	 1267 
