   X       Y 
8 	 3773 
16 	 2521 
17 	 1268 
752 	 3768 
755 	 5032 
757 	 2521 
758 	 2521 
763 	 1272 
764 	 3780 
775 	 1261 
776 	 10 
1500 	 5028 
1505 	 3780 
1506 	 3780 
1511 	 2521 
1516 	 1261 
1521 	 14 
2253 	 5028 
2259 	 3780 
2264 	 2521 
2269 	 1261 
2274 	 14 
3006 	 5028 
3012 	 3780 
3017 	 2521 
3022 	 1261 
3026 	 14 
3759 	 5028 
3765 	 3780 
3770 	 2521 
3775 	 1261 
3779 	 14 
4512 	 5027 
4517 	 3780 
4522 	 2521 
4523 	 2521 
4527 	 1261 
4532 	 14 
5257 	 5031 
5259 	 3780 
5268 	 1260 
5270 	 3768 
5275 	 2520 
5276 	 9 
5280 	 1272 
6015 	 2520 
6015 	 3771 
6024 	 1268 
