   X       Y 
13 	 3772 
22 	 2521 
23 	 1268 
758 	 3769 
761 	 5031 
762 	 2520 
767 	 1272 
769 	 3781 
778 	 1260 
779 	 10 
1506 	 5027 
1510 	 3780 
1510 	 3781 
1515 	 2520 
1519 	 1260 
1523 	 14 
2258 	 5027 
2263 	 3780 
2267 	 2520 
2272 	 1260 
2275 	 14 
3011 	 5027 
3015 	 3780 
3020 	 2520 
3024 	 1260 
3028 	 14 
3763 	 5027 
3768 	 3780 
3772 	 2520 
3776 	 1260 
3780 	 14 
4516 	 5027 
4520 	 3780 
4525 	 2520 
4529 	 1260 
4533 	 14 
5260 	 5031 
5262 	 3780 
5270 	 1260 
5273 	 3768 
5278 	 10 
5278 	 2520 
5282 	 1272 
6019 	 2520 
6019 	 3772 
6027 	 1268 
