   X       Y 
10 	 3770 
20 	 2521 
21 	 1266 
756 	 3766 
759 	 5032 
762 	 2521 
767 	 1270 
769 	 3778 
779 	 1259 
781 	 11 
1505 	 5028 
1510 	 3778 
1516 	 2521 
1521 	 1259 
1526 	 16 
2259 	 5028 
2264 	 3779 
2269 	 2522 
2270 	 2521 
2275 	 1259 
2280 	 16 
3012 	 5028 
3017 	 3779 
3023 	 2522 
3028 	 1260 
3033 	 16 
3765 	 5028 
3770 	 3779 
3776 	 2522 
3781 	 1260 
3786 	 16 
4517 	 5028 
4523 	 3779 
4529 	 2522 
4534 	 1260 
4539 	 16 
5262 	 5033 
5264 	 3779 
5275 	 1260 
5275 	 3768 
5281 	 2522 
5284 	 12 
5287 	 1272 
6020 	 3771 
6021 	 2522 
6032 	 1268 
