   X       Y 
9 	 1261 
18 	 2509 
19 	 3756 
759 	 1265 
762 	 8 
764 	 2509 
769 	 3753 
771 	 1254 
781 	 3764 
782 	 5012 
1508 	 12 
1513 	 1254 
1514 	 1254 
1519 	 2509 
1523 	 3764 
1524 	 3764 
1528 	 5008 
2263 	 13 
2268 	 1254 
2273 	 2509 
2274 	 2509 
2278 	 3764 
2279 	 3764 
2283 	 5008 
3021 	 13 
3026 	 1254 
3031 	 2509 
3032 	 2509 
3036 	 3764 
3041 	 5008 
3777 	 13 
3782 	 1254 
3787 	 2509 
3792 	 3764 
3797 	 5008 
4531 	 13 
4536 	 1254 
4537 	 1254 
4542 	 2509 
4546 	 3764 
4547 	 3764 
4551 	 5008 
5280 	 9 
5282 	 1254 
5292 	 3764 
5293 	 1266 
5298 	 2509 
5300 	 5012 
5303 	 3752 
6043 	 1262 
6043 	 2509 
6053 	 3756 
