   X       Y 
9 	 1261 
19 	 2509 
19 	 3756 
759 	 1265 
762 	 8 
764 	 2509 
769 	 3752 
771 	 1254 
781 	 3764 
782 	 5012 
1508 	 12 
1514 	 1254 
1519 	 2509 
1524 	 3764 
1528 	 5008 
2263 	 12 
2269 	 1254 
2274 	 2509 
2279 	 3764 
2284 	 5008 
3021 	 13 
3027 	 1254 
3032 	 2509 
3037 	 3764 
3042 	 5008 
3777 	 13 
3783 	 1254 
3788 	 2509 
3793 	 3764 
3797 	 5008 
4531 	 13 
4537 	 1254 
4542 	 2509 
4547 	 3764 
4552 	 5008 
5280 	 8 
5282 	 1254 
5292 	 3764 
5293 	 1266 
5298 	 2509 
5299 	 2509 
5300 	 5012 
5303 	 3752 
6043 	 1262 
6044 	 2509 
6053 	 3756 
