   X       Y 
9 	 1261 
20 	 2508 
20 	 3755 
760 	 1265 
762 	 8 
765 	 2508 
770 	 3752 
772 	 1253 
782 	 3763 
782 	 5011 
1509 	 12 
1514 	 1253 
1515 	 1253 
1520 	 2508 
1524 	 3763 
1525 	 3763 
1529 	 5007 
2264 	 12 
2269 	 1253 
2275 	 2508 
2279 	 3763 
2280 	 3763 
2284 	 5007 
3022 	 13 
3027 	 1253 
3032 	 2508 
3037 	 3763 
3038 	 3763 
3042 	 5007 
3778 	 13 
3783 	 1253 
3788 	 2508 
3793 	 3763 
3798 	 5007 
4532 	 13 
4537 	 1254 
4542 	 2508 
4547 	 3763 
4552 	 5007 
5280 	 8 
5281 	 1254 
5293 	 3763 
5294 	 1266 
5299 	 2508 
5300 	 5012 
5304 	 3752 
6044 	 1262 
6044 	 2509 
6053 	 3755 
