   X       Y 
8 	 1258 
17 	 2506 
18 	 3752 
756 	 1263 
757 	 8 
762 	 2506 
768 	 1252 
768 	 3748 
780 	 3760 
783 	 5006 
1504 	 12 
1510 	 1253 
1516 	 2506 
1522 	 3760 
1528 	 5002 
2259 	 12 
2265 	 1253 
2271 	 2506 
2277 	 3760 
2283 	 5002 
3017 	 13 
3023 	 1253 
3029 	 2506 
3035 	 3760 
3041 	 5001 
3773 	 13 
3779 	 1253 
3785 	 2507 
3791 	 3760 
3797 	 5001 
4527 	 13 
4533 	 1254 
4539 	 2507 
4545 	 3760 
4551 	 5001 
5276 	 9 
5278 	 1254 
5290 	 1266 
5291 	 3760 
5296 	 2507 
5300 	 5005 
5302 	 3748 
6040 	 1262 
6041 	 2507 
6051 	 3751 
