   X       Y 
9 	 1262 
19 	 2509 
19 	 3755 
756 	 1265 
760 	 8 
761 	 2509 
766 	 3752 
768 	 1254 
778 	 3763 
778 	 5010 
1508 	 13 
1513 	 1254 
1518 	 2509 
1522 	 3763 
1522 	 3764 
1527 	 5007 
2265 	 13 
2270 	 1254 
2275 	 2509 
2279 	 3764 
2284 	 5007 
3020 	 13 
3025 	 1254 
3030 	 2509 
3034 	 3764 
3035 	 3764 
3039 	 5007 
3776 	 13 
3781 	 1254 
3786 	 2509 
3791 	 3764 
3795 	 5008 
4533 	 13 
4538 	 1255 
4539 	 1255 
4543 	 2509 
4548 	 3764 
4553 	 5008 
5280 	 8 
5282 	 1255 
5292 	 3765 
5293 	 1267 
5298 	 2510 
5300 	 5012 
5303 	 3754 
6042 	 1263 
6042 	 2510 
6051 	 3757 
