   X       Y 
10 	 1261 
19 	 2508 
19 	 3754 
757 	 1265 
760 	 8 
762 	 2508 
766 	 3751 
769 	 1254 
778 	 3763 
779 	 5010 
1508 	 13 
1513 	 1254 
1518 	 2509 
1523 	 3763 
1527 	 5007 
2265 	 13 
2270 	 1254 
2275 	 2509 
2280 	 3763 
2280 	 3764 
2284 	 5007 
3020 	 13 
3025 	 1254 
3030 	 2509 
3035 	 3764 
3039 	 5007 
3776 	 13 
3781 	 1254 
3782 	 1254 
3786 	 2509 
3787 	 2509 
3791 	 3764 
3796 	 5007 
4533 	 13 
4538 	 1254 
4539 	 1254 
4543 	 2509 
4544 	 2509 
4548 	 3764 
4553 	 5008 
5280 	 8 
5281 	 1255 
5292 	 3765 
5293 	 1267 
5298 	 2510 
5300 	 5012 
5303 	 3753 
6042 	 1263 
6043 	 2510 
6051 	 3757 
