   X       Y 
7 	 1261 
13 	 2509 
13 	 3754 
751 	 1266 
755 	 8 
756 	 2509 
760 	 3751 
763 	 1254 
772 	 3762 
773 	 5008 
1502 	 13 
1506 	 1255 
1510 	 2509 
1511 	 2509 
1515 	 3762 
1519 	 5004 
2259 	 13 
2264 	 1255 
2268 	 2509 
2273 	 3762 
2277 	 5004 
3014 	 13 
3019 	 1255 
3023 	 2509 
3028 	 3762 
3032 	 5004 
3769 	 13 
3774 	 1254 
3778 	 2509 
3783 	 3762 
3787 	 5004 
4526 	 13 
4531 	 1255 
4535 	 2509 
4536 	 2509 
4540 	 3763 
4545 	 5004 
5274 	 9 
5274 	 1255 
5284 	 3763 
5286 	 1267 
5291 	 2509 
5292 	 5008 
5296 	 3751 
6033 	 1263 
6034 	 2509 
6042 	 3755 
