X	Y
760	8
1508	13
2265	13
3020	13
3776	13
4533	13
5280	8
11	1261
757	1254
1513	1254
2270	1254
3025	1254
3781	1254
4538	1254
5293	1254
6042	1263
19	2508
762	2508
1518	2508
2275	2509
3030	2509
3786	2509
4543	2509
5298	2509
6042	2510
19	3754
766	3763
1523	3763
2280	3763
3035	3763
3791	3764
4548	3764
5303	3764
6051	3757
779	5010
1527	5006
2285	5007
3039	5007
3796	5007
4553	5008
5300	5012