X	Y
779	11
1523	15
2276	15
3028	15
3780	15
4533	15
5278	11
23	1268
767	1261
1519	1261
2272	1261
3024	1261
3777	1260
4529	1261
5282	1261
6027	1268
23	2521
762	2521
1515	2521
2267	2521
3020	2521
3772	2521
4525	2521
5278	2521
6019	2521
14	3773
758	3781
1511	3781
2263	3781
3015	3781
3768	3781
4520	3781
5274	3781
6019	3772
762	5032
1506	5028
2258	5028
3011	5028
3763	5027
4516	5027
5261	5031