X	Y
781	11
1526	16
2280	16
3033	16
3786	16
4539	16
5284	12
21	1266
767	1259
1521	1259
2275	1259
3028	1260
3781	1260
4534	1260
5287	1260
6032	1268
20	2521
762	2521
1516	2521
2270	2521
3023	2522
3776	2522
4529	2522
5281	2522
6021	2522
10	3770
756	3778
1510	3778
2264	3779
3017	3779
3770	3779
4523	3779
5275	3779
6020	3771
759	5032
1505	5028
2259	5028
3012	5028
3765	5028
4517	5028
5262	5033