X	Y
755	8
1502	13
2259	13
3015	13
3770	13
4527	12
5275	8
7	1261
751	1254
1506	1254
2264	1254
3019	1254
3774	1253
4531	1254
5287	1254
6034	1262
13	2508
756	2508
1511	2508
2268	2508
3024	2508
3779	2508
4536	2508
5291	2508
6034	2508
13	3753
760	3762
1515	3762
2273	3762
3028	3762
3783	3762
4540	3762
5296	3762
6043	3754
773	5007
1520	5003
2277	5003
3033	5003
3788	5003
4545	5003
5293	5007